message,Defects,Desktop,"0.00 - 50.00","No Defects",Default,0
[added],Defects,Desktop,"0.00 - 50.00","Cosmetic Markings",Default,8
[added],Defects,Desktop,"0.00 - 50.00","Body Damage",Default,8
[added],Defects,Desktop,"0.00 - 50.00","No Power On",Default,7
[added],Defects,Desktop,"0.00 - 50.00","Missing Memory",Default,5
[added],Defects,Desktop,"0.00 - 50.00","Missing HDD",Default,8
[added],Defects,Desktop,"0.00 - 50.00","BIOS Locked",Default,10
[added],Defects,Workstation,"0.00 - 50.00","No Defects",Default,0
[added],Defects,Workstation,"0.00 - 50.00","Cosmetic Markings",Default,8
[added],Defects,Workstation,"0.00 - 50.00","Body Damage",Default,8
[added],Defects,Workstation,"0.00 - 50.00","No Power On",Default,7
[added],Defects,Workstation,"0.00 - 50.00","Missing Memory",Default,5
[added],Defects,Workstation,"0.00 - 50.00","Missing HDD",Default,8
[added],Defects,Workstation,"0.00 - 50.00","BIOS Locked",Default,10
[added],Defects,Workstation,"0.00 - 50.00","Video Card Missing",Default,12
"[error occurred validating model]",Defects,Workstation,"0.00 - 50.00","Power Supply Missing",Default,12
[added],Defects,"Thin Client","0.00 - 50.00","No Defects",Default,0
[added],Defects,"Thin Client","0.00 - 50.00","Cosmetic Markings",Default,8
[added],Defects,"Thin Client","0.00 - 50.00","Body Damage",Default,8
[added],Defects,"Thin Client","0.00 - 50.00","No Power On",Default,7
[added],Defects,"Thin Client","0.00 - 50.00","Missing Memory",Default,5
[added],Defects,"Thin Client","0.00 - 50.00","Missing HDD",Default,8
[added],Defects,"Thin Client","0.00 - 50.00","BIOS Locked",Default,10
[added],Defects,All-in-One,"0.00 - 50.00","No Defects",Default,0
[added],Defects,All-in-One,"0.00 - 50.00","Cosmetic Markings",Default,8
[added],Defects,All-in-One,"0.00 - 50.00","Body Damage",Default,8
[added],Defects,All-in-One,"0.00 - 50.00","No Power On",Default,7
"[error occurred validating model]",Defects,All-in-One,"0.00 - 50.00","Screen Damage",Default,15
[added],Defects,All-in-One,"0.00 - 50.00","Screen Faulty",Default,15
[added],Defects,All-in-One,"0.00 - 50.00","Missing Memory",Default,5
[added],Defects,All-in-One,"0.00 - 50.00","Missing HDD",Default,8
[added],Defects,All-in-One,"0.00 - 50.00","BIOS Locked",Default,10
[added],Defects,Notebook,"0.00 - 50.00","No Defects",Default,0
[added],Defects,Notebook,"0.00 - 50.00","Cosmetic Markings",Default,10
[added],Defects,Notebook,"0.00 - 50.00","Body Damage",Default,10
[added],Defects,Notebook,"0.00 - 50.00","No Power On",Default,8
"[error occurred validating model]",Defects,Notebook,"0.00 - 50.00","Screen Damage",Default,15
[added],Defects,Notebook,"0.00 - 50.00","Screen Faulty",Default,15
[added],Defects,Notebook,"0.00 - 50.00","Missing Memory",Default,7
[added],Defects,Notebook,"0.00 - 50.00","Missing HDD (Standard)",Default,8
[added],Defects,Notebook,"0.00 - 50.00","Missing HDD (mSata)",Default,60
[added],Defects,Notebook,"0.00 - 50.00","BIOS Locked",Default,14
[added],Defects,Notebook,"0.00 - 50.00","AC Adaptor Missing",Default,12
[added],Defects,Notebook,"0.00 - 50.00","Missing Battery",Default,15
"[added defect][added]",Defects,Notebook,"0.00 - 50.00","Key Missing",Default,15
[added],Defects,LCD,"0.00 - 50.00","Cosmetic Markings",Default,9
[added],Defects,LCD,"0.00 - 50.00","Body Damage",Default,7
[added],Defects,LCD,"0.00 - 50.00","Missing Base",Default,7
[added],Defects,LCD,"0.00 - 50.00","Screen Faulty",Default,100
"[error occurred validating model]",Defects,LCD,"0.00 - 50.00","Screen Damage",Default,100
[added],Defects,Desktop,"51.0 - 100.00","No Defects",Default,0
[added],Defects,Desktop,"51.0 - 100.00","Cosmetic Markings",Default,18
[added],Defects,Desktop,"51.0 - 100.00","Body Damage",Default,18
[added],Defects,Desktop,"51.0 - 100.00","No Power On",Default,26
[added],Defects,Desktop,"51.0 - 100.00","Missing Memory",Default,10
[added],Defects,Desktop,"51.0 - 100.00","Missing HDD",Default,18
[added],Defects,Desktop,"51.0 - 100.00","BIOS Locked",Default,10
[added],Defects,Workstation,"51.0 - 100.00","No Defects",Default,0
[added],Defects,Workstation,"51.0 - 100.00","Cosmetic Markings",Default,18
[added],Defects,Workstation,"51.0 - 100.00","Body Damage",Default,18
[added],Defects,Workstation,"51.0 - 100.00","No Power On",Default,26
[added],Defects,Workstation,"51.0 - 100.00","Missing Memory",Default,10
[added],Defects,Workstation,"51.0 - 100.00","Missing HDD",Default,18
[added],Defects,Workstation,"51.0 - 100.00","BIOS Locked",Default,10
[added],Defects,Workstation,"51.0 - 100.00","Video Card Missing",Default,20
"[error occurred validating model]",Defects,Workstation,"51.0 - 100.00","Power Supply Missing",Default,17
[added],Defects,"Thin Client","51.0 - 100.00","No Defects",Default,0
[added],Defects,"Thin Client","51.0 - 100.00","Cosmetic Markings",Default,18
[added],Defects,"Thin Client","51.0 - 100.00","Body Damage",Default,18
[added],Defects,"Thin Client","51.0 - 100.00","No Power On",Default,26
[added],Defects,"Thin Client","51.0 - 100.00","Missing Memory",Default,10
[added],Defects,"Thin Client","51.0 - 100.00","Missing HDD",Default,18
[added],Defects,"Thin Client","51.0 - 100.00","BIOS Locked",Default,10
[added],Defects,All-in-One,"51.0 - 100.00","No Defects",Default,0
[added],Defects,All-in-One,"51.0 - 100.00","Cosmetic Markings",Default,18
[added],Defects,All-in-One,"51.0 - 100.00","Body Damage",Default,18
[added],Defects,All-in-One,"51.0 - 100.00","No Power On",Default,26
"[error occurred validating model]",Defects,All-in-One,"51.0 - 100.00","Screen Damage",Default,30
[added],Defects,All-in-One,"51.0 - 100.00","Screen Faulty",Default,30
[added],Defects,All-in-One,"51.0 - 100.00","Missing Memory",Default,10
[added],Defects,All-in-One,"51.0 - 100.00","Missing HDD",Default,18
[added],Defects,All-in-One,"51.0 - 100.00","BIOS Locked",Default,10
[added],Defects,Notebook,"51.0 - 100.00","No Defects",Default,0
[added],Defects,Notebook,"51.0 - 100.00","Cosmetic Markings",Default,28
[added],Defects,Notebook,"51.0 - 100.00","Body Damage",Default,28
[added],Defects,Notebook,"51.0 - 100.00","No Power On",Default,29
"[error occurred validating model]",Defects,Notebook,"51.0 - 100.00","Screen Damage",Default,39
[added],Defects,Notebook,"51.0 - 100.00","Screen Faulty",Default,39
[added],Defects,Notebook,"51.0 - 100.00","Missing Memory",Default,13
[added],Defects,Notebook,"51.0 - 100.00","Missing HDD (Standard)",Default,21
[added],Defects,Notebook,"51.0 - 100.00","Missing HDD (mSata)",Default,60
[added],Defects,Notebook,"51.0 - 100.00","BIOS Locked",Default,14
[added],Defects,Notebook,"51.0 - 100.00","AC Adaptor Missing",Default,12
[added],Defects,Notebook,"51.0 - 100.00","Missing Battery",Default,23
[added],Defects,Notebook,"51.0 - 100.00","Key Missing",Default,15
[added],Defects,LCD,"51.0 - 100.00","Cosmetic Markings",Default,14
[added],Defects,LCD,"51.0 - 100.00","Body Damage",Default,10
[added],Defects,LCD,"51.0 - 100.00","Missing Base",Default,10
[added],Defects,LCD,"51.0 - 100.00","Screen Faulty",Default,100
"[error occurred validating model]",Defects,LCD,"51.0 - 100.00","Screen Damage",Default,100
[added],Defects,Desktop,"101.0 - 1000.00","No Defects",Default,0
[added],Defects,Desktop,"101.0 - 1000.00","Cosmetic Markings",Default,24
[added],Defects,Desktop,"101.0 - 1000.00","Body Damage",Default,24
[added],Defects,Desktop,"101.0 - 1000.00","No Power On",Default,36
[added],Defects,Desktop,"101.0 - 1000.00","Missing Memory",Default,12
[added],Defects,Desktop,"101.0 - 1000.00","Missing HDD",Default,24
[added],Defects,Desktop,"101.0 - 1000.00","BIOS Locked",Default,10
[added],Defects,Workstation,"101.0 - 1000.00","No Defects",Default,0
[added],Defects,Workstation,"101.0 - 1000.00","Cosmetic Markings",Default,24
[added],Defects,Workstation,"101.0 - 1000.00","Body Damage",Default,24
[added],Defects,Workstation,"101.0 - 1000.00","No Power On",Default,36
[added],Defects,Workstation,"101.0 - 1000.00","Missing Memory",Default,12
[added],Defects,Workstation,"101.0 - 1000.00","Missing HDD",Default,24
[added],Defects,Workstation,"101.0 - 1000.00","BIOS Locked",Default,10
[added],Defects,Workstation,"101.0 - 1000.00","Video Card Missing",Default,20
"[error occurred validating model]",Defects,Workstation,"101.0 - 1000.00","Power Supply Missing",Default,22
[added],Defects,"Thin Client","101.0 - 1000.00","No Defects",Default,0
[added],Defects,"Thin Client","101.0 - 1000.00","Cosmetic Markings",Default,24
[added],Defects,"Thin Client","101.0 - 1000.00","Body Damage",Default,24
[added],Defects,"Thin Client","101.0 - 1000.00","No Power On",Default,36
[added],Defects,"Thin Client","101.0 - 1000.00","Missing Memory",Default,12
[added],Defects,"Thin Client","101.0 - 1000.00","Missing HDD",Default,24
[added],Defects,"Thin Client","101.0 - 1000.00","BIOS Locked",Default,10
[added],Defects,All-in-One,"101.0 - 1000.00","No Defects",Default,0
[added],Defects,All-in-One,"101.0 - 1000.00","Cosmetic Markings",Default,24
[added],Defects,All-in-One,"101.0 - 1000.00","Body Damage",Default,24
[added],Defects,All-in-One,"101.0 - 1000.00","No Power On",Default,36
"[error occurred validating model]",Defects,All-in-One,"101.0 - 1000.00","Screen Damage",Default,44
[added],Defects,All-in-One,"101.0 - 1000.00","Screen Faulty",Default,44
[added],Defects,All-in-One,"101.0 - 1000.00","Missing Memory",Default,12
[added],Defects,All-in-One,"101.0 - 1000.00","Missing HDD",Default,24
[added],Defects,All-in-One,"101.0 - 1000.00","BIOS Locked",Default,10
[added],Defects,Notebook,"101.0 - 1000.00","No Defects",Default,0
[added],Defects,Notebook,"101.0 - 1000.00","Cosmetic Markings",Default,44
[added],Defects,Notebook,"101.0 - 1000.00","Body Damage",Default,44
[added],Defects,Notebook,"101.0 - 1000.00","No Power On",Default,42
"[error occurred validating model]",Defects,Notebook,"101.0 - 1000.00","Screen Damage",Default,65
[added],Defects,Notebook,"101.0 - 1000.00","Screen Faulty",Default,65
[added],Defects,Notebook,"101.0 - 1000.00","Missing Memory",Default,15
[added],Defects,Notebook,"101.0 - 1000.00","Missing HDD (Standard)",Default,27
[added],Defects,Notebook,"101.0 - 1000.00","Missing HDD (mSata)",Default,60
[added],Defects,Notebook,"101.0 - 1000.00","BIOS Locked",Default,14
[added],Defects,Notebook,"101.0 - 1000.00","AC Adaptor Missing",Default,12
[added],Defects,Notebook,"101.0 - 1000.00","Missing Battery",Default,28
[added],Defects,Notebook,"101.0 - 1000.00","Key Missing",Default,15
[added],Defects,LCD,"101.0 - 1000.00","Cosmetic Markings",Default,18
[added],Defects,LCD,"101.0 - 1000.00","Body Damage",Default,14
[added],Defects,LCD,"101.0 - 1000.00","Missing Base",Default,14
[added],Defects,LCD,"101.0 - 1000.00","Screen Faulty",Default,100
"[error occurred validating model]",Defects,LCD,"101.0 - 1000.00","Screen Damage",Default,100
"[added defect][added]",Defects,Notebook,"101.0 - 1000.00",ZZZZZZ,Default,0
[added],DVD,Notebook,"0.00 - 50.00",No,default,-12
[added],DVD,Desktop,"0.00 - 50.00",No,Default,-12
[added],DVD,All-in-One,"0.00 - 50.00",No,Default,-12
[added],DVD,Workstation,"0.00 - 50.00",No,Default,-12
[added],DVD,Notebook,"51.00 - 100",No,default,-12
[added],DVD,Desktop,"51.00 - 100",No,Default,-12
[added],DVD,All-in-One,"51.00 - 100",No,Default,-12
[added],DVD,Workstation,"51.00 - 100",No,Default,-12
[added],DVD,Notebook,"101.00 - 1000.00",No,default,-12
[added],DVD,Desktop,"101.00 - 1000.00",No,Default,-12
[added],DVD,All-in-One,"101.00 - 1000.00",No,Default,-12
[added],DVD,Workstation,"101.00 - 1000.00",No,Default,-12
