Defects,Desktop,0.00 - 50.00,None,Default,0
Defects,Desktop,0.00 - 50.00,Cosmetic Damage,Default,8
Defects,Desktop,0.00 - 50.00,Does not Power Up / Motherboard,Default,7
Defects,Desktop,0.00 - 50.00,CPU Missing,Default,7
Defects,Desktop,0.00 - 50.00,Memory Missing,Default,5
Defects,Desktop,0.00 - 50.00,HDD (Standard) Faulty / Missing,Default,8
Defects,Desktop,0.00 - 50.00,HDD (mSATA) Faulty / Missing,Default,60
Defects,Desktop,0.00 - 50.00,ODD Broken / Missing,Default,12
Defects,Desktop,0.00 - 50.00,BIOS,Default,10
Defects,Desktop,0.00 - 50.00,Video Card Missing,Default,12
Defects,Desktop,0.00 - 50.00,Power Supply Faulty / Missing,Default,12
Defects,Workstation,0.00 - 50.00,None,Default,0
Defects,Workstation,0.00 - 50.00,Cosmetic Damage,Default,8
Defects,Workstation,0.00 - 50.00,Does not Power Up / Motherboard,Default,7
Defects,Workstation,0.00 - 50.00,CPU Missing,Default,7
Defects,Workstation,0.00 - 50.00,Memory Missing,Default,5
Defects,Workstation,0.00 - 50.00,HDD (Standard) Faulty / Missing,Default,8
Defects,Workstation,0.00 - 50.00,HDD (mSATA) Faulty / Missing,Default,60
Defects,Workstation,0.00 - 50.00,ODD Broken / Missing,Default,12
Defects,Workstation,0.00 - 50.00,BIOS,Default,10
Defects,Workstation,0.00 - 50.00,Video Card Missing,Default,12
Defects,Workstation,0.00 - 50.00,Power Supply Faulty / Missing,Default,12
Defects,Thin Client,0.00 - 50.00,None,Default,0
Defects,Thin Client,0.00 - 50.00,Cosmetic Damage,Default,8
Defects,Thin Client,0.00 - 50.00,Does not Power Up / Motherboard,Default,7
Defects,Thin Client,0.00 - 50.00,CPU Missing,Default,7
Defects,Thin Client,0.00 - 50.00,Memory Missing,Default,5
Defects,Thin Client,0.00 - 50.00,HDD (Standard) Faulty / Missing,Default,8
Defects,Thin Client,0.00 - 50.00,HDD (mSATA) Faulty / Missing,Default,60
Defects,Thin Client,0.00 - 50.00,ODD Broken / Missing,Default,12
Defects,Thin Client,0.00 - 50.00,BIOS,Default,10
Defects,Thin Client,0.00 - 50.00,Video Card Missing,Default,12
Defects,Thin Client,0.00 - 50.00,Power Supply Faulty / Missing,Default,12
Defects,All-in-One,0.00 - 50.00,None,Default,0
Defects,All-in-One,0.00 - 50.00,Cosmetic Damage,Default,8
Defects,All-in-One,0.00 - 50.00,Does not Power Up / Motherboard,Default,7
Defects,All-in-One,0.00 - 50.00,LCD Panel Broken / Missing,Default,15
Defects,All-in-One,0.00 - 50.00,CPU Missing,Default,7
Defects,All-in-One,0.00 - 50.00,Memory Missing,Default,5
Defects,All-in-One,0.00 - 50.00,HDD (Standard) Faulty / Missing,Default,8
Defects,All-in-One,0.00 - 50.00,HDD (mSATA) Faulty / Missing,Default,60
Defects,All-in-One,0.00 - 50.00,ODD Broken / Missing,Default,12
Defects,All-in-One,0.00 - 50.00,BIOS,Default,10
Defects,All-in-One,0.00 - 50.00,Video Card Missing,Default,12
Defects,All-in-One,0.00 - 50.00,Power Supply Faulty / Missing,Default,12
Defects,Notebook,0.00 - 50.00,None,Default,0
Defects,Notebook,0.00 - 50.00,Cosmetic Damage,Default,10
Defects,Notebook,0.00 - 50.00,Does not Power Up / Motherboard,Default,8
Defects,Notebook,0.00 - 50.00,LCD Panel Broken / Missing,Default,15
Defects,Notebook,0.00 - 50.00,CPU Missing,Default,8
Defects,Notebook,0.00 - 50.00,Memory Missing,Default,7
Defects,Notebook,0.00 - 50.00,HDD (Standard) Faulty / Missing,Default,8
Defects,Notebook,0.00 - 50.00,HDD (mSATA) Faulty / Missing,Default,60
Defects,Notebook,0.00 - 50.00,ODD Broken / Missing,Default,8
Defects,Notebook,0.00 - 50.00,BIOS,Default,14
Defects,Notebook,0.00 - 50.00,AC Adaptor Missing,Default,12
Defects,Notebook,0.00 - 50.00,Battery Missing,Default,15
Defects,Notebook,0.00 - 50.00,Key Missing,Default,15
Defects,LCD,0.00 - 50.00,Cosmetic Damage,Default,9
Defects,LCD,0.00 - 50.00,LCD - Base Missing,Default,7
Defects,LCD,0.00 - 50.00,LCD - No Display,Default,11
Defects,LCD,0.00 - 50.00,LCD - Screen Damage,Default,100
Defects,Desktop,51.0 - 100.00,None,Default,0
Defects,Desktop,51.0 - 100.00,Cosmetic Damage,Default,18
Defects,Desktop,51.0 - 100.00,Does not Power Up / Motherboard,Default,26
Defects,Desktop,51.0 - 100.00,CPU Missing,Default,26
Defects,Desktop,51.0 - 100.00,Memory Missing,Default,10
Defects,Desktop,51.0 - 100.00,HDD (Standard) Faulty / Missing,Default,18
Defects,Desktop,51.0 - 100.00,HDD (mSATA) Faulty / Missing,Default,60
Defects,Desktop,51.0 - 100.00,ODD Broken / Missing,Default,12
Defects,Desktop,51.0 - 100.00,BIOS,Default,10
Defects,Desktop,51.0 - 100.00,Video Card Missing,Default,20
Defects,Desktop,51.0 - 100.00,Power Supply Faulty / Missing,Default,17
Defects,Workstation,51.0 - 100.00,None,Default,0
Defects,Workstation,51.0 - 100.00,Cosmetic Damage,Default,18
Defects,Workstation,51.0 - 100.00,Does not Power Up / Motherboard,Default,26
Defects,Workstation,51.0 - 100.00,CPU Missing,Default,26
Defects,Workstation,51.0 - 100.00,Memory Missing,Default,10
Defects,Workstation,51.0 - 100.00,HDD (Standard) Faulty / Missing,Default,18
Defects,Workstation,51.0 - 100.00,HDD (mSATA) Faulty / Missing,Default,60
Defects,Workstation,51.0 - 100.00,ODD Broken / Missing,Default,12
Defects,Workstation,51.0 - 100.00,BIOS,Default,10
Defects,Workstation,51.0 - 100.00,Video Card Missing,Default,20
Defects,Workstation,51.0 - 100.00,Power Supply Faulty / Missing,Default,17
Defects,Thin Client,51.0 - 100.00,None,Default,0
Defects,Thin Client,51.0 - 100.00,Cosmetic Damage,Default,18
Defects,Thin Client,51.0 - 100.00,Does not Power Up / Motherboard,Default,26
Defects,Thin Client,51.0 - 100.00,CPU Missing,Default,26
Defects,Thin Client,51.0 - 100.00,Memory Missing,Default,10
Defects,Thin Client,51.0 - 100.00,HDD (Standard) Faulty / Missing,Default,18
Defects,Thin Client,51.0 - 100.00,HDD (mSATA) Faulty / Missing,Default,60
Defects,Thin Client,51.0 - 100.00,ODD Broken / Missing,Default,12
Defects,Thin Client,51.0 - 100.00,BIOS,Default,10
Defects,Thin Client,51.0 - 100.00,Video Card Missing,Default,20
Defects,Thin Client,51.0 - 100.00,Power Supply Faulty / Missing,Default,17
Defects,All-in-One,51.0 - 100.00,None,Default,0
Defects,All-in-One,51.0 - 100.00,Cosmetic Damage,Default,18
Defects,All-in-One,51.0 - 100.00,Does not Power Up / Motherboard,Default,26
Defects,All-in-One,51.0 - 100.00,LCD Panel Broken / Missing,Default,30
Defects,All-in-One,51.0 - 100.00,CPU Missing,Default,26
Defects,All-in-One,51.0 - 100.00,Memory Missing,Default,10
Defects,All-in-One,51.0 - 100.00,HDD (Standard) Faulty / Missing,Default,18
Defects,All-in-One,51.0 - 100.00,HDD (mSATA) Faulty / Missing,Default,60
Defects,All-in-One,51.0 - 100.00,ODD Broken / Missing,Default,12
Defects,All-in-One,51.0 - 100.00,BIOS,Default,10
Defects,All-in-One,51.0 - 100.00,Video Card Missing,Default,20
Defects,All-in-One,51.0 - 100.00,Power Supply Faulty / Missing,Default,17
Defects,Notebook,51.0 - 100.00,None,Default,0
Defects,Notebook,51.0 - 100.00,Cosmetic Damage,Default,28
Defects,Notebook,51.0 - 100.00,Does not Power Up / Motherboard,Default,29
Defects,Notebook,51.0 - 100.00,LCD Panel Broken / Missing,Default,39
Defects,Notebook,51.0 - 100.00,CPU Missing,Default,29
Defects,Notebook,51.0 - 100.00,Memory Missing,Default,13
Defects,Notebook,51.0 - 100.00,HDD (Standard) Faulty / Missing,Default,21
Defects,Notebook,51.0 - 100.00,HDD (mSATA) Faulty / Missing,Default,60
Defects,Notebook,51.0 - 100.00,ODD Broken / Missing,Default,12
Defects,Notebook,51.0 - 100.00,BIOS,Default,14
Defects,Notebook,51.0 - 100.00,AC Adaptor Missing,Default,12
Defects,Notebook,51.0 - 100.00,Battery Missing,Default,23
Defects,Notebook,51.0 - 100.00,Key Missing,Default,15
Defects,LCD,51.0 - 100.00,Cosmetic Damage,Default,14
Defects,LCD,51.0 - 100.00,LCD - Base Missing,Default,10
Defects,LCD,51.0 - 100.00,LCD - No Display,Default,16
Defects,LCD,51.0 - 100.00,LCD - Screen Damage,Default,100
Defects,Desktop,101.0 - 1000.00,None,Default,0
Defects,Desktop,101.0 - 1000.00,Cosmetic Damage,Default,24
Defects,Desktop,101.0 - 1000.00,Does not Power Up / Motherboard,Default,36
Defects,Desktop,101.0 - 1000.00,CPU Missing,Default,38
Defects,Desktop,101.0 - 1000.00,Memory Missing,Default,12
Defects,Desktop,101.0 - 1000.00,HDD (Standard) Faulty / Missing,Default,24
Defects,Desktop,101.0 - 1000.00,HDD (mSATA) Faulty / Missing,Default,60
Defects,Desktop,101.0 - 1000.00,ODD Broken / Missing,Default,12
Defects,Desktop,101.0 - 1000.00,BIOS,Default,10
Defects,Desktop,101.0 - 1000.00,Video Card Missing,Default,20
Defects,Desktop,101.0 - 1000.00,Power Supply Faulty / Missing,Default,22
Defects,Workstation,101.0 - 1000.00,None,Default,0
Defects,Workstation,101.0 - 1000.00,Cosmetic Damage,Default,24
Defects,Workstation,101.0 - 1000.00,Does not Power Up / Motherboard,Default,36
Defects,Workstation,101.0 - 1000.00,CPU Missing,Default,38
Defects,Workstation,101.0 - 1000.00,Memory Missing,Default,12
Defects,Workstation,101.0 - 1000.00,HDD (Standard) Faulty / Missing,Default,24
Defects,Workstation,101.0 - 1000.00,HDD (mSATA) Faulty / Missing,Default,60
Defects,Workstation,101.0 - 1000.00,ODD Broken / Missing,Default,12
Defects,Workstation,101.0 - 1000.00,BIOS,Default,10
Defects,Workstation,101.0 - 1000.00,Video Card Missing,Default,20
Defects,Workstation,101.0 - 1000.00,Power Supply Faulty / Missing,Default,22
Defects,Thin Client,101.0 - 1000.00,None,Default,0
Defects,Thin Client,101.0 - 1000.00,Cosmetic Damage,Default,24
Defects,Thin Client,101.0 - 1000.00,Does not Power Up / Motherboard,Default,36
Defects,Thin Client,101.0 - 1000.00,CPU Missing,Default,38
Defects,Thin Client,101.0 - 1000.00,Memory Missing,Default,12
Defects,Thin Client,101.0 - 1000.00,HDD (Standard) Faulty / Missing,Default,24
Defects,Thin Client,101.0 - 1000.00,HDD (mSATA) Faulty / Missing,Default,60
Defects,Thin Client,101.0 - 1000.00,ODD Broken / Missing,Default,12
Defects,Thin Client,101.0 - 1000.00,BIOS,Default,10
Defects,Thin Client,101.0 - 1000.00,Video Card Missing,Default,20
Defects,Thin Client,101.0 - 1000.00,Power Supply Faulty / Missing,Default,22
Defects,All-in-One,101.0 - 1000.00,None,Default,0
Defects,All-in-One,101.0 - 1000.00,Cosmetic Damage,Default,24
Defects,All-in-One,101.0 - 1000.00,Does not Power Up / Motherboard,Default,36
Defects,All-in-One,101.0 - 1000.00,LCD Panel Broken / Missing,Default,44
Defects,All-in-One,101.0 - 1000.00,CPU Missing,Default,38
Defects,All-in-One,101.0 - 1000.00,Memory Missing,Default,12
Defects,All-in-One,101.0 - 1000.00,HDD (Standard) Faulty / Missing,Default,24
Defects,All-in-One,101.0 - 1000.00,HDD (mSATA) Faulty / Missing,Default,60
Defects,All-in-One,101.0 - 1000.00,ODD Broken / Missing,Default,12
Defects,All-in-One,101.0 - 1000.00,BIOS,Default,10
Defects,All-in-One,101.0 - 1000.00,Video Card Missing,Default,20
Defects,All-in-One,101.0 - 1000.00,Power Supply Faulty / Missing,Default,22
Defects,Notebook,101.0 - 1000.00,None,Default,0
Defects,Notebook,101.0 - 1000.00,Cosmetic Damage,Default,44
Defects,Notebook,101.0 - 1000.00,Does not Power Up / Motherboard,Default,42
Defects,Notebook,101.0 - 1000.00,LCD Panel Broken / Missing,Default,65
Defects,Notebook,101.0 - 1000.00,CPU Missing,Default,42
Defects,Notebook,101.0 - 1000.00,Memory Missing,Default,15
Defects,Notebook,101.0 - 1000.00,HDD (Standard) Faulty / Missing,Default,27
Defects,Notebook,101.0 - 1000.00,HDD (mSATA) Faulty / Missing,Default,60
Defects,Notebook,101.0 - 1000.00,ODD Broken / Missing,Default,12
Defects,Notebook,101.0 - 1000.00,BIOS,Default,14
Defects,Notebook,101.0 - 1000.00,AC Adaptor Missing,Default,12
Defects,Notebook,101.0 - 1000.00,Battery Missing,Default,28
Defects,Notebook,101.0 - 1000.00,Key Missing,Default,15
Defects,LCD,101.0 - 1000.00,Cosmetic Damage,Default,18
Defects,LCD,101.0 - 1000.00,LCD - Base Missing,Default,14
Defects,LCD,101.0 - 1000.00,LCD - No Display,Default,21
Defects,LCD,101.0 - 1000.00,LCD - Screen Damage,Default,100
DVD,Notebook,0.00 - 50.00,No,default,-12
DVD,Desktop,0.00 - 50.00,No,default,-12
DVD,All-in-One,0.00 - 50.00,No,default,-12
DVD,Workstation,0.00 - 50.00,No,default,-12
DVD,Notebook,51.00 - 100,No,default,-12
DVD,Desktop,51.00 - 100,No,default,-12
DVD,All-in-One,51.00 - 100,No,default,-12
DVD,Workstation,51.00 - 100,No,default,-12
DVD,Notebook,101.00 - 1000.00,No,default,-12
DVD,Desktop,101.00 - 1000.00,No,default,-12
DVD,All-in-One,101.00 - 1000.00,No,default,-12
DVD,Workstation,101.00 - 1000.00,No,default,-12
