message,Defects,Desktop,"0.00 - 50.00",None,Default,0
OK,Defects,Desktop,"0.00 - 50.00","Cosmetic Damage",Default,8
OK,Defects,Desktop,"0.00 - 50.00","Does not Power Up / Motherboard",Default,7
OK,Defects,Desktop,"0.00 - 50.00","CPU Missing",Default,7
OK,Defects,Desktop,"0.00 - 50.00","Memory Missing",Default,5
"[added defect]",Defects,Desktop,"0.00 - 50.00","HDD (Standard) Faulty / Missing",Default,8
"[added defect]",Defects,Desktop,"0.00 - 50.00","HDD (mSATA) Faulty / Missing",Default,60
OK,Defects,Desktop,"0.00 - 50.00","ODD Broken / Missing",Default,12
OK,Defects,Desktop,"0.00 - 50.00",BIOS,Default,10
OK,Defects,Desktop,"0.00 - 50.00","Video Card Missing",Default,12
"[added defect]",Defects,Desktop,"0.00 - 50.00","Power Supply Faulty / Missing",Default,12
OK,Defects,Workstation,"0.00 - 50.00",None,Default,0
OK,Defects,Workstation,"0.00 - 50.00","Cosmetic Damage",Default,8
OK,Defects,Workstation,"0.00 - 50.00","Does not Power Up / Motherboard",Default,7
OK,Defects,Workstation,"0.00 - 50.00","CPU Missing",Default,7
OK,Defects,Workstation,"0.00 - 50.00","Memory Missing",Default,5
"[added defect]",Defects,Workstation,"0.00 - 50.00","HDD (Standard) Faulty / Missing",Default,8
"[added defect]",Defects,Workstation,"0.00 - 50.00","HDD (mSATA) Faulty / Missing",Default,60
OK,Defects,Workstation,"0.00 - 50.00","ODD Broken / Missing",Default,12
OK,Defects,Workstation,"0.00 - 50.00",BIOS,Default,10
OK,Defects,Workstation,"0.00 - 50.00","Video Card Missing",Default,12
"[added defect]",Defects,Workstation,"0.00 - 50.00","Power Supply Faulty / Missing",Default,12
OK,Defects,"Thin Client","0.00 - 50.00",None,Default,0
OK,Defects,"Thin Client","0.00 - 50.00","Cosmetic Damage",Default,8
OK,Defects,"Thin Client","0.00 - 50.00","Does not Power Up / Motherboard",Default,7
OK,Defects,"Thin Client","0.00 - 50.00","CPU Missing",Default,7
OK,Defects,"Thin Client","0.00 - 50.00","Memory Missing",Default,5
"[added defect]",Defects,"Thin Client","0.00 - 50.00","HDD (Standard) Faulty / Missing",Default,8
"[added defect]",Defects,"Thin Client","0.00 - 50.00","HDD (mSATA) Faulty / Missing",Default,60
OK,Defects,"Thin Client","0.00 - 50.00","ODD Broken / Missing",Default,12
OK,Defects,"Thin Client","0.00 - 50.00",BIOS,Default,10
OK,Defects,"Thin Client","0.00 - 50.00","Video Card Missing",Default,12
"[added defect]",Defects,"Thin Client","0.00 - 50.00","Power Supply Faulty / Missing",Default,12
OK,Defects,All-in-One,"0.00 - 50.00",None,Default,0
OK,Defects,All-in-One,"0.00 - 50.00","Cosmetic Damage",Default,8
OK,Defects,All-in-One,"0.00 - 50.00","Does not Power Up / Motherboard",Default,7
OK,Defects,All-in-One,"0.00 - 50.00","LCD Panel Broken / Missing",Default,15
OK,Defects,All-in-One,"0.00 - 50.00","CPU Missing",Default,7
OK,Defects,All-in-One,"0.00 - 50.00","Memory Missing",Default,5
"[added defect]",Defects,All-in-One,"0.00 - 50.00","HDD (Standard) Faulty / Missing",Default,8
"[added defect]",Defects,All-in-One,"0.00 - 50.00","HDD (mSATA) Faulty / Missing",Default,60
OK,Defects,All-in-One,"0.00 - 50.00","ODD Broken / Missing",Default,12
OK,Defects,All-in-One,"0.00 - 50.00",BIOS,Default,10
OK,Defects,All-in-One,"0.00 - 50.00","Video Card Missing",Default,12
"[added defect]",Defects,All-in-One,"0.00 - 50.00","Power Supply Faulty / Missing",Default,12
OK,Defects,Notebook,"0.00 - 50.00",None,Default,0
OK,Defects,Notebook,"0.00 - 50.00","Cosmetic Damage",Default,10
OK,Defects,Notebook,"0.00 - 50.00","Does not Power Up / Motherboard",Default,8
OK,Defects,Notebook,"0.00 - 50.00","LCD Panel Broken / Missing",Default,15
OK,Defects,Notebook,"0.00 - 50.00","CPU Missing",Default,8
OK,Defects,Notebook,"0.00 - 50.00","Memory Missing",Default,7
"[added defect]",Defects,Notebook,"0.00 - 50.00","HDD (Standard) Faulty / Missing",Default,8
"[added defect]",Defects,Notebook,"0.00 - 50.00","HDD (mSATA) Faulty / Missing",Default,60
OK,Defects,Notebook,"0.00 - 50.00","ODD Broken / Missing",Default,8
OK,Defects,Notebook,"0.00 - 50.00",BIOS,Default,14
OK,Defects,Notebook,"0.00 - 50.00","AC Adaptor Missing",Default,12
OK,Defects,Notebook,"0.00 - 50.00","Battery Missing",Default,15
OK,Defects,Notebook,"0.00 - 50.00","Key Missing",Default,15
OK,Defects,LCD,"0.00 - 50.00","Cosmetic Damage",Default,9
"[added defect]",Defects,LCD,"0.00 - 50.00","LCD - Base Missing",Default,7
"[added defect]",Defects,LCD,"0.00 - 50.00","LCD - No Display",Default,11
"[added defect]",Defects,LCD,"0.00 - 50.00","LCD - Screen Damage",Default,100
OK,Defects,Desktop,"51.0 - 100.00",None,Default,0
OK,Defects,Desktop,"51.0 - 100.00","Cosmetic Damage",Default,18
OK,Defects,Desktop,"51.0 - 100.00","Does not Power Up / Motherboard",Default,26
OK,Defects,Desktop,"51.0 - 100.00","CPU Missing",Default,26
OK,Defects,Desktop,"51.0 - 100.00","Memory Missing",Default,10
"[added defect]",Defects,Desktop,"51.0 - 100.00","HDD (Standard) Faulty / Missing",Default,18
"[added defect]",Defects,Desktop,"51.0 - 100.00","HDD (mSATA) Faulty / Missing",Default,60
OK,Defects,Desktop,"51.0 - 100.00","ODD Broken / Missing",Default,12
OK,Defects,Desktop,"51.0 - 100.00",BIOS,Default,10
OK,Defects,Desktop,"51.0 - 100.00","Video Card Missing",Default,20
"[added defect]",Defects,Desktop,"51.0 - 100.00","Power Supply Faulty / Missing",Default,17
OK,Defects,Workstation,"51.0 - 100.00",None,Default,0
OK,Defects,Workstation,"51.0 - 100.00","Cosmetic Damage",Default,18
OK,Defects,Workstation,"51.0 - 100.00","Does not Power Up / Motherboard",Default,26
OK,Defects,Workstation,"51.0 - 100.00","CPU Missing",Default,26
OK,Defects,Workstation,"51.0 - 100.00","Memory Missing",Default,10
"[added defect]",Defects,Workstation,"51.0 - 100.00","HDD (Standard) Faulty / Missing",Default,18
"[added defect]",Defects,Workstation,"51.0 - 100.00","HDD (mSATA) Faulty / Missing",Default,60
OK,Defects,Workstation,"51.0 - 100.00","ODD Broken / Missing",Default,12
OK,Defects,Workstation,"51.0 - 100.00",BIOS,Default,10
OK,Defects,Workstation,"51.0 - 100.00","Video Card Missing",Default,20
"[added defect]",Defects,Workstation,"51.0 - 100.00","Power Supply Faulty / Missing",Default,17
OK,Defects,"Thin Client","51.0 - 100.00",None,Default,0
OK,Defects,"Thin Client","51.0 - 100.00","Cosmetic Damage",Default,18
OK,Defects,"Thin Client","51.0 - 100.00","Does not Power Up / Motherboard",Default,26
OK,Defects,"Thin Client","51.0 - 100.00","CPU Missing",Default,26
OK,Defects,"Thin Client","51.0 - 100.00","Memory Missing",Default,10
"[added defect]",Defects,"Thin Client","51.0 - 100.00","HDD (Standard) Faulty / Missing",Default,18
"[added defect]",Defects,"Thin Client","51.0 - 100.00","HDD (mSATA) Faulty / Missing",Default,60
OK,Defects,"Thin Client","51.0 - 100.00","ODD Broken / Missing",Default,12
OK,Defects,"Thin Client","51.0 - 100.00",BIOS,Default,10
OK,Defects,"Thin Client","51.0 - 100.00","Video Card Missing",Default,20
"[added defect]",Defects,"Thin Client","51.0 - 100.00","Power Supply Faulty / Missing",Default,17
OK,Defects,All-in-One,"51.0 - 100.00",None,Default,0
OK,Defects,All-in-One,"51.0 - 100.00","Cosmetic Damage",Default,18
OK,Defects,All-in-One,"51.0 - 100.00","Does not Power Up / Motherboard",Default,26
OK,Defects,All-in-One,"51.0 - 100.00","LCD Panel Broken / Missing",Default,30
OK,Defects,All-in-One,"51.0 - 100.00","CPU Missing",Default,26
OK,Defects,All-in-One,"51.0 - 100.00","Memory Missing",Default,10
"[added defect]",Defects,All-in-One,"51.0 - 100.00","HDD (Standard) Faulty / Missing",Default,18
"[added defect]",Defects,All-in-One,"51.0 - 100.00","HDD (mSATA) Faulty / Missing",Default,60
OK,Defects,All-in-One,"51.0 - 100.00","ODD Broken / Missing",Default,12
OK,Defects,All-in-One,"51.0 - 100.00",BIOS,Default,10
OK,Defects,All-in-One,"51.0 - 100.00","Video Card Missing",Default,20
"[added defect]",Defects,All-in-One,"51.0 - 100.00","Power Supply Faulty / Missing",Default,17
OK,Defects,Notebook,"51.0 - 100.00",None,Default,0
OK,Defects,Notebook,"51.0 - 100.00","Cosmetic Damage",Default,28
OK,Defects,Notebook,"51.0 - 100.00","Does not Power Up / Motherboard",Default,29
OK,Defects,Notebook,"51.0 - 100.00","LCD Panel Broken / Missing",Default,39
OK,Defects,Notebook,"51.0 - 100.00","CPU Missing",Default,29
OK,Defects,Notebook,"51.0 - 100.00","Memory Missing",Default,13
"[added defect]",Defects,Notebook,"51.0 - 100.00","HDD (Standard) Faulty / Missing",Default,21
"[added defect]",Defects,Notebook,"51.0 - 100.00","HDD (mSATA) Faulty / Missing",Default,60
OK,Defects,Notebook,"51.0 - 100.00","ODD Broken / Missing",Default,12
OK,Defects,Notebook,"51.0 - 100.00",BIOS,Default,14
OK,Defects,Notebook,"51.0 - 100.00","AC Adaptor Missing",Default,12
OK,Defects,Notebook,"51.0 - 100.00","Battery Missing",Default,23
OK,Defects,Notebook,"51.0 - 100.00","Key Missing",Default,15
OK,Defects,LCD,"51.0 - 100.00","Cosmetic Damage",Default,14
"[added defect]",Defects,LCD,"51.0 - 100.00","LCD - Base Missing",Default,10
"[added defect]",Defects,LCD,"51.0 - 100.00","LCD - No Display",Default,16
"[added defect]",Defects,LCD,"51.0 - 100.00","LCD - Screen Damage",Default,100
OK,Defects,Desktop,"101.0 - 1000.00",None,Default,0
OK,Defects,Desktop,"101.0 - 1000.00","Cosmetic Damage",Default,24
OK,Defects,Desktop,"101.0 - 1000.00","Does not Power Up / Motherboard",Default,36
OK,Defects,Desktop,"101.0 - 1000.00","CPU Missing",Default,38
OK,Defects,Desktop,"101.0 - 1000.00","Memory Missing",Default,12
"[added defect]",Defects,Desktop,"101.0 - 1000.00","HDD (Standard) Faulty / Missing",Default,24
"[added defect]",Defects,Desktop,"101.0 - 1000.00","HDD (mSATA) Faulty / Missing",Default,60
OK,Defects,Desktop,"101.0 - 1000.00","ODD Broken / Missing",Default,12
OK,Defects,Desktop,"101.0 - 1000.00",BIOS,Default,10
OK,Defects,Desktop,"101.0 - 1000.00","Video Card Missing",Default,20
"[added defect]",Defects,Desktop,"101.0 - 1000.00","Power Supply Faulty / Missing",Default,22
OK,Defects,Workstation,"101.0 - 1000.00",None,Default,0
OK,Defects,Workstation,"101.0 - 1000.00","Cosmetic Damage",Default,24
OK,Defects,Workstation,"101.0 - 1000.00","Does not Power Up / Motherboard",Default,36
OK,Defects,Workstation,"101.0 - 1000.00","CPU Missing",Default,38
OK,Defects,Workstation,"101.0 - 1000.00","Memory Missing",Default,12
"[added defect]",Defects,Workstation,"101.0 - 1000.00","HDD (Standard) Faulty / Missing",Default,24
"[added defect]",Defects,Workstation,"101.0 - 1000.00","HDD (mSATA) Faulty / Missing",Default,60
OK,Defects,Workstation,"101.0 - 1000.00","ODD Broken / Missing",Default,12
OK,Defects,Workstation,"101.0 - 1000.00",BIOS,Default,10
OK,Defects,Workstation,"101.0 - 1000.00","Video Card Missing",Default,20
"[added defect]",Defects,Workstation,"101.0 - 1000.00","Power Supply Faulty / Missing",Default,22
OK,Defects,"Thin Client","101.0 - 1000.00",None,Default,0
OK,Defects,"Thin Client","101.0 - 1000.00","Cosmetic Damage",Default,24
OK,Defects,"Thin Client","101.0 - 1000.00","Does not Power Up / Motherboard",Default,36
OK,Defects,"Thin Client","101.0 - 1000.00","CPU Missing",Default,38
OK,Defects,"Thin Client","101.0 - 1000.00","Memory Missing",Default,12
"[added defect]",Defects,"Thin Client","101.0 - 1000.00","HDD (Standard) Faulty / Missing",Default,24
"[added defect]",Defects,"Thin Client","101.0 - 1000.00","HDD (mSATA) Faulty / Missing",Default,60
OK,Defects,"Thin Client","101.0 - 1000.00","ODD Broken / Missing",Default,12
OK,Defects,"Thin Client","101.0 - 1000.00",BIOS,Default,10
OK,Defects,"Thin Client","101.0 - 1000.00","Video Card Missing",Default,20
"[added defect]",Defects,"Thin Client","101.0 - 1000.00","Power Supply Faulty / Missing",Default,22
OK,Defects,All-in-One,"101.0 - 1000.00",None,Default,0
OK,Defects,All-in-One,"101.0 - 1000.00","Cosmetic Damage",Default,24
OK,Defects,All-in-One,"101.0 - 1000.00","Does not Power Up / Motherboard",Default,36
OK,Defects,All-in-One,"101.0 - 1000.00","LCD Panel Broken / Missing",Default,44
OK,Defects,All-in-One,"101.0 - 1000.00","CPU Missing",Default,38
OK,Defects,All-in-One,"101.0 - 1000.00","Memory Missing",Default,12
"[added defect]",Defects,All-in-One,"101.0 - 1000.00","HDD (Standard) Faulty / Missing",Default,24
"[added defect]",Defects,All-in-One,"101.0 - 1000.00","HDD (mSATA) Faulty / Missing",Default,60
OK,Defects,All-in-One,"101.0 - 1000.00","ODD Broken / Missing",Default,12
OK,Defects,All-in-One,"101.0 - 1000.00",BIOS,Default,10
OK,Defects,All-in-One,"101.0 - 1000.00","Video Card Missing",Default,20
"[added defect]",Defects,All-in-One,"101.0 - 1000.00","Power Supply Faulty / Missing",Default,22
OK,Defects,Notebook,"101.0 - 1000.00",None,Default,0
OK,Defects,Notebook,"101.0 - 1000.00","Cosmetic Damage",Default,44
OK,Defects,Notebook,"101.0 - 1000.00","Does not Power Up / Motherboard",Default,42
OK,Defects,Notebook,"101.0 - 1000.00","LCD Panel Broken / Missing",Default,65
OK,Defects,Notebook,"101.0 - 1000.00","CPU Missing",Default,42
OK,Defects,Notebook,"101.0 - 1000.00","Memory Missing",Default,15
"[added defect]",Defects,Notebook,"101.0 - 1000.00","HDD (Standard) Faulty / Missing",Default,27
"[added defect]",Defects,Notebook,"101.0 - 1000.00","HDD (mSATA) Faulty / Missing",Default,60
OK,Defects,Notebook,"101.0 - 1000.00","ODD Broken / Missing",Default,12
OK,Defects,Notebook,"101.0 - 1000.00",BIOS,Default,14
OK,Defects,Notebook,"101.0 - 1000.00","AC Adaptor Missing",Default,12
OK,Defects,Notebook,"101.0 - 1000.00","Battery Missing",Default,28
OK,Defects,Notebook,"101.0 - 1000.00","Key Missing",Default,15
OK,Defects,LCD,"101.0 - 1000.00","Cosmetic Damage",Default,18
"[added defect]",Defects,LCD,"101.0 - 1000.00","LCD - Base Missing",Default,14
"[added defect]",Defects,LCD,"101.0 - 1000.00","LCD - No Display",Default,21
"[added defect]",Defects,LCD,"101.0 - 1000.00","LCD - Screen Damage",Default,100
OK,DVD,Notebook,"0.00 - 50.00",No,default,-12
OK,DVD,Desktop,"0.00 - 50.00",No,default,-12
OK,DVD,All-in-One,"0.00 - 50.00",No,default,-12
OK,DVD,Workstation,"0.00 - 50.00",No,default,-12
OK,DVD,Notebook,"51.00 - 100",No,default,-12
OK,DVD,Desktop,"51.00 - 100",No,default,-12
OK,DVD,All-in-One,"51.00 - 100",No,default,-12
OK,DVD,Workstation,"51.00 - 100",No,default,-12
OK,DVD,Notebook,"101.00 - 1000.00",No,default,-12
OK,DVD,Desktop,"101.00 - 1000.00",No,default,-12
OK,DVD,All-in-One,"101.00 - 1000.00",No,default,-12
OK,DVD,Workstation,"101.00 - 1000.00",No,default,-12
