message,Country,Regional,"Quantity from","Quantity to",Client,Cost
"[the factor can only be Defects or DVD][price format invalid][price format invalid][product type lookup not found]",India,"All regions",1,5,default,10
"[the factor can only be Defects or DVD][price format invalid][price format invalid][product type lookup not found]",India,"All regions",6,10,default,8
"[the factor can only be Defects or DVD][price format invalid][price format invalid][product type lookup not found]",India,"All regions",11,20,default,6
"[the factor can only be Defects or DVD][price format invalid][price format invalid][product type lookup not found]",India,"All regions",21,50,default,5
"[the factor can only be Defects or DVD][price format invalid][price format invalid][product type lookup not found]",India,"All regions",51,100,default,4
"[the factor can only be Defects or DVD][price format invalid][price format invalid][product type lookup not found]",India,"All regions",101,200,default,3
"[the factor can only be Defects or DVD][price format invalid][price format invalid][product type lookup not found]",India,"All regions",201,20000,default,3
"[the factor can only be Defects or DVD][price format invalid][price format invalid][product type lookup not found]",China,"All regions",1,5,default,10
"[the factor can only be Defects or DVD][price format invalid][price format invalid][product type lookup not found]",China,"All regions",6,10,default,8
"[the factor can only be Defects or DVD][price format invalid][price format invalid][product type lookup not found]",China,"All regions",11,20,default,6
"[the factor can only be Defects or DVD][price format invalid][price format invalid][product type lookup not found]",China,"All regions",21,50,default,5
"[the factor can only be Defects or DVD][price format invalid][price format invalid][product type lookup not found]",China,"All regions",51,100,default,4
"[the factor can only be Defects or DVD][price format invalid][price format invalid][product type lookup not found]",China,"All regions",101,200,default,3
"[the factor can only be Defects or DVD][price format invalid][price format invalid][product type lookup not found]",China,"All regions",201,20000,default,3
"[the factor can only be Defects or DVD][price format invalid][price format invalid][product type lookup not found]","Hong Kong","Hong Kong",1,5,default,8
"[the factor can only be Defects or DVD][price format invalid][price format invalid][product type lookup not found]","Hong Kong","Hong Kong",6,10,default,6
"[the factor can only be Defects or DVD][price format invalid][price format invalid][product type lookup not found]","Hong Kong","Hong Kong",11,20,default,5
"[the factor can only be Defects or DVD][price format invalid][price format invalid][product type lookup not found]","Hong Kong","Hong Kong",21,50,default,4
"[the factor can only be Defects or DVD][price format invalid][price format invalid][product type lookup not found]","Hong Kong","Hong Kong",51,100,default,3
"[the factor can only be Defects or DVD][price format invalid][price format invalid][product type lookup not found]","Hong Kong","Hong Kong",101,200,default,3
"[the factor can only be Defects or DVD][price format invalid][price format invalid][product type lookup not found]","Hong Kong","Hong Kong",201,20000,default,3
"[the factor can only be Defects or DVD][price format invalid][price format invalid][product type lookup not found]",Philippines,Manila,1,5,default,10
"[the factor can only be Defects or DVD][price format invalid][price format invalid][product type lookup not found]",Philippines,Manila,6,10,default,8
"[the factor can only be Defects or DVD][price format invalid][price format invalid][product type lookup not found]",Philippines,Manila,11,20,default,6
"[the factor can only be Defects or DVD][price format invalid][price format invalid][product type lookup not found]",Philippines,Manila,21,50,default,5
"[the factor can only be Defects or DVD][price format invalid][price format invalid][product type lookup not found]",Philippines,Manila,51,100,default,4
"[the factor can only be Defects or DVD][price format invalid][price format invalid][product type lookup not found]",Philippines,Manila,101,200,default,3
"[the factor can only be Defects or DVD][price format invalid][price format invalid][product type lookup not found]",Philippines,Manila,201,20000,default,3
"[the factor can only be Defects or DVD][price format invalid][price format invalid][product type lookup not found]",Philippines,"All Other regions",1,5,default,15
"[the factor can only be Defects or DVD][price format invalid][price format invalid][product type lookup not found]",Philippines,"All Other regions",6,10,default,12
"[the factor can only be Defects or DVD][price format invalid][price format invalid][product type lookup not found]",Philippines,"All Other regions",11,20,default,9
"[the factor can only be Defects or DVD][price format invalid][price format invalid][product type lookup not found]",Philippines,"All Other regions",21,50,default,7.5
"[the factor can only be Defects or DVD][price format invalid][price format invalid][product type lookup not found]",Philippines,"All Other regions",51,100,default,6
"[the factor can only be Defects or DVD][price format invalid][price format invalid][product type lookup not found]",Philippines,"All Other regions",101,200,default,4.5
"[the factor can only be Defects or DVD][price format invalid][price format invalid][product type lookup not found]",Philippines,"All Other regions",201,20000,default,4.5
"[the factor can only be Defects or DVD][price format invalid][price format invalid][product type lookup not found]",Thailand,"Bangkok Area",1,5,default,8
"[the factor can only be Defects or DVD][price format invalid][price format invalid][product type lookup not found]",Thailand,"Bangkok Area",6,10,default,6
"[the factor can only be Defects or DVD][price format invalid][price format invalid][product type lookup not found]",Thailand,"Bangkok Area",11,20,default,5
"[the factor can only be Defects or DVD][price format invalid][price format invalid][product type lookup not found]",Thailand,"Bangkok Area",21,50,default,4
"[the factor can only be Defects or DVD][price format invalid][price format invalid][product type lookup not found]",Thailand,"Bangkok Area",51,100,default,3
"[the factor can only be Defects or DVD][price format invalid][price format invalid][product type lookup not found]",Thailand,"Bangkok Area",101,200,default,3
"[the factor can only be Defects or DVD][price format invalid][price format invalid][product type lookup not found]",Thailand,"Bangkok Area",201,20000,default,3
"[the factor can only be Defects or DVD][price format invalid][price format invalid][product type lookup not found]",Thailand,"All Other regions",1,5,default,12
"[the factor can only be Defects or DVD][price format invalid][price format invalid][product type lookup not found]",Thailand,"All Other regions",6,10,default,9
"[the factor can only be Defects or DVD][price format invalid][price format invalid][product type lookup not found]",Thailand,"All Other regions",11,20,default,7.5
"[the factor can only be Defects or DVD][price format invalid][price format invalid][product type lookup not found]",Thailand,"All Other regions",21,50,default,6
"[the factor can only be Defects or DVD][price format invalid][price format invalid][product type lookup not found]",Thailand,"All Other regions",51,100,default,4.5
"[the factor can only be Defects or DVD][price format invalid][price format invalid][product type lookup not found]",Thailand,"All Other regions",101,200,default,4.5
"[the factor can only be Defects or DVD][price format invalid][price format invalid][product type lookup not found]",Thailand,"All Other regions",201,20000,default,4.5
"[the factor can only be Defects or DVD][price format invalid][price format invalid][product type lookup not found]",Malaysia,"Penninsula - Kuala Lumpur ",1,5,default,8
"[the factor can only be Defects or DVD][price format invalid][price format invalid][product type lookup not found]",Malaysia,"Penninsula - Kuala Lumpur ",6,10,default,6
"[the factor can only be Defects or DVD][price format invalid][price format invalid][product type lookup not found]",Malaysia,"Penninsula - Kuala Lumpur ",11,20,default,5
"[the factor can only be Defects or DVD][price format invalid][price format invalid][product type lookup not found]",Malaysia,"Penninsula - Kuala Lumpur ",21,50,default,4
"[the factor can only be Defects or DVD][price format invalid][price format invalid][product type lookup not found]",Malaysia,"Penninsula - Kuala Lumpur ",51,100,default,3
"[the factor can only be Defects or DVD][price format invalid][price format invalid][product type lookup not found]",Malaysia,"Penninsula - Kuala Lumpur ",101,200,default,3
"[the factor can only be Defects or DVD][price format invalid][price format invalid][product type lookup not found]",Malaysia,"Penninsula - Kuala Lumpur ",201,20000,default,3
"[the factor can only be Defects or DVD][price format invalid][price format invalid][product type lookup not found]",Malaysia,"Penninsula - Non KL",1,5,default,12
"[the factor can only be Defects or DVD][price format invalid][price format invalid][product type lookup not found]",Malaysia,"Penninsula - Non KL",6,10,default,9
"[the factor can only be Defects or DVD][price format invalid][price format invalid][product type lookup not found]",Malaysia,"Penninsula - Non KL",11,20,default,7.5
"[the factor can only be Defects or DVD][price format invalid][price format invalid][product type lookup not found]",Malaysia,"Penninsula - Non KL",21,50,default,6
"[the factor can only be Defects or DVD][price format invalid][price format invalid][product type lookup not found]",Malaysia,"Penninsula - Non KL",51,100,default,4.5
"[the factor can only be Defects or DVD][price format invalid][price format invalid][product type lookup not found]",Malaysia,"Penninsula - Non KL",101,200,default,4.5
"[the factor can only be Defects or DVD][price format invalid][price format invalid][product type lookup not found]",Malaysia,"Penninsula - Non KL",201,20000,default,4.5
"[the factor can only be Defects or DVD][price format invalid][price format invalid][product type lookup not found]",Malaysia,"Sabah / Sarawak",1,5,default,40
"[the factor can only be Defects or DVD][price format invalid][price format invalid][product type lookup not found]",Malaysia,"Sabah / Sarawak",6,10,default,30
"[the factor can only be Defects or DVD][price format invalid][price format invalid][product type lookup not found]",Malaysia,"Sabah / Sarawak",11,20,default,25
"[the factor can only be Defects or DVD][price format invalid][price format invalid][product type lookup not found]",Malaysia,"Sabah / Sarawak",21,50,default,20
"[the factor can only be Defects or DVD][price format invalid][price format invalid][product type lookup not found]",Malaysia,"Sabah / Sarawak",51,100,default,15
"[the factor can only be Defects or DVD][price format invalid][price format invalid][product type lookup not found]",Malaysia,"Sabah / Sarawak",101,200,default,15
"[the factor can only be Defects or DVD][price format invalid][price format invalid][product type lookup not found]",Malaysia,"Sabah / Sarawak",201,20000,default,15
"[the factor can only be Defects or DVD][price format invalid][price format invalid][product type lookup not found]",Singapore,Singapore,1,5,default,15
"[the factor can only be Defects or DVD][price format invalid][price format invalid][product type lookup not found]",Singapore,Singapore,6,10,default,12
"[the factor can only be Defects or DVD][price format invalid][price format invalid][product type lookup not found]",Singapore,Singapore,11,20,default,9
"[the factor can only be Defects or DVD][price format invalid][price format invalid][product type lookup not found]",Singapore,Singapore,21,50,default,8
"[the factor can only be Defects or DVD][price format invalid][price format invalid][product type lookup not found]",Singapore,Singapore,51,100,default,6
"[the factor can only be Defects or DVD][price format invalid][price format invalid][product type lookup not found]",Singapore,Singapore,101,200,default,5
"[the factor can only be Defects or DVD][price format invalid][price format invalid][product type lookup not found]",Singapore,Singapore,201,20000,default,5
"[the factor can only be Defects or DVD][price format invalid][price format invalid][product type lookup not found]",Australia,"Metro State Capital (ex Tasmania)",1,5,default,20
"[the factor can only be Defects or DVD][price format invalid][price format invalid][product type lookup not found]",Australia,"Metro State Capital (ex Tasmania)",6,10,default,18
"[the factor can only be Defects or DVD][price format invalid][price format invalid][product type lookup not found]",Australia,"Metro State Capital (ex Tasmania)",11,20,default,16
"[the factor can only be Defects or DVD][price format invalid][price format invalid][product type lookup not found]",Australia,"Metro State Capital (ex Tasmania)",21,50,default,14
"[the factor can only be Defects or DVD][price format invalid][price format invalid][product type lookup not found]",Australia,"Metro State Capital (ex Tasmania)",51,100,default,12
"[the factor can only be Defects or DVD][price format invalid][price format invalid][product type lookup not found]",Australia,"Metro State Capital (ex Tasmania)",101,200,default,10
"[the factor can only be Defects or DVD][price format invalid][price format invalid][product type lookup not found]",Australia,"Metro State Capital (ex Tasmania)",201,20000,default,10
"[the factor can only be Defects or DVD][price format invalid][price format invalid][product type lookup not found]",Australia,"Regional Small Cities",1,5,default,30
"[the factor can only be Defects or DVD][price format invalid][price format invalid][product type lookup not found]",Australia,"Regional Small Cities",6,10,default,27
"[the factor can only be Defects or DVD][price format invalid][price format invalid][product type lookup not found]",Australia,"Regional Small Cities",11,20,default,24
"[the factor can only be Defects or DVD][price format invalid][price format invalid][product type lookup not found]",Australia,"Regional Small Cities",21,50,default,21
"[the factor can only be Defects or DVD][price format invalid][price format invalid][product type lookup not found]",Australia,"Regional Small Cities",51,100,default,18
"[the factor can only be Defects or DVD][price format invalid][price format invalid][product type lookup not found]",Australia,"Regional Small Cities",101,200,default,15
"[the factor can only be Defects or DVD][price format invalid][price format invalid][product type lookup not found]",Australia,"Regional Small Cities",201,20000,default,15
"[the factor can only be Defects or DVD][price format invalid][price format invalid][product type lookup not found]",Australia,"Remote inlcuding Tasmania",1,5,default,50
"[the factor can only be Defects or DVD][price format invalid][price format invalid][product type lookup not found]",Australia,"Remote inlcuding Tasmania",6,10,default,45
"[the factor can only be Defects or DVD][price format invalid][price format invalid][product type lookup not found]",Australia,"Remote inlcuding Tasmania",11,20,default,40
"[the factor can only be Defects or DVD][price format invalid][price format invalid][product type lookup not found]",Australia,"Remote inlcuding Tasmania",21,50,default,35
"[the factor can only be Defects or DVD][price format invalid][price format invalid][product type lookup not found]",Australia,"Remote inlcuding Tasmania",51,100,default,30
"[the factor can only be Defects or DVD][price format invalid][price format invalid][product type lookup not found]",Australia,"Remote inlcuding Tasmania",101,200,default,25
"[the factor can only be Defects or DVD][price format invalid][price format invalid][product type lookup not found]",Australia,"Remote inlcuding Tasmania",201,20000,default,25
"[the factor can only be Defects or DVD][price format invalid][price format invalid][product type lookup not found]",Japan,"All Regions",1,5,default,20
"[the factor can only be Defects or DVD][price format invalid][price format invalid][product type lookup not found]",Japan,"All Regions",6,10,default,18
"[the factor can only be Defects or DVD][price format invalid][price format invalid][product type lookup not found]",Japan,"All Regions",11,20,default,16
"[the factor can only be Defects or DVD][price format invalid][price format invalid][product type lookup not found]",Japan,"All Regions",21,50,default,14
"[the factor can only be Defects or DVD][price format invalid][price format invalid][product type lookup not found]",Japan,"All Regions",51,100,default,12
"[the factor can only be Defects or DVD][price format invalid][price format invalid][product type lookup not found]",Japan,"All Regions",101,200,default,10
"[the factor can only be Defects or DVD][price format invalid][price format invalid][product type lookup not found]",Japan,"All Regions",201,20000,default,10
"[the factor can only be Defects or DVD][price format invalid][price format invalid][product type lookup not found]",Taiwan,"All regions",1,5,default,10
"[the factor can only be Defects or DVD][price format invalid][price format invalid][product type lookup not found]",Taiwan,"All regions",6,10,default,8
"[the factor can only be Defects or DVD][price format invalid][price format invalid][product type lookup not found]",Taiwan,"All regions",11,20,default,6
"[the factor can only be Defects or DVD][price format invalid][price format invalid][product type lookup not found]",Taiwan,"All regions",21,50,default,5
"[the factor can only be Defects or DVD][price format invalid][price format invalid][product type lookup not found]",Taiwan,"All regions",51,100,default,4
"[the factor can only be Defects or DVD][price format invalid][price format invalid][product type lookup not found]",Taiwan,"All regions",101,200,default,3
"[the factor can only be Defects or DVD][price format invalid][price format invalid][product type lookup not found]",Taiwan,"All regions",201,20000,default,3
"[the factor can only be Defects or DVD][price format invalid][price format invalid][product type lookup not found]","New Zealand",Auckland,1,5,default,20
"[the factor can only be Defects or DVD][price format invalid][price format invalid][product type lookup not found]","New Zealand",Auckland,6,10,default,15
"[the factor can only be Defects or DVD][price format invalid][price format invalid][product type lookup not found]","New Zealand",Auckland,11,20,default,12
"[the factor can only be Defects or DVD][price format invalid][price format invalid][product type lookup not found]","New Zealand",Auckland,21,50,default,10
"[the factor can only be Defects or DVD][price format invalid][price format invalid][product type lookup not found]","New Zealand",Auckland,51,100,default,8
"[the factor can only be Defects or DVD][price format invalid][price format invalid][product type lookup not found]","New Zealand",Auckland,101,200,default,7
"[the factor can only be Defects or DVD][price format invalid][price format invalid][product type lookup not found]","New Zealand",Auckland,201,20000,default,6
"[the factor can only be Defects or DVD][price format invalid][price format invalid][product type lookup not found]","New Zealand","North Island ex Auckland",1,5,default,30
"[the factor can only be Defects or DVD][price format invalid][price format invalid][product type lookup not found]","New Zealand","North Island ex Auckland",6,10,default,22.5
"[the factor can only be Defects or DVD][price format invalid][price format invalid][product type lookup not found]","New Zealand","North Island ex Auckland",11,20,default,18
"[the factor can only be Defects or DVD][price format invalid][price format invalid][product type lookup not found]","New Zealand","North Island ex Auckland",21,50,default,15
"[the factor can only be Defects or DVD][price format invalid][price format invalid][product type lookup not found]","New Zealand","North Island ex Auckland",51,100,default,12
"[the factor can only be Defects or DVD][price format invalid][price format invalid][product type lookup not found]","New Zealand","North Island ex Auckland",101,200,default,10.5
"[the factor can only be Defects or DVD][price format invalid][price format invalid][product type lookup not found]","New Zealand","North Island ex Auckland",201,20000,default,9
"[the factor can only be Defects or DVD][price format invalid][price format invalid][product type lookup not found]","New Zealand","South Island",1,5,default,36
"[the factor can only be Defects or DVD][price format invalid][price format invalid][product type lookup not found]","New Zealand","South Island",6,10,default,27
"[the factor can only be Defects or DVD][price format invalid][price format invalid][product type lookup not found]","New Zealand","South Island",11,20,default,21.6
"[the factor can only be Defects or DVD][price format invalid][price format invalid][product type lookup not found]","New Zealand","South Island",21,50,default,18
"[the factor can only be Defects or DVD][price format invalid][price format invalid][product type lookup not found]","New Zealand","South Island",51,100,default,14.4
"[the factor can only be Defects or DVD][price format invalid][price format invalid][product type lookup not found]","New Zealand","South Island",101,200,default,12.6
"[the factor can only be Defects or DVD][price format invalid][price format invalid][product type lookup not found]","New Zealand","South Island",201,20000,default,10.8
"[the factor can only be Defects or DVD][price format invalid][price format invalid][product type lookup not found]",Korea,"Seoul Area",1,5,default,15
"[the factor can only be Defects or DVD][price format invalid][price format invalid][product type lookup not found]",Korea,"Seoul Area",6,10,default,12
"[the factor can only be Defects or DVD][price format invalid][price format invalid][product type lookup not found]",Korea,"Seoul Area",11,20,default,9
"[the factor can only be Defects or DVD][price format invalid][price format invalid][product type lookup not found]",Korea,"Seoul Area",21,50,default,8
"[the factor can only be Defects or DVD][price format invalid][price format invalid][product type lookup not found]",Korea,"Seoul Area",51,100,default,6
"[the factor can only be Defects or DVD][price format invalid][price format invalid][product type lookup not found]",Korea,"Seoul Area",101,200,default,5
"[the factor can only be Defects or DVD][price format invalid][price format invalid][product type lookup not found]",Korea,"Seoul Area",201,20000,default,5
"[the factor can only be Defects or DVD][price format invalid][price format invalid][product type lookup not found]",Korea,"All Other regions",1,5,default,19.5
"[the factor can only be Defects or DVD][price format invalid][price format invalid][product type lookup not found]",Korea,"All Other regions",6,10,default,15.6
"[the factor can only be Defects or DVD][price format invalid][price format invalid][product type lookup not found]",Korea,"All Other regions",11,20,default,11.7
"[the factor can only be Defects or DVD][price format invalid][price format invalid][product type lookup not found]",Korea,"All Other regions",21,50,default,10.4
"[the factor can only be Defects or DVD][price format invalid][price format invalid][product type lookup not found]",Korea,"All Other regions",51,100,default,7.8
"[the factor can only be Defects or DVD][price format invalid][price format invalid][product type lookup not found]",Korea,"All Other regions",101,200,default,6.5
"[the factor can only be Defects or DVD][price format invalid][price format invalid][product type lookup not found]",Korea,"All Other regions",201,20000,default,6.5
"[the factor can only be Defects or DVD][price format invalid][price format invalid][product type lookup not found]",Netherlands,"All Regions",1,5,default,20
"[the factor can only be Defects or DVD][price format invalid][price format invalid][product type lookup not found]",Netherlands,"All Regions",6,10,default,18
"[the factor can only be Defects or DVD][price format invalid][price format invalid][product type lookup not found]",Netherlands,"All Regions",11,20,default,16
"[the factor can only be Defects or DVD][price format invalid][price format invalid][product type lookup not found]",Netherlands,"All Regions",21,50,default,14
"[the factor can only be Defects or DVD][price format invalid][price format invalid][product type lookup not found]",Netherlands,"All Regions",51,100,default,12
"[the factor can only be Defects or DVD][price format invalid][price format invalid][product type lookup not found]",Netherlands,"All Regions",101,200,default,10
"[the factor can only be Defects or DVD][price format invalid][price format invalid][product type lookup not found]",Netherlands,"All Regions",201,20000,default,10
"[the factor can only be Defects or DVD][price format invalid][price format invalid][product type lookup not found]",Germany,"All Regions",1,5,default,30
"[the factor can only be Defects or DVD][price format invalid][price format invalid][product type lookup not found]",Germany,"All Regions",6,10,default,27
"[the factor can only be Defects or DVD][price format invalid][price format invalid][product type lookup not found]",Germany,"All Regions",11,20,default,24
"[the factor can only be Defects or DVD][price format invalid][price format invalid][product type lookup not found]",Germany,"All Regions",21,50,default,21
"[the factor can only be Defects or DVD][price format invalid][price format invalid][product type lookup not found]",Germany,"All Regions",51,100,default,18
"[the factor can only be Defects or DVD][price format invalid][price format invalid][product type lookup not found]",Germany,"All Regions",101,200,default,15
"[the factor can only be Defects or DVD][price format invalid][price format invalid][product type lookup not found]",Germany,"All Regions",201,20000,default,15
"[the factor can only be Defects or DVD][price format invalid][price format invalid][product type lookup not found]",Belgium,"All Regions",1,5,default,20
"[the factor can only be Defects or DVD][price format invalid][price format invalid][product type lookup not found]",Belgium,"All Regions",6,10,default,18
"[the factor can only be Defects or DVD][price format invalid][price format invalid][product type lookup not found]",Belgium,"All Regions",11,20,default,16
"[the factor can only be Defects or DVD][price format invalid][price format invalid][product type lookup not found]",Belgium,"All Regions",21,50,default,14
"[the factor can only be Defects or DVD][price format invalid][price format invalid][product type lookup not found]",Belgium,"All Regions",51,100,default,12
"[the factor can only be Defects or DVD][price format invalid][price format invalid][product type lookup not found]",Belgium,"All Regions",101,200,default,10
"[the factor can only be Defects or DVD][price format invalid][price format invalid][product type lookup not found]",Belgium,"All Regions",201,20000,default,10
[deleted],Defects,LCD,"Screen Faulty",default,21.00
[deleted],Defects,LCD,"Missing Base",default,14.00
[deleted],Defects,Notebook,"HDD (mSATA) Faulty / Missing",default,60.00
[deleted],Defects,Notebook,"HDD (Standard) Faulty / Missing",default,27.00
[deleted],Defects,All-in-One,"Power Supply Missing",default,22.00
[deleted],Defects,All-in-One,"HDD (Standard) Faulty / Missing",default,24.00
[deleted],Defects,All-in-One,"HDD (mSATA) Faulty / Missing",default,60.00
[deleted],Defects,"Thin Client","Power Supply Missing",default,22.00
[deleted],Defects,"Thin Client","HDD (mSATA) Faulty / Missing",default,60.00
[deleted],Defects,"Thin Client","HDD (Standard) Faulty / Missing",default,24.00
[deleted],Defects,Workstation,"Power Supply Missing",default,22.00
[deleted],Defects,Workstation,"HDD (mSATA) Faulty / Missing",default,60.00
[deleted],Defects,Workstation,"HDD (Standard) Faulty / Missing",default,24.00
[deleted],Defects,Desktop,"Power Supply Missing",default,22.00
[deleted],Defects,Desktop,"HDD (mSATA) Faulty / Missing",default,60.00
[deleted],Defects,Desktop,"HDD (Standard) Faulty / Missing",default,24.00
[deleted],DVD,All-in-One,No,default,-12.00
[deleted],DVD,Workstation,No,default,-12.00
[deleted],DVD,Desktop,No,default,-12.00
[deleted],DVD,Notebook,No,default,-12.00
[deleted],Defects,Notebook,"Missing Keys",default,15.00
[deleted],Defects,LCD,"Cosmetic Markings",default,18.00
[deleted],Defects,Notebook,"AC Adaptor Missing",default,12.00
[deleted],Defects,Notebook,"BIOS Locked",default,14.00
[deleted],Defects,Notebook,"ODD Broken / Missing",default,12.00
[deleted],Defects,Notebook,"Missing Memory",default,15.00
[deleted],Defects,Notebook,"CPU Missing",default,42.00
[deleted],Defects,Notebook,"No Power On",default,42.00
[deleted],Defects,Notebook,"Cosmetic Markings",default,44.00
[deleted],Defects,Notebook,"No Defects",default,0.00
[deleted],Defects,All-in-One,"Video Card Missing",default,20.00
[deleted],Defects,All-in-One,"BIOS Locked",default,10.00
[deleted],Defects,All-in-One,"Missing Memory",default,12.00
[deleted],Defects,All-in-One,"ODD Broken / Missing",default,12.00
[deleted],Defects,All-in-One,"CPU Missing",default,38.00
[deleted],Defects,All-in-One,"No Power On",default,36.00
[deleted],Defects,All-in-One,"Cosmetic Markings",default,24.00
[deleted],Defects,"Thin Client","ODD Broken / Missing",default,12.00
[deleted],Defects,"Thin Client","BIOS Locked",default,10.00
[deleted],Defects,"Thin Client","Video Card Missing",default,20.00
[deleted],Defects,All-in-One,"No Defects",default,0.00
[deleted],Defects,"Thin Client","CPU Missing",default,38.00
[deleted],Defects,"Thin Client","Missing Memory",default,12.00
[deleted],Defects,"Thin Client","No Power On",default,36.00
[deleted],Defects,"Thin Client","Cosmetic Markings",default,24.00
[deleted],Defects,"Thin Client","No Defects",default,0.00
[deleted],Defects,Workstation,"Video Card Missing",default,20.00
[deleted],Defects,Workstation,"ODD Broken / Missing",default,12.00
[deleted],Defects,Workstation,"BIOS Locked",default,10.00
[deleted],Defects,Workstation,"Missing Memory",default,12.00
[deleted],Defects,Workstation,"CPU Missing",default,38.00
[deleted],Defects,Workstation,"No Power On",default,36.00
[deleted],Defects,Workstation,"Cosmetic Markings",default,24.00
[deleted],Defects,Workstation,"No Defects",default,0.00
[deleted],Defects,Desktop,"Video Card Missing",default,20.00
[deleted],Defects,Desktop,"BIOS Locked",default,10.00
[deleted],Defects,Desktop,"Missing Memory",default,12.00
[deleted],Defects,Desktop,"ODD Broken / Missing",default,12.00
[deleted],Defects,Desktop,"CPU Missing",default,38.00
[deleted],Defects,Desktop,"No Power On",default,36.00
[deleted],Defects,Desktop,"No Defects",default,0.00
[deleted],Defects,Desktop,"Cosmetic Markings",default,24.00
[deleted],Defects,LCD,"Screen Faulty",default,16.00
[deleted],Defects,LCD,"Missing Base",default,10.00
[deleted],Defects,Notebook,"HDD (mSATA) Faulty / Missing",default,60.00
[deleted],Defects,All-in-One,"Power Supply Missing",default,17.00
[deleted],Defects,Notebook,"HDD (Standard) Faulty / Missing",default,21.00
[deleted],Defects,All-in-One,"HDD (Standard) Faulty / Missing",default,18.00
[deleted],Defects,All-in-One,"HDD (mSATA) Faulty / Missing",default,60.00
[deleted],Defects,"Thin Client","HDD (mSATA) Faulty / Missing",default,60.00
[deleted],Defects,"Thin Client","Power Supply Missing",default,17.00
[deleted],DVD,Workstation,No,default,-12.00
[deleted],DVD,All-in-One,No,default,-12.00
[deleted],DVD,Desktop,No,default,-12.00
[deleted],DVD,Notebook,No,default,-12.00
[deleted],Defects,"Thin Client","HDD (Standard) Faulty / Missing",default,18.00
[deleted],Defects,Workstation,"Power Supply Missing",default,17.00
[deleted],Defects,Workstation,"HDD (mSATA) Faulty / Missing",default,60.00
[deleted],Defects,Workstation,"HDD (Standard) Faulty / Missing",default,18.00
[deleted],Defects,Desktop,"Power Supply Missing",default,17.00
[deleted],Defects,Desktop,"HDD (mSATA) Faulty / Missing",default,60.00
[deleted],Defects,Desktop,"HDD (Standard) Faulty / Missing",default,18.00
[deleted],Defects,LCD,"Cosmetic Markings",default,14.00
[deleted],Defects,Notebook,"Missing Keys",default,15.00
[deleted],Defects,Notebook,"AC Adaptor Missing",default,12.00
[deleted],Defects,Notebook,"BIOS Locked",default,14.00
[deleted],Defects,Notebook,"ODD Broken / Missing",default,12.00
[deleted],Defects,Notebook,"Missing Memory",default,13.00
[deleted],Defects,Notebook,"CPU Missing",default,29.00
[deleted],Defects,Notebook,"No Power On",default,29.00
[deleted],Defects,Notebook,"Cosmetic Markings",default,28.00
[deleted],Defects,Notebook,"No Defects",default,0.00
[deleted],Defects,All-in-One,"Video Card Missing",default,20.00
[deleted],Defects,All-in-One,"BIOS Locked",default,10.00
[deleted],Defects,All-in-One,"ODD Broken / Missing",default,12.00
[deleted],Defects,All-in-One,"CPU Missing",default,26.00
[deleted],Defects,All-in-One,"Missing Memory",default,10.00
[deleted],Defects,All-in-One,"No Power On",default,26.00
[deleted],Defects,All-in-One,"Cosmetic Markings",default,18.00
[deleted],Defects,All-in-One,"No Defects",default,0.00
[deleted],Defects,"Thin Client","Video Card Missing",default,20.00
[deleted],Defects,"Thin Client","BIOS Locked",default,10.00
[deleted],Defects,"Thin Client","ODD Broken / Missing",default,12.00
[deleted],Defects,"Thin Client","Missing Memory",default,10.00
[deleted],Defects,"Thin Client","No Power On",default,26.00
[deleted],Defects,"Thin Client","CPU Missing",default,26.00
[deleted],Defects,"Thin Client","Cosmetic Markings",default,18.00
[deleted],Defects,"Thin Client","No Defects",default,0.00
[deleted],Defects,Workstation,"ODD Broken / Missing",default,12.00
[deleted],Defects,Workstation,"BIOS Locked",default,10.00
[deleted],Defects,Workstation,"Video Card Missing",default,20.00
[deleted],Defects,Workstation,"Missing Memory",default,10.00
[deleted],Defects,Workstation,"No Power On",default,26.00
[deleted],Defects,Workstation,"CPU Missing",default,26.00
[deleted],Defects,Workstation,"Cosmetic Markings",default,18.00
[deleted],Defects,Workstation,"No Defects",default,0.00
[deleted],Defects,Desktop,"BIOS Locked",default,10.00
[deleted],Defects,Desktop,"Video Card Missing",default,20.00
[deleted],Defects,Desktop,"ODD Broken / Missing",default,12.00
[deleted],Defects,Desktop,"Missing Memory",default,10.00
[deleted],Defects,Desktop,"CPU Missing",default,26.00
[deleted],Defects,Desktop,"No Power On",default,26.00
[deleted],Defects,Desktop,"Cosmetic Markings",default,18.00
[deleted],Defects,Desktop,"No Defects",default,0.00
[deleted],DVD,Workstation,No,default,-12.00
[deleted],DVD,All-in-One,No,default,-12.00
[deleted],DVD,Notebook,No,default,-12.00
[deleted],DVD,Desktop,No,default,-12.00
[deleted],Defects,LCD,"Screen Faulty",default,11.00
[deleted],Defects,LCD,"Missing Base",default,7.00
[deleted],Defects,Notebook,"HDD (mSATA) Faulty / Missing",default,60.00
[deleted],Defects,Notebook,"HDD (Standard) Faulty / Missing",default,8.00
[deleted],Defects,All-in-One,"Power Supply Missing",default,12.00
[deleted],Defects,All-in-One,"HDD (mSATA) Faulty / Missing",default,60.00
[deleted],Defects,All-in-One,"HDD (Standard) Faulty / Missing",default,8.00
[deleted],Defects,"Thin Client","Power Supply Missing",default,12.00
[deleted],Defects,"Thin Client","HDD (mSATA) Faulty / Missing",default,60.00
[deleted],Defects,"Thin Client","HDD (Standard) Faulty / Missing",default,8.00
[deleted],Defects,Workstation,"Power Supply Missing",default,12.00
[deleted],Defects,Workstation,"HDD (mSATA) Faulty / Missing",default,60.00
[deleted],Defects,Workstation,"HDD (Standard) Faulty / Missing",default,8.00
[deleted],Defects,Desktop,"Power Supply Missing",default,12.00
[deleted],Defects,Desktop,"HDD (mSATA) Faulty / Missing",default,60.00
[deleted],Defects,Desktop,"HDD (Standard) Faulty / Missing",default,8.00
[deleted],Defects,LCD,"Cosmetic Markings",default,9.00
[deleted],Defects,Notebook,"Missing Keys",default,15.00
[deleted],Defects,Notebook,"ODD Broken / Missing",default,8.00
[deleted],Defects,Notebook,"BIOS Locked",default,14.00
[deleted],Defects,Notebook,"AC Adaptor Missing",default,12.00
[deleted],Defects,Notebook,"Missing Memory",default,7.00
[deleted],Defects,Notebook,"CPU Missing",default,8.00
[deleted],Defects,Notebook,"No Power On",default,8.00
[deleted],Defects,Notebook,"Cosmetic Markings",default,10.00
[deleted],Defects,Notebook,"No Defects",default,0.00
[deleted],Defects,All-in-One,"Video Card Missing",default,12.00
[deleted],Defects,All-in-One,"ODD Broken / Missing",default,12.00
[deleted],Defects,All-in-One,"BIOS Locked",default,10.00
[deleted],Defects,All-in-One,"Missing Memory",default,5.00
[deleted],Defects,All-in-One,"CPU Missing",default,7.00
[deleted],Defects,All-in-One,"Cosmetic Markings",default,8.00
[deleted],Defects,All-in-One,"No Power On",default,7.00
[deleted],Defects,All-in-One,"No Defects",default,0.00
[deleted],Defects,"Thin Client","BIOS Locked",default,10.00
[deleted],Defects,"Thin Client","Video Card Missing",default,12.00
[deleted],Defects,"Thin Client","ODD Broken / Missing",default,12.00
[deleted],Defects,"Thin Client","Missing Memory",default,5.00
[deleted],Defects,"Thin Client","CPU Missing",default,7.00
[deleted],Defects,"Thin Client","No Power On",default,7.00
[deleted],Defects,"Thin Client","Cosmetic Markings",default,8.00
[deleted],Defects,"Thin Client","No Defects",default,0.00
[deleted],Defects,Workstation,"Video Card Missing",default,12.00
[deleted],Defects,Workstation,"BIOS Locked",default,10.00
[deleted],Defects,Workstation,"ODD Broken / Missing",default,12.00
[deleted],Defects,Workstation,"Missing Memory",default,5.00
[deleted],Defects,Workstation,"CPU Missing",default,7.00
[deleted],Defects,Workstation,"No Power On",default,7.00
[deleted],Defects,Workstation,"Cosmetic Markings",default,8.00
[deleted],Defects,Workstation,"No Defects",default,0.00
[deleted],Defects,Desktop,"Video Card Missing",default,12.00
[deleted],Defects,Desktop,"BIOS Locked",default,10.00
[deleted],Defects,Desktop,"ODD Broken / Missing",default,12.00
[deleted],Defects,Desktop,"Missing Memory",default,5.00
[deleted],Defects,Desktop,"CPU Missing",default,7.00
[deleted],Defects,Desktop,"No Power On",default,7.00
[deleted],Defects,Desktop,"Cosmetic Markings",default,8.00
