message,India,"All regions",1,5,default,10,,,,,,
"[record has incorrect number of columns (12)]",India,"All regions",6,10,default,8,,,,,,
"[record has incorrect number of columns (12)]",India,"All regions",11,20,default,6,,,,,,
"[record has incorrect number of columns (12)]",India,"All regions",21,50,default,5,,,,,,
"[record has incorrect number of columns (12)]",India,"All regions",51,100,default,4,,,,,,
"[record has incorrect number of columns (12)]",India,"All regions",101,200,default,3,,,,,,
"[record has incorrect number of columns (12)]",India,"All regions",201,20000,default,3,,,,,,
"[record has incorrect number of columns (12)]",China,"All regions",1,5,default,10,,,,,,
"[record has incorrect number of columns (12)]",China,"All regions",6,10,default,8,,,,,,
"[record has incorrect number of columns (12)]",China,"All regions",11,20,default,6,,,,,,
"[record has incorrect number of columns (12)]",China,"All regions",21,50,default,5,,,,,,
"[record has incorrect number of columns (12)]",China,"All regions",51,100,default,4,,,,,,
"[record has incorrect number of columns (12)]",China,"All regions",101,200,default,3,,,,,,
"[record has incorrect number of columns (12)]",China,"All regions",201,20000,default,3,,,,,,
"[record has incorrect number of columns (12)]","Hong Kong","Hong Kong",1,5,default,8,,,,,,
"[record has incorrect number of columns (12)]","Hong Kong","Hong Kong",6,10,default,6,,,,,,
"[record has incorrect number of columns (12)]","Hong Kong","Hong Kong",11,20,default,5,,,,,,
"[record has incorrect number of columns (12)]","Hong Kong","Hong Kong",21,50,default,4,,,,,,
"[record has incorrect number of columns (12)]","Hong Kong","Hong Kong",51,100,default,3,,,,,,
"[record has incorrect number of columns (12)]","Hong Kong","Hong Kong",101,200,default,3,,,,,,
"[record has incorrect number of columns (12)]","Hong Kong","Hong Kong",201,20000,default,3,,,,,,
"[record has incorrect number of columns (12)]",Philippines,Manila,1,5,default,10,,,,,,
"[record has incorrect number of columns (12)]",Philippines,Manila,6,10,default,8,,,,,,
"[record has incorrect number of columns (12)]",Philippines,Manila,11,20,default,6,,,,,,
"[record has incorrect number of columns (12)]",Philippines,Manila,21,50,default,5,,,,,,
"[record has incorrect number of columns (12)]",Philippines,Manila,51,100,default,4,,,,,,
"[record has incorrect number of columns (12)]",Philippines,Manila,101,200,default,3,,,,,,
"[record has incorrect number of columns (12)]",Philippines,Manila,201,20000,default,3,,,,,,
"[record has incorrect number of columns (12)]",Philippines,"All Other regions",1,5,default,15,,,,,,
"[record has incorrect number of columns (12)]",Philippines,"All Other regions",6,10,default,12,,,,,,
"[record has incorrect number of columns (12)]",Philippines,"All Other regions",11,20,default,9,,,,,,
"[record has incorrect number of columns (12)]",Philippines,"All Other regions",21,50,default,7.5,,,,,,
"[record has incorrect number of columns (12)]",Philippines,"All Other regions",51,100,default,6,,,,,,
"[record has incorrect number of columns (12)]",Philippines,"All Other regions",101,200,default,4.5,,,,,,
"[record has incorrect number of columns (12)]",Philippines,"All Other regions",201,20000,default,4.5,,,,,,
"[record has incorrect number of columns (12)]",Thailand,"Bangkok Area",1,5,default,8,,,,,,
"[record has incorrect number of columns (12)]",Thailand,"Bangkok Area",6,10,default,6,,,,,,
"[record has incorrect number of columns (12)]",Thailand,"Bangkok Area",11,20,default,5,,,,,,
"[record has incorrect number of columns (12)]",Thailand,"Bangkok Area",21,50,default,4,,,,,,
"[record has incorrect number of columns (12)]",Thailand,"Bangkok Area",51,100,default,3,,,,,,
"[record has incorrect number of columns (12)]",Thailand,"Bangkok Area",101,200,default,3,,,,,,
"[record has incorrect number of columns (12)]",Thailand,"Bangkok Area",201,20000,default,3,,,,,,
"[record has incorrect number of columns (12)]",Thailand,"All Other regions",1,5,default,12,,,,,,
"[record has incorrect number of columns (12)]",Thailand,"All Other regions",6,10,default,9,,,,,,
"[record has incorrect number of columns (12)]",Thailand,"All Other regions",11,20,default,7.5,,,,,,
"[record has incorrect number of columns (12)]",Thailand,"All Other regions",21,50,default,6,,,,,,
"[record has incorrect number of columns (12)]",Thailand,"All Other regions",51,100,default,4.5,,,,,,
"[record has incorrect number of columns (12)]",Thailand,"All Other regions",101,200,default,4.5,,,,,,
"[record has incorrect number of columns (12)]",Thailand,"All Other regions",201,20000,default,4.5,,,,,,
"[record has incorrect number of columns (12)]",Malaysia,"Penninsula - Kuala Lumpur ",1,5,default,8,,,,,,
"[record has incorrect number of columns (12)]",Malaysia,"Penninsula - Kuala Lumpur ",6,10,default,6,,,,,,
"[record has incorrect number of columns (12)]",Malaysia,"Penninsula - Kuala Lumpur ",11,20,default,5,,,,,,
"[record has incorrect number of columns (12)]",Malaysia,"Penninsula - Kuala Lumpur ",21,50,default,4,,,,,,
"[record has incorrect number of columns (12)]",Malaysia,"Penninsula - Kuala Lumpur ",51,100,default,3,,,,,,
"[record has incorrect number of columns (12)]",Malaysia,"Penninsula - Kuala Lumpur ",101,200,default,3,,,,,,
"[record has incorrect number of columns (12)]",Malaysia,"Penninsula - Kuala Lumpur ",201,20000,default,3,,,,,,
"[record has incorrect number of columns (12)]",Malaysia,"Penninsula - Non KL",1,5,default,12,,,,,,
"[record has incorrect number of columns (12)]",Malaysia,"Penninsula - Non KL",6,10,default,9,,,,,,
"[record has incorrect number of columns (12)]",Malaysia,"Penninsula - Non KL",11,20,default,7.5,,,,,,
"[record has incorrect number of columns (12)]",Malaysia,"Penninsula - Non KL",21,50,default,6,,,,,,
"[record has incorrect number of columns (12)]",Malaysia,"Penninsula - Non KL",51,100,default,4.5,,,,,,
"[record has incorrect number of columns (12)]",Malaysia,"Penninsula - Non KL",101,200,default,4.5,,,,,,
"[record has incorrect number of columns (12)]",Malaysia,"Penninsula - Non KL",201,20000,default,4.5,,,,,,
"[record has incorrect number of columns (12)]",Malaysia,"Sabah / Sarawak",1,5,default,40,,,,,,
"[record has incorrect number of columns (12)]",Malaysia,"Sabah / Sarawak",6,10,default,30,,,,,,
"[record has incorrect number of columns (12)]",Malaysia,"Sabah / Sarawak",11,20,default,25,,,,,,
"[record has incorrect number of columns (12)]",Malaysia,"Sabah / Sarawak",21,50,default,20,,,,,,
"[record has incorrect number of columns (12)]",Malaysia,"Sabah / Sarawak",51,100,default,15,,,,,,
"[record has incorrect number of columns (12)]",Malaysia,"Sabah / Sarawak",101,200,default,15,,,,,,
"[record has incorrect number of columns (12)]",Malaysia,"Sabah / Sarawak",201,20000,default,15,,,,,,
"[record has incorrect number of columns (12)]",Singapore,Singapore,1,5,default,15,,,,,,
"[record has incorrect number of columns (12)]",Singapore,Singapore,6,10,default,12,,,,,,
"[record has incorrect number of columns (12)]",Singapore,Singapore,11,20,default,9,,,,,,
"[record has incorrect number of columns (12)]",Singapore,Singapore,21,50,default,8,,,,,,
"[record has incorrect number of columns (12)]",Singapore,Singapore,51,100,default,6,,,,,,
"[record has incorrect number of columns (12)]",Singapore,Singapore,101,200,default,5,,,,,,
"[record has incorrect number of columns (12)]",Singapore,Singapore,201,20000,default,5,,,,,,
"[record has incorrect number of columns (12)]",Australia,"Metro State Capital (ex Tasmania)",1,100,default,12,,,,,,
"[record has incorrect number of columns (12)]",Australia,"Metro State Capital (ex Tasmania)",101,250,default,8.4,,,,,,
"[record has incorrect number of columns (12)]",Australia,"Metro State Capital (ex Tasmania)",251,1000000,default,6,,,,,,
"[record has incorrect number of columns (12)]",Australia,"Regional Small Cities",1,100,default,18,,,,,,
"[record has incorrect number of columns (12)]",Australia,"Regional Small Cities",101,250,default,12.6,,,,,,
"[record has incorrect number of columns (12)]",Australia,"Regional Small Cities",251,1000000,default,9,,,,,,
"[record has incorrect number of columns (12)]",Australia,"Remote inlcuding Tasmania",1,100,default,30,,,,,,
"[record has incorrect number of columns (12)]",Australia,"Remote inlcuding Tasmania",101,250,default,21,,,,,,
"[record has incorrect number of columns (12)]",Australia,"Remote inlcuding Tasmania",251,1000000,default,15,,,,,,
"[record has incorrect number of columns (12)]",Japan,"All Regions",1,5,default,20,,,,,,
"[record has incorrect number of columns (12)]",Japan,"All Regions",6,10,default,18,,,,,,
"[record has incorrect number of columns (12)]",Japan,"All Regions",11,20,default,16,,,,,,
"[record has incorrect number of columns (12)]",Japan,"All Regions",21,50,default,14,,,,,,
"[record has incorrect number of columns (12)]",Japan,"All Regions",51,100,default,12,,,,,,
"[record has incorrect number of columns (12)]",Japan,"All Regions",101,200,default,10,,,,,,
"[record has incorrect number of columns (12)]",Japan,"All Regions",201,20000,default,10,,,,,,
"[record has incorrect number of columns (12)]",Taiwan,"All regions",1,5,default,10,,,,,,
"[record has incorrect number of columns (12)]",Taiwan,"All regions",6,10,default,8,,,,,,
"[record has incorrect number of columns (12)]",Taiwan,"All regions",11,20,default,6,,,,,,
"[record has incorrect number of columns (12)]",Taiwan,"All regions",21,50,default,5,,,,,,
"[record has incorrect number of columns (12)]",Taiwan,"All regions",51,100,default,4,,,,,,
"[record has incorrect number of columns (12)]",Taiwan,"All regions",101,200,default,3,,,,,,
"[record has incorrect number of columns (12)]",Taiwan,"All regions",201,20000,default,3,,,,,,
"[record has incorrect number of columns (12)]","New Zealand",Auckland,1,5,default,20,,,,,,
"[record has incorrect number of columns (12)]","New Zealand",Auckland,6,10,default,15,,,,,,
"[record has incorrect number of columns (12)]","New Zealand",Auckland,11,20,default,12,,,,,,
"[record has incorrect number of columns (12)]","New Zealand",Auckland,21,50,default,10,,,,,,
"[record has incorrect number of columns (12)]","New Zealand",Auckland,51,100,default,8,,,,,,
"[record has incorrect number of columns (12)]","New Zealand",Auckland,101,200,default,7,,,,,,
"[record has incorrect number of columns (12)]","New Zealand",Auckland,201,20000,default,6,,,,,,
"[record has incorrect number of columns (12)]","New Zealand","North Island ex Auckland",1,5,default,30,,,,,,
"[record has incorrect number of columns (12)]","New Zealand","North Island ex Auckland",6,10,default,22.5,,,,,,
"[record has incorrect number of columns (12)]","New Zealand","North Island ex Auckland",11,20,default,18,,,,,,
"[record has incorrect number of columns (12)]","New Zealand","North Island ex Auckland",21,50,default,15,,,,,,
"[record has incorrect number of columns (12)]","New Zealand","North Island ex Auckland",51,100,default,12,,,,,,
"[record has incorrect number of columns (12)]","New Zealand","North Island ex Auckland",101,200,default,10.5,,,,,,
"[record has incorrect number of columns (12)]","New Zealand","North Island ex Auckland",201,20000,default,9,,,,,,
"[record has incorrect number of columns (12)]","New Zealand","South Island",1,5,default,36,,,,,,
"[record has incorrect number of columns (12)]","New Zealand","South Island",6,10,default,27,,,,,,
"[record has incorrect number of columns (12)]","New Zealand","South Island",11,20,default,21.6,,,,,,
"[record has incorrect number of columns (12)]","New Zealand","South Island",21,50,default,18,,,,,,
"[record has incorrect number of columns (12)]","New Zealand","South Island",51,100,default,14.4,,,,,,
"[record has incorrect number of columns (12)]","New Zealand","South Island",101,200,default,12.6,,,,,,
"[record has incorrect number of columns (12)]","New Zealand","South Island",201,20000,default,10.8,,,,,,
"[record has incorrect number of columns (12)]",Korea,"Seoul Area",1,5,default,15,,,,,,
"[record has incorrect number of columns (12)]",Korea,"Seoul Area",6,10,default,12,,,,,,
"[record has incorrect number of columns (12)]",Korea,"Seoul Area",11,20,default,9,,,,,,
"[record has incorrect number of columns (12)]",Korea,"Seoul Area",21,50,default,8,,,,,,
"[record has incorrect number of columns (12)]",Korea,"Seoul Area",51,100,default,6,,,,,,
"[record has incorrect number of columns (12)]",Korea,"Seoul Area",101,200,default,5,,,,,,
"[record has incorrect number of columns (12)]",Korea,"Seoul Area",201,20000,default,5,,,,,,
"[record has incorrect number of columns (12)]",Korea,"All Other regions",1,5,default,19.5,,,,,,
"[record has incorrect number of columns (12)]",Korea,"All Other regions",6,10,default,15.6,,,,,,
"[record has incorrect number of columns (12)]",Korea,"All Other regions",11,20,default,11.7,,,,,,
"[record has incorrect number of columns (12)]",Korea,"All Other regions",21,50,default,10.4,,,,,,
"[record has incorrect number of columns (12)]",Korea,"All Other regions",51,100,default,7.8,,,,,,
"[record has incorrect number of columns (12)]",Korea,"All Other regions",101,200,default,6.5,,,,,,
"[record has incorrect number of columns (12)]",Korea,"All Other regions",201,20000,default,6.5,,,,,,
"[record has incorrect number of columns (12)]",Netherlands,"All Regions",1,5,default,20,,,,,,
"[record has incorrect number of columns (12)]",Netherlands,"All Regions",6,10,default,18,,,,,,
"[record has incorrect number of columns (12)]",Netherlands,"All Regions",11,20,default,16,,,,,,
"[record has incorrect number of columns (12)]",Netherlands,"All Regions",21,50,default,14,,,,,,
"[record has incorrect number of columns (12)]",Netherlands,"All Regions",51,100,default,12,,,,,,
"[record has incorrect number of columns (12)]",Netherlands,"All Regions",101,200,default,10,,,,,,
"[record has incorrect number of columns (12)]",Netherlands,"All Regions",201,20000,default,10,,,,,,
"[record has incorrect number of columns (12)]",Germany,"All Regions",1,5,default,30,,,,,,
"[record has incorrect number of columns (12)]",Germany,"All Regions",6,10,default,27,,,,,,
"[record has incorrect number of columns (12)]",Germany,"All Regions",11,20,default,24,,,,,,
"[record has incorrect number of columns (12)]",Germany,"All Regions",21,50,default,21,,,,,,
"[record has incorrect number of columns (12)]",Germany,"All Regions",51,100,default,18,,,,,,
"[record has incorrect number of columns (12)]",Germany,"All Regions",101,200,default,15,,,,,,
"[record has incorrect number of columns (12)]",Germany,"All Regions",201,20000,default,15,,,,,,
"[record has incorrect number of columns (12)]",Belgium,"All Regions",1,5,default,20,,,,,,
"[record has incorrect number of columns (12)]",Belgium,"All Regions",6,10,default,18,,,,,,
"[record has incorrect number of columns (12)]",Belgium,"All Regions",11,20,default,16,,,,,,
"[record has incorrect number of columns (12)]",Belgium,"All Regions",21,50,default,14,,,,,,
"[record has incorrect number of columns (12)]",Belgium,"All Regions",51,100,default,12,,,,,,
"[record has incorrect number of columns (12)]",Belgium,"All Regions",101,200,default,10,,,,,,
"[record has incorrect number of columns (12)]",Belgium,"All Regions",201,20000,default,10,,,,,,
"[record has incorrect number of columns (12)]",India,"All regions",1,5,"HP Inc Tradein - APJ",0,,,,,,
"[record has incorrect number of columns (12)]",India,"All regions",6,10,"HP Inc Tradein - APJ",0,,,,,,
"[record has incorrect number of columns (12)]",India,"All regions",11,20,"HP Inc Tradein - APJ",0,,,,,,
"[record has incorrect number of columns (12)]",India,"All regions",21,50,"HP Inc Tradein - APJ",0,,,,,,
"[record has incorrect number of columns (12)]",India,"All regions",51,100,"HP Inc Tradein - APJ",0,,,,,,
"[record has incorrect number of columns (12)]",India,"All regions",101,200,"HP Inc Tradein - APJ",0,,,,,,
"[record has incorrect number of columns (12)]",India,"All regions",201,20000,"HP Inc Tradein - APJ",0,,,,,,
"[record has incorrect number of columns (12)]",Japan,"All regions",1,5,"HP Inc Tradein - APJ",0,,,,,,
"[record has incorrect number of columns (12)]",Japan,"All regions",6,10,"HP Inc Tradein - APJ",0,,,,,,
"[record has incorrect number of columns (12)]",Japan,"All regions",11,20,"HP Inc Tradein - APJ",0,,,,,,
"[record has incorrect number of columns (12)]",Japan,"All regions",21,50,"HP Inc Tradein - APJ",0,,,,,,
"[record has incorrect number of columns (12)]",Japan,"All regions",51,100,"HP Inc Tradein - APJ",0,,,,,,
"[record has incorrect number of columns (12)]",Japan,"All regions",101,200,"HP Inc Tradein - APJ",0,,,,,,
"[record has incorrect number of columns (12)]",Japan,"All regions",201,20000,"HP Inc Tradein - APJ",0,,,,,,
"[record has incorrect number of columns (12)]",Australia,"All regions",1,5,"HP Inc Tradein - APJ",0,,,,,,
"[record has incorrect number of columns (12)]",Australia,"All regions",6,10,"HP Inc Tradein - APJ",0,,,,,,
"[record has incorrect number of columns (12)]",Australia,"All regions",11,20,"HP Inc Tradein - APJ",0,,,,,,
"[record has incorrect number of columns (12)]",Australia,"All regions",21,50,"HP Inc Tradein - APJ",0,,,,,,
"[record has incorrect number of columns (12)]",Australia,"All regions",51,100,"HP Inc Tradein - APJ",0,,,,,,
"[record has incorrect number of columns (12)]",Australia,"All regions",101,200,"HP Inc Tradein - APJ",0,,,,,,
"[record has incorrect number of columns (12)]",Australia,"All regions",201,20000,"HP Inc Tradein - APJ",0,,,,,,
"[record has incorrect number of columns (12)]",Singapore,"All regions",1,5,"HP Inc Tradein - APJ",0,,,,,,
"[record has incorrect number of columns (12)]",Singapore,"All regions",6,10,"HP Inc Tradein - APJ",0,,,,,,
"[record has incorrect number of columns (12)]",Singapore,"All regions",11,20,"HP Inc Tradein - APJ",0,,,,,,
"[record has incorrect number of columns (12)]",Singapore,"All regions",21,50,"HP Inc Tradein - APJ",0,,,,,,
"[record has incorrect number of columns (12)]",Singapore,"All regions",51,100,"HP Inc Tradein - APJ",0,,,,,,
"[record has incorrect number of columns (12)]",Singapore,"All regions",101,200,"HP Inc Tradein - APJ",0,,,,,,
"[record has incorrect number of columns (12)]",Singapore,"All regions",201,20000,"HP Inc Tradein - APJ",0,,,,,,
"[record has incorrect number of columns (12)]",Malaysia,"All regions",1,5,"HP Inc Tradein - APJ",0,,,,,,
"[record has incorrect number of columns (12)]",Malaysia,"All regions",6,10,"HP Inc Tradein - APJ",0,,,,,,
"[record has incorrect number of columns (12)]",Malaysia,"All regions",11,20,"HP Inc Tradein - APJ",0,,,,,,
"[record has incorrect number of columns (12)]",Malaysia,"All regions",21,50,"HP Inc Tradein - APJ",0,,,,,,
"[record has incorrect number of columns (12)]",Malaysia,"All regions",51,100,"HP Inc Tradein - APJ",0,,,,,,
"[record has incorrect number of columns (12)]",Malaysia,"All regions",101,200,"HP Inc Tradein - APJ",0,,,,,,
"[record has incorrect number of columns (12)]",Malaysia,"All regions",201,20000,"HP Inc Tradein - APJ",0,,,,,,
"[record has incorrect number of columns (12)]",China,"All regions",1,5,"HP Inc Tradein - APJ",0,,,,,,
"[record has incorrect number of columns (12)]",China,"All regions",6,10,"HP Inc Tradein - APJ",0,,,,,,
"[record has incorrect number of columns (12)]",China,"All regions",11,20,"HP Inc Tradein - APJ",0,,,,,,
"[record has incorrect number of columns (12)]",China,"All regions",21,50,"HP Inc Tradein - APJ",0,,,,,,
"[record has incorrect number of columns (12)]",China,"All regions",51,100,"HP Inc Tradein - APJ",0,,,,,,
"[record has incorrect number of columns (12)]",China,"All regions",101,200,"HP Inc Tradein - APJ",0,,,,,,
"[record has incorrect number of columns (12)]",China,"All regions",201,20000,"HP Inc Tradein - APJ",0,,,,,,
"[record has incorrect number of columns (12)]","Hong Kong","All regions",1,5,"HP Inc Tradein - APJ",0,,,,,,
"[record has incorrect number of columns (12)]","Hong Kong","All regions",6,10,"HP Inc Tradein - APJ",0,,,,,,
"[record has incorrect number of columns (12)]","Hong Kong","All regions",11,20,"HP Inc Tradein - APJ",0,,,,,,
"[record has incorrect number of columns (12)]","Hong Kong","All regions",21,50,"HP Inc Tradein - APJ",0,,,,,,
"[record has incorrect number of columns (12)]","Hong Kong","All regions",51,100,"HP Inc Tradein - APJ",0,,,,,,
"[record has incorrect number of columns (12)]","Hong Kong","All regions",101,200,"HP Inc Tradein - APJ",0,,,,,,
"[record has incorrect number of columns (12)]","Hong Kong","All regions",201,20000,"HP Inc Tradein - APJ",0,,,,,,
