message,Country,Regional,"Quantity from","Quantity to",Client,Cost
[updated],India,"All regions",1,5,default,10
[updated],India,"All regions",6,10,default,8
[updated],India,"All regions",11,20,default,6
[updated],India,"All regions",21,50,default,5
[updated],India,"All regions",51,100,default,4
[updated],India,"All regions",101,200,default,3
[updated],India,"All regions",201,20000,default,3
[updated],China,"All regions",1,5,default,10
[updated],China,"All regions",6,10,default,8
[updated],China,"All regions",11,20,default,6
[updated],China,"All regions",21,50,default,5
[updated],China,"All regions",51,100,default,4
[updated],China,"All regions",101,200,default,3
[updated],China,"All regions",201,20000,default,3
[updated],"Hong Kong","Hong Kong",1,5,default,8
[updated],"Hong Kong","Hong Kong",6,10,default,6
[updated],"Hong Kong","Hong Kong",11,20,default,5
[updated],"Hong Kong","Hong Kong",21,50,default,4
[updated],"Hong Kong","Hong Kong",51,100,default,3
[updated],"Hong Kong","Hong Kong",101,200,default,3
[updated],"Hong Kong","Hong Kong",201,20000,default,3
[updated],Philippines,Manila,1,5,default,10
[updated],Philippines,Manila,6,10,default,8
[updated],Philippines,Manila,11,20,default,6
[updated],Philippines,Manila,21,50,default,5
[updated],Philippines,Manila,51,100,default,4
[updated],Philippines,Manila,101,200,default,3
[updated],Philippines,Manila,201,20000,default,3
[updated],Philippines,"All Other regions",1,5,default,15
[updated],Philippines,"All Other regions",6,10,default,12
[updated],Philippines,"All Other regions",11,20,default,9
[updated],Philippines,"All Other regions",21,50,default,7.5
[updated],Philippines,"All Other regions",51,100,default,6
[updated],Philippines,"All Other regions",101,200,default,4.5
[updated],Philippines,"All Other regions",201,20000,default,4.5
[updated],Thailand,"Bangkok Area",1,5,default,8
[updated],Thailand,"Bangkok Area",6,10,default,6
[updated],Thailand,"Bangkok Area",11,20,default,5
[updated],Thailand,"Bangkok Area",21,50,default,4
[updated],Thailand,"Bangkok Area",51,100,default,3
[updated],Thailand,"Bangkok Area",101,200,default,3
[updated],Thailand,"Bangkok Area",201,20000,default,3
[updated],Thailand,"All Other regions",1,5,default,12
[updated],Thailand,"All Other regions",6,10,default,9
[updated],Thailand,"All Other regions",11,20,default,7.5
[updated],Thailand,"All Other regions",21,50,default,6
[updated],Thailand,"All Other regions",51,100,default,4.5
[updated],Thailand,"All Other regions",101,200,default,4.5
[updated],Thailand,"All Other regions",201,20000,default,4.5
[updated],Malaysia,"Penninsula - Kuala Lumpur ",1,5,default,8
[updated],Malaysia,"Penninsula - Kuala Lumpur ",6,10,default,6
[updated],Malaysia,"Penninsula - Kuala Lumpur ",11,20,default,5
[updated],Malaysia,"Penninsula - Kuala Lumpur ",21,50,default,4
[updated],Malaysia,"Penninsula - Kuala Lumpur ",51,100,default,3
[updated],Malaysia,"Penninsula - Kuala Lumpur ",101,200,default,3
[updated],Malaysia,"Penninsula - Kuala Lumpur ",201,20000,default,3
[updated],Malaysia,"Penninsula - Non KL",1,5,default,12
[updated],Malaysia,"Penninsula - Non KL",6,10,default,9
[updated],Malaysia,"Penninsula - Non KL",11,20,default,7.5
[updated],Malaysia,"Penninsula - Non KL",21,50,default,6
[updated],Malaysia,"Penninsula - Non KL",51,100,default,4.5
[updated],Malaysia,"Penninsula - Non KL",101,200,default,4.5
[updated],Malaysia,"Penninsula - Non KL",201,20000,default,4.5
[updated],Malaysia,"Sabah / Sarawak",1,5,default,40
[updated],Malaysia,"Sabah / Sarawak",6,10,default,30
[updated],Malaysia,"Sabah / Sarawak",11,20,default,25
[updated],Malaysia,"Sabah / Sarawak",21,50,default,20
[updated],Malaysia,"Sabah / Sarawak",51,100,default,15
[updated],Malaysia,"Sabah / Sarawak",101,200,default,15
[updated],Malaysia,"Sabah / Sarawak",201,20000,default,15
[updated],Singapore,Singapore,1,5,default,15
[updated],Singapore,Singapore,6,10,default,12
[updated],Singapore,Singapore,11,20,default,9
[updated],Singapore,Singapore,21,50,default,8
[updated],Singapore,Singapore,51,100,default,6
[updated],Singapore,Singapore,101,200,default,5
[updated],Singapore,Singapore,201,20000,default,5
[updated],Australia,"Metro State Capital (ex Tasmania)",1,5,default,20
[updated],Australia,"Metro State Capital (ex Tasmania)",6,10,default,18
[updated],Australia,"Metro State Capital (ex Tasmania)",11,20,default,16
[updated],Australia,"Metro State Capital (ex Tasmania)",21,50,default,14
[updated],Australia,"Metro State Capital (ex Tasmania)",51,100,default,12
[updated],Australia,"Metro State Capital (ex Tasmania)",101,200,default,10
[updated],Australia,"Metro State Capital (ex Tasmania)",201,20000,default,10
[updated],Australia,"Regional Small Cities",1,5,default,30
[updated],Australia,"Regional Small Cities",6,10,default,27
[updated],Australia,"Regional Small Cities",11,20,default,24
[updated],Australia,"Regional Small Cities",21,50,default,21
[updated],Australia,"Regional Small Cities",51,100,default,18
[updated],Australia,"Regional Small Cities",101,200,default,15
[updated],Australia,"Regional Small Cities",201,20000,default,15
[updated],Australia,"Remote inlcuding Tasmania",1,5,default,50
[updated],Australia,"Remote inlcuding Tasmania",6,10,default,45
[updated],Australia,"Remote inlcuding Tasmania",11,20,default,40
[updated],Australia,"Remote inlcuding Tasmania",21,50,default,35
[updated],Australia,"Remote inlcuding Tasmania",51,100,default,30
[updated],Australia,"Remote inlcuding Tasmania",101,200,default,25
[updated],Australia,"Remote inlcuding Tasmania",201,20000,default,25
[updated],Japan,"All Regions",1,5,default,20
[updated],Japan,"All Regions",6,10,default,18
[updated],Japan,"All Regions",11,20,default,16
[updated],Japan,"All Regions",21,50,default,14
[updated],Japan,"All Regions",51,100,default,12
[updated],Japan,"All Regions",101,200,default,10
[updated],Japan,"All Regions",201,20000,default,10
[updated],Taiwan,"All regions",1,5,default,10
[updated],Taiwan,"All regions",6,10,default,8
[updated],Taiwan,"All regions",11,20,default,6
[updated],Taiwan,"All regions",21,50,default,5
[updated],Taiwan,"All regions",51,100,default,4
[updated],Taiwan,"All regions",101,200,default,3
[updated],Taiwan,"All regions",201,20000,default,3
[updated],"New Zealand",Auckland,1,5,default,20
[updated],"New Zealand",Auckland,6,10,default,15
[updated],"New Zealand",Auckland,11,20,default,12
[updated],"New Zealand",Auckland,21,50,default,10
[updated],"New Zealand",Auckland,51,100,default,8
[updated],"New Zealand",Auckland,101,200,default,7
[updated],"New Zealand",Auckland,201,20000,default,6
[updated],"New Zealand","North Island ex Auckland",1,5,default,30
[updated],"New Zealand","North Island ex Auckland",6,10,default,22.5
[updated],"New Zealand","North Island ex Auckland",11,20,default,18
[updated],"New Zealand","North Island ex Auckland",21,50,default,15
[updated],"New Zealand","North Island ex Auckland",51,100,default,12
[updated],"New Zealand","North Island ex Auckland",101,200,default,10.5
[updated],"New Zealand","North Island ex Auckland",201,20000,default,9
[updated],"New Zealand","South Island",1,5,default,36
[updated],"New Zealand","South Island",6,10,default,27
[updated],"New Zealand","South Island",11,20,default,21.6
[updated],"New Zealand","South Island",21,50,default,18
[updated],"New Zealand","South Island",51,100,default,14.4
[updated],"New Zealand","South Island",101,200,default,12.6
[updated],"New Zealand","South Island",201,20000,default,10.8
[updated],Korea,"Seoul Area",1,5,default,15
[updated],Korea,"Seoul Area",6,10,default,12
[updated],Korea,"Seoul Area",11,20,default,9
[updated],Korea,"Seoul Area",21,50,default,8
[updated],Korea,"Seoul Area",51,100,default,6
[updated],Korea,"Seoul Area",101,200,default,5
[updated],Korea,"Seoul Area",201,20000,default,5
[updated],Korea,"All Other regions",1,5,default,19.5
[updated],Korea,"All Other regions",6,10,default,15.6
[updated],Korea,"All Other regions",11,20,default,11.7
[updated],Korea,"All Other regions",21,50,default,10.4
[updated],Korea,"All Other regions",51,100,default,7.8
[updated],Korea,"All Other regions",101,200,default,6.5
[updated],Korea,"All Other regions",201,20000,default,6.5
[updated],Netherlands,"All Regions",1,5,default,55.194048
[updated],Netherlands,"All Regions",6,10,default,55.194048
[updated],Netherlands,"All Regions",11,20,default,30.66336
[updated],Netherlands,"All Regions",21,50,default,19.1646
[updated],Netherlands,"All Regions",51,100,default,13.689
[updated],Netherlands,"All Regions",101,200,default,10.53
[updated],Netherlands,"All Regions",201,20000,default,10.53
[updated],Belgium,"All Regions",1,5,default,55.194048
[updated],Belgium,"All Regions",6,10,default,55.194048
[updated],Belgium,"All Regions",11,20,default,30.66336
[updated],Belgium,"All Regions",21,50,default,19.1646
[updated],Belgium,"All Regions",51,100,default,13.689
[updated],Belgium,"All Regions",101,200,default,10.53
[updated],Belgium,"All Regions",201,20000,default,10.53
[updated],Luxembourg,"All Regions",1,5,default,55.194048
[updated],Luxembourg,"All Regions",6,10,default,55.194048
[updated],Luxembourg,"All Regions",11,20,default,30.66336
[updated],Luxembourg,"All Regions",21,50,default,19.1646
[updated],Luxembourg,"All Regions",51,100,default,13.689
[updated],Luxembourg,"All Regions",101,200,default,10.53
[updated],Luxembourg,"All Regions",201,20000,default,10.53
[updated],Germany,Niedersachsen,1,5,default,55.194048
[updated],Germany,Niedersachsen,6,10,default,55.194048
[updated],Germany,Niedersachsen,11,20,default,30.66336
[updated],Germany,Niedersachsen,21,50,default,19.1646
[updated],Germany,Niedersachsen,51,100,default,13.689
[updated],Germany,Niedersachsen,101,200,default,10.53
[updated],Germany,Niedersachsen,201,20000,default,10.53
"[added region][added]",Germany," North Rhein Westfalen",1,5,default,55.194048
[added],Germany," North Rhein Westfalen",6,10,default,55.194048
[added],Germany," North Rhein Westfalen",11,20,default,30.66336
[added],Germany," North Rhein Westfalen",21,50,default,19.1646
[added],Germany," North Rhein Westfalen",51,100,default,13.689
[added],Germany," North Rhein Westfalen",101,200,default,10.53
[added],Germany," North Rhein Westfalen",201,20000,default,10.53
"[added region][added]",Germany," Rhineland Palatinate",1,5,default,55.194048
[added],Germany," Rhineland Palatinate",6,10,default,55.194048
[added],Germany," Rhineland Palatinate",11,20,default,30.66336
[added],Germany," Rhineland Palatinate",21,50,default,19.1646
[added],Germany," Rhineland Palatinate",51,100,default,13.689
[added],Germany," Rhineland Palatinate",101,200,default,10.53
[added],Germany," Rhineland Palatinate",201,20000,default,10.53
"[added region][added]",Germany," Saarland",1,5,default,55.194048
[added],Germany," Saarland",6,10,default,55.194048
[added],Germany," Saarland",11,20,default,30.66336
[added],Germany," Saarland",21,50,default,19.1646
[added],Germany," Saarland",51,100,default,13.689
[added],Germany," Saarland",101,200,default,10.53
[added],Germany," Saarland",201,20000,default,10.53
"[added region][added]",Germany," Hesse",1,5,default,55.194048
[added],Germany," Hesse",6,10,default,55.194048
[added],Germany," Hesse",11,20,default,30.66336
[added],Germany," Hesse",21,50,default,19.1646
[added],Germany," Hesse",51,100,default,13.689
[added],Germany," Hesse",101,200,default,10.53
[added],Germany," Hesse",201,20000,default,10.53
"[added region][added]",Germany," Schleswig Holstein",1,5,default,73.592064
[added],Germany," Schleswig Holstein",6,10,default,73.592064
[added],Germany," Schleswig Holstein",11,20,default,40.88448
[added],Germany," Schleswig Holstein",21,50,default,25.5528
[added],Germany," Schleswig Holstein",51,100,default,18.252
[added],Germany," Schleswig Holstein",101,200,default,14.04
[added],Germany," Schleswig Holstein",201,20000,default,14.04
"[added region][added]",Germany," Saxony Anhalt",1,5,default,73.592064
[added],Germany," Saxony Anhalt",6,10,default,73.592064
[added],Germany," Saxony Anhalt",11,20,default,40.88448
[added],Germany," Saxony Anhalt",21,50,default,25.5528
[added],Germany," Saxony Anhalt",51,100,default,18.252
[added],Germany," Saxony Anhalt",101,200,default,14.04
[added],Germany," Saxony Anhalt",201,20000,default,14.04
"[added region][added]",Germany," Baden Wurttemberg",1,5,default,73.592064
[added],Germany," Baden Wurttemberg",6,10,default,73.592064
[added],Germany," Baden Wurttemberg",11,20,default,40.88448
[added],Germany," Baden Wurttemberg",21,50,default,25.5528
[added],Germany," Baden Wurttemberg",51,100,default,18.252
[added],Germany," Baden Wurttemberg",101,200,default,14.04
[added],Germany," Baden Wurttemberg",201,20000,default,14.04
"[added region][added]",Germany," Thuringia",1,5,default,73.592064
[added],Germany," Thuringia",6,10,default,73.592064
[added],Germany," Thuringia",11,20,default,40.88448
[added],Germany," Thuringia",21,50,default,25.5528
[added],Germany," Thuringia",51,100,default,18.252
[added],Germany," Thuringia",101,200,default,14.04
[added],Germany," Thuringia",201,20000,default,14.04
"[added region][added]",Germany," Mecklenburg Western Pomerania",1,5,default,73.592064
[added],Germany," Mecklenburg Western Pomerania",6,10,default,73.592064
[added],Germany," Mecklenburg Western Pomerania",11,20,default,40.88448
[added],Germany," Mecklenburg Western Pomerania",21,50,default,25.5528
[added],Germany," Mecklenburg Western Pomerania",51,100,default,18.252
[added],Germany," Mecklenburg Western Pomerania",101,200,default,14.04
[added],Germany," Mecklenburg Western Pomerania",201,20000,default,14.04
[updated],Germany,Bayern,1,5,default,85.857408
[updated],Germany,Bayern,6,10,default,85.857408
[updated],Germany,Bayern,11,20,default,47.69856
[updated],Germany,Bayern,21,50,default,29.8116
[updated],Germany,Bayern,51,100,default,21.294
[updated],Germany,Bayern,101,200,default,16.38
[updated],Germany,Bayern,201,20000,default,16.38
"[added region][added]",Germany," Berlin",1,5,default,85.857408
[added],Germany," Berlin",6,10,default,85.857408
[added],Germany," Berlin",11,20,default,47.69856
[added],Germany," Berlin",21,50,default,29.8116
[added],Germany," Berlin",51,100,default,21.294
[added],Germany," Berlin",101,200,default,16.38
[added],Germany," Berlin",201,20000,default,16.38
"[added region][added]",Germany," Saxony",1,5,default,85.857408
[added],Germany," Saxony",6,10,default,85.857408
[added],Germany," Saxony",11,20,default,47.69856
[added],Germany," Saxony",21,50,default,29.8116
[added],Germany," Saxony",51,100,default,21.294
[added],Germany," Saxony",101,200,default,16.38
[added],Germany," Saxony",201,20000,default,16.38
[deleted],Germany,Berlin,201,20000,default,16.38
[deleted],Germany,Berlin,101,200,default,16.38
[deleted],Germany,Berlin,51,100,default,21.29
[deleted],Germany,Berlin,21,50,default,29.81
[deleted],Germany,Berlin,11,20,default,47.70
[deleted],Germany,Berlin,6,10,default,85.86
[deleted],Germany,Berlin,1,5,default,85.86
[deleted],Germany,"Mecklenburg Western Pomerania",201,20000,default,14.04
[deleted],Germany,"Mecklenburg Western Pomerania",101,200,default,14.04
[deleted],Germany,"Mecklenburg Western Pomerania",51,100,default,18.25
[deleted],Germany,"Mecklenburg Western Pomerania",21,50,default,25.55
[deleted],Germany,"Mecklenburg Western Pomerania",11,20,default,40.88
[deleted],Germany,"Mecklenburg Western Pomerania",6,10,default,73.59
[deleted],Germany,"Mecklenburg Western Pomerania",1,5,default,73.59
[deleted],Germany,Thuringia,201,20000,default,14.04
[deleted],Germany,Thuringia,101,200,default,14.04
[deleted],Germany,Thuringia,51,100,default,18.25
[deleted],Germany,Thuringia,21,50,default,25.55
[deleted],Germany,Thuringia,11,20,default,40.88
[deleted],Germany,Thuringia,6,10,default,73.59
[deleted],Germany,Thuringia,1,5,default,73.59
[deleted],Germany,"Baden Wurttemberg",201,20000,default,14.04
[deleted],Germany,"Baden Wurttemberg",101,200,default,14.04
[deleted],Germany,"Baden Wurttemberg",51,100,default,18.25
[deleted],Germany,"Baden Wurttemberg",21,50,default,25.55
[deleted],Germany,"Baden Wurttemberg",11,20,default,40.88
[deleted],Germany,"Baden Wurttemberg",6,10,default,73.59
[deleted],Germany,"Baden Wurttemberg",1,5,default,73.59
[deleted],Germany,"Saxony Anhalt",201,20000,default,14.04
[deleted],Germany,"Saxony Anhalt",101,200,default,14.04
[deleted],Germany,"Saxony Anhalt",51,100,default,18.25
[deleted],Germany,"Saxony Anhalt",21,50,default,25.55
[deleted],Germany,"Saxony Anhalt",11,20,default,40.88
[deleted],Germany,"Saxony Anhalt",6,10,default,73.59
[deleted],Germany,"Saxony Anhalt",1,5,default,73.59
[deleted],Germany,"Schleswig Holstein",201,20000,default,14.04
[deleted],Germany,"Schleswig Holstein",101,200,default,14.04
[deleted],Germany,"Schleswig Holstein",51,100,default,18.25
[deleted],Germany,"Schleswig Holstein",21,50,default,25.55
[deleted],Germany,"Schleswig Holstein",11,20,default,40.88
[deleted],Germany,"Schleswig Holstein",6,10,default,73.59
[deleted],Germany,"Schleswig Holstein",1,5,default,73.59
[deleted],Germany,Hesse,201,20000,default,10.53
[deleted],Germany,Hesse,101,200,default,10.53
[deleted],Germany,Hesse,51,100,default,13.69
[deleted],Germany,Hesse,21,50,default,19.16
[deleted],Germany,Hesse,11,20,default,30.66
[deleted],Germany,Hesse,6,10,default,55.19
[deleted],Germany,Hesse,1,5,default,55.19
[deleted],Germany,Saarland,201,20000,default,10.53
[deleted],Germany,Saarland,101,200,default,10.53
[deleted],Germany,Saarland,51,100,default,13.69
[deleted],Germany,Saarland,21,50,default,19.16
[deleted],Germany,Saarland,11,20,default,30.66
[deleted],Germany,Saarland,6,10,default,55.19
[deleted],Germany,Saarland,1,5,default,55.19
[deleted],Germany,"Rhineland Palatinate",201,20000,default,10.53
[deleted],Germany,"Rhineland Palatinate",101,200,default,10.53
[deleted],Germany,"Rhineland Palatinate",51,100,default,13.69
[deleted],Germany,"Rhineland Palatinate",21,50,default,19.16
[deleted],Germany,"Rhineland Palatinate",11,20,default,30.66
[deleted],Germany,"Rhineland Palatinate",6,10,default,55.19
[deleted],Germany,"Rhineland Palatinate",1,5,default,55.19
[deleted],Germany,"North Rhein Westfalen",201,20000,default,10.53
[deleted],Germany,"North Rhein Westfalen",101,200,default,10.53
[deleted],Germany,"North Rhein Westfalen",51,100,default,13.69
[deleted],Germany,"North Rhein Westfalen",21,50,default,19.16
[deleted],Germany,"North Rhein Westfalen",11,20,default,30.66
[deleted],Germany,"North Rhein Westfalen",6,10,default,55.19
[deleted],Germany,"North Rhein Westfalen",1,5,default,55.19
