model,"product type",brand,processor,screen,hdd,ram,dvd,price,"margin $","margin %",client,status,confgitype,country
,Tablet,,"Pro 9.7"" - Wifi only - 128GB",,,,,125.00,,,,active,Processor,
,Notebook,,"i5 - Gen 1",,,,,72.00,,,,active,Processor,
,Notebook,,"i5 - Gen 3",,,,,97.00,,,,active,Processor,
,Notebook,,"i7 - Gen 1",,,,,75.00,,,,active,Processor,
,Notebook,,"i3 - Gen 4",,,,,130.00,,,,active,Processor,
,Notebook,,"i3 - Gen 3",,,,,81.00,,,,active,Processor,
,Notebook,,"i3 - Gen 2",,,,,72.00,,,,active,Processor,
,Notebook,,"i3 - Gen 1",,,,,65.00,,,,active,Processor,
,Notebook,,Core2Duo,,,,,24.00,,,,active,Processor,
,Notebook,,CoreDuo,,,,,20.00,,,,active,Processor,
,Notebook,,A10,,,,,,20.00,,,active,Processor,
,Notebook,,A8,,,,,80.00,,,,active,Processor,
,Notebook,,A6,,,,,60.00,,,,active,Processor,
,Notebook,,A4,,,,,42.00,,,,active,Processor,
,Notebook,,"AMD Phenom II",,,,,23.00,,,,active,Processor,
,Notebook,,"AMD Athlon II",,,,,18.00,,,,active,Processor,
,All-in-One,,Core2Duo,,,,,17.00,,,,active,Processor,
,Notebook,,"Pentium 3 / 4",,,,,10.00,,,,active,Processor,
,Notebook,,"i7 - Gen 3",,,,,122.00,,,,active,Processor,
,Notebook,,"i7 - Gen 2",,,,,103.00,,,,active,Processor,
,Desktop,,"i7 - Gen 4",,,,,143.00,,,,active,Processor,
,Desktop,,"i7 - Gen 3",,,,,103.00,,,,active,Processor,
,Desktop,,"i7 - Gen 2",,,,,89.00,,,,active,Processor,
,Desktop,,"i7 - Gen 1",,,,,75.00,,,,active,Processor,
,Desktop,,"i5 - Gen 4",,,,,112.00,,,,active,Processor,
,Desktop,,"i5 - Gen 3",,,,,81.00,,,,active,Processor,
,Desktop,,"i5 - Gen 2",,,,,72.00,,,,active,Processor,
,Desktop,,"i5 - Gen 1",,,,,61.00,,,,active,Processor,
,All-in-One,,CoreDuo,,,,,13.00,,,,active,Processor,
,Desktop,,"i3 - Gen 3",,,,,72.00,,,,active,Processor,
,Desktop,,"i3 - Gen 2",,,,,58.00,,,,active,Processor,
,Desktop,,"i3 - Gen 1",,,,,50.00,,,,active,Processor,
,Notebook,,"i7 - Gen 6",,,,,240.00,,,,active,Processor,
,Desktop,,Core2Duo,,,,,17.00,,,,active,Processor,
,Desktop,,CoreDuo,,,,,13.00,,,,active,Processor,
,Desktop,,A10,,,,,61.00,,,,active,Processor,
,Desktop,,A8,,,,,56.00,,,,active,Processor,
,Desktop,,A6,,,,,40.00,,,,active,Processor,
,Desktop,,A4,,,,,18.00,,,,active,Processor,
,Desktop,,"AMD Phenom II",,,,,14.00,,,,active,Processor,
,Desktop,,"AMD Athlon II",,,,,14.00,,,,active,Processor,
,All-in-One,,Core2Quad,,,,,34.00,,,,active,Processor,
,Desktop,,"Pentium 3 / 4",,,,,10.00,,,,active,Processor,
,Notebook,,"i7 - Gen 4",,,,,183.00,,,,active,Processor,
,LCD,,,"24""",,,,40.00,,,,active,Lcd,
,LCD,,,"23""",,,,40.00,,,,active,Lcd,
,LCD,,,"22""",,,,34.00,,,,active,Lcd,
,LCD,,,"21""",,,,26.00,,,,active,Lcd,
,LCD,,,"20""",,,,21.00,,,,active,Lcd,
,LCD,,,"19""",,,,16.00,,,,active,Lcd,
,LCD,,,"18""",,,,14.00,,,,active,Lcd,
,LCD,,,"17""",,,,11.00,,,,active,Lcd,
,Notebook,,"i3 - Gen 4",,,,,117.00,,,"HPI - All Countries",active,Processor,
,Tablet,,"Pro 9.7"" - Wifi only - 32GB",,,,,109.00,,,,active,Processor,
,Notebook,,"i5 - Gen 3",,,,,87.00,,,"HPI - All Countries",active,Processor,
,All-in-One,,"i7 - Gen 4",,,,,143.00,,,,active,Processor,
,All-in-One,,"i7 - Gen 3",,,,,103.00,,,,active,Processor,
,All-in-One,,"i7 - Gen 2",,,,,89.00,,,,active,Processor,
,All-in-One,,"i7 - Gen 1",,,,,75.00,,,,active,Processor,
,All-in-One,,"i5 - Gen 4",,,,,112.00,,,,active,Processor,
,All-in-One,,"i5 - Gen 3",,,,,81.00,,,,active,Processor,
,All-in-One,,"i5 - Gen 2",,,,,72.00,,,,active,Processor,
,All-in-One,,"i5 - Gen 1",,,,,61.00,,,,active,Processor,
,All-in-One,,"i3 - Gen 4",,,,,87.00,,,,active,Processor,
,All-in-One,,"i3 - Gen 3",,,,,72.00,,,,active,Processor,
,All-in-One,,"i3 - Gen 2",,,,,58.00,,,,active,Processor,
,All-in-One,,"i3 - Gen 1",,,,,50.00,,,,active,Processor,
,Notebook,,Centrino,,,,,20.00,,,,active,Processor,
,Notebook,,"i3 - Gen 5",,,,,159.00,,,,active,Processor,
,Notebook,,"i5 - Gen 5",,,,,172.00,,,,active,Processor,
,Notebook,,"i5 - Gen 4",,,,,143.00,,,,active,Processor,
,Notebook,,"i5 - Gen 2",,,,,81.00,,,,active,Processor,
,All-in-One,,A10,,,,,61.00,,,,active,Processor,
,All-in-One,,A8,,,,,56.00,,,,active,Processor,
,All-in-One,,A6,,,,,40.00,,,,active,Processor,
,All-in-One,,A4,,,,,18.00,,,,active,Processor,
,All-in-One,,"AMD Phenom II",,,,,14.00,,,,active,Processor,
,All-in-One,,"AMD Athlon II",,,,,14.00,,,,active,Processor,
,Tablet,,"Pro 9.7"" - Wifi + Celluar - 128GB",,,,,150.00,,,,active,Processor,
,All-in-One,,"Pentium 3 / 4",,,,,10.00,,,,active,Processor,
,Notebook,,"i7 - Gen 5",,,,,212.00,,,,active,Processor,
,Notebook,,"i5 - Gen 7",,,,,230.00,,,,active,Processor,
,All-in-One,,A12,,,,,73.00,,,,active,Processor,
,Notebook,,"i7 - Gen 5",,,,,191.00,,,"HPI - All Countries",active,Processor,
,Notebook,,"i7 - Gen 4",,,,,165.00,,,"HPI - All Countries",active,Processor,
,Notebook,,"i7 - Gen 3",,,,,110.00,,,"HPI - All Countries",active,Processor,
,Notebook,,"i7 - Gen 2",,,,,93.00,,,"HPI - All Countries",active,Processor,
,Notebook,,"i7 - Gen 1",,,,,68.00,,,"HPI - All Countries",active,Processor,
,Notebook,,"i5 - Gen 5",,,,,155.00,,,"HPI - All Countries",active,Processor,
,Notebook,,"i5 - Gen 4",,,,,129.00,,,"HPI - All Countries",active,Processor,
,Notebook,,A12,,,,,122.00,,,,active,Processor,
,Desktop,,"i7 - Gen 5",,,,,179.00,,,,active,Processor,
,Desktop,,"i5 - Gen 5",,,,,121.00,,,,active,Processor,
,Notebook,,"i3 - Gen 6",,,,,190.00,,,,active,Processor,
,Desktop,,"i3 - Gen 5",,,,,95.00,,,,active,Processor,
,Desktop,,"i3 - Gen 4",,,,,87.00,,,,active,Processor,
,Desktop,,Core2Quad,,,,,34.00,,,,active,Processor,
,Desktop,,A12,,,,,73.00,,,,active,Processor,
,All-in-One,,"i7 - Gen 5",,,,,179.00,,,,active,Processor,
,All-in-One,,"i5 - Gen 5",,,,,121.00,,,,active,Processor,
,All-in-One,,"i3 - Gen 5",,,,,95.00,,,,active,Processor,
,Notebook,,"i3 - Gen 3",,,,,73.00,,,"HPI - All Countries",active,Processor,
,Notebook,,"i3 - Gen 2",,,,,65.00,,,"HPI - All Countries",active,Processor,
,Notebook,,"i3 - Gen 1",,,,,59.00,,,"HPI - All Countries",active,Processor,
,Notebook,,Core2Duo,,,,,22.00,,,"HPI - All Countries",active,Processor,
,Notebook,,CoreDuo,,,,,18.00,,,"HPI - All Countries",active,Processor,
,Notebook,,Centrino,,,,,18.00,,,"HPI - All Countries",active,Processor,
,Notebook,,A12,,,,,110.00,,,"HPI - All Countries",active,Processor,
,Notebook,,A10,,,,,93.00,,,"HPI - All Countries",active,Processor,
,Notebook,,A8,,,,,72.00,,,"HPI - All Countries",active,Processor,
,Notebook,,A6,,,,,54.00,,,"HPI - All Countries",active,Processor,
,Notebook,,A4,,,,,38.00,,,"HPI - All Countries",active,Processor,
,Notebook,,"AMD Phenom II",,,,,21.00,,,"HPI - All Countries",active,Processor,
,Notebook,,"AMD Athlon II",,,,,16.00,,,"HPI - All Countries",active,Processor,
,Notebook,,"Pentium 3 / 4",,,,,9.00,,,"HPI - All Countries",active,Processor,
,Desktop,,"i7 - Gen 5",,,,,161.00,,,"HPI - All Countries",active,Processor,
,Desktop,,"i7 - Gen 4",,,,,129.00,,,"HPI - All Countries",active,Processor,
,Desktop,,"i7 - Gen 3",,,,,93.00,,,"HPI - All Countries",active,Processor,
,Desktop,,"i7 - Gen 2",,,,,80.00,,,"HPI - All Countries",active,Processor,
,Desktop,,"i7 - Gen 1",,,,,68.00,,,"HPI - All Countries",active,Processor,
,Desktop,,"i5 - Gen 5",,,,,109.00,,,"HPI - All Countries",active,Processor,
,Desktop,,"i5 - Gen 4",,,,,101.00,,,"HPI - All Countries",active,Processor,
,Desktop,,"i5 - Gen 3",,,,,73.00,,,"HPI - All Countries",active,Processor,
,Desktop,,"i5 - Gen 2",,,,,65.00,,,"HPI - All Countries",active,Processor,
,Desktop,,"i5 - Gen 1",,,,,55.00,,,"HPI - All Countries",active,Processor,
,Desktop,,"i3 - Gen 5",,,,,86.00,,,"HPI - All Countries",active,Processor,
,Desktop,,"i3 - Gen 4",,,,,78.00,,,"HPI - All Countries",active,Processor,
,Desktop,,"i3 - Gen 3",,,,,65.00,,,"HPI - All Countries",active,Processor,
,Desktop,,"i3 - Gen 2",,,,,52.00,,,"HPI - All Countries",active,Processor,
,Desktop,,"i3 - Gen 1",,,,,45.00,,,"HPI - All Countries",active,Processor,
,Desktop,,Core2Quad,,,,,31.00,,,"HPI - All Countries",active,Processor,
,Desktop,,Core2Duo,,,,,15.00,,,"HPI - All Countries",active,Processor,
,Desktop,,CoreDuo,,,,,12.00,,,"HPI - All Countries",active,Processor,
,Desktop,,A12,,,,,66.00,,,"HPI - All Countries",active,Processor,
,Desktop,,A10,,,,,55.00,,,"HPI - All Countries",active,Processor,
,Desktop,,A8,,,,,50.00,,,"HPI - All Countries",active,Processor,
,Desktop,,A6,,,,,36.00,,,"HPI - All Countries",active,Processor,
,Desktop,,A4,,,,,16.00,,,"HPI - All Countries",active,Processor,
,Desktop,,"AMD Phenom II",,,,,13.00,,,"HPI - All Countries",active,Processor,
,Desktop,,"AMD Athlon II",,,,,13.00,,,"HPI - All Countries",active,Processor,
,Desktop,,"Pentium 3 / 4",,,,,9.00,,,"HPI - All Countries",active,Processor,
,LCD,,,"24""",,,,36.00,,,"HPI - All Countries",active,Lcd,
,LCD,,,"23""",,,,36.00,,,"HPI - All Countries",active,Lcd,
,LCD,,,"22""",,,,31.00,,,"HPI - All Countries",active,Lcd,
,LCD,,,"21""",,,,23.00,,,"HPI - All Countries",active,Lcd,
,LCD,,,"20""",,,,19.00,,,"HPI - All Countries",active,Lcd,
,LCD,,,"19""",,,,14.00,,,"HPI - All Countries",active,Lcd,
,LCD,,,"18""",,,,13.00,,,"HPI - All Countries",active,Lcd,
,LCD,,,"17""",,,,10.00,,,"HPI - All Countries",active,Lcd,
,All-in-One,,"i7 - Gen 5",,,,,161.00,,,"HPI - All Countries",active,Processor,
,All-in-One,,"i7 - Gen 4",,,,,129.00,,,"HPI - All Countries",active,Processor,
,All-in-One,,"i7 - Gen 3",,,,,93.00,,,"HPI - All Countries",active,Processor,
,All-in-One,,"i7 - Gen 2",,,,,80.00,,,"HPI - All Countries",active,Processor,
,All-in-One,,"i7 - Gen 1",,,,,68.00,,,"HPI - All Countries",active,Processor,
,All-in-One,,"i5 - Gen 5",,,,,109.00,,,"HPI - All Countries",active,Processor,
,All-in-One,,"i5 - Gen 4",,,,,101.00,,,"HPI - All Countries",active,Processor,
,All-in-One,,"i5 - Gen 3",,,,,73.00,,,"HPI - All Countries",active,Processor,
,All-in-One,,"i5 - Gen 2",,,,,65.00,,,"HPI - All Countries",active,Processor,
,All-in-One,,"i5 - Gen 1",,,,,55.00,,,"HPI - All Countries",active,Processor,
,All-in-One,,"i3 - Gen 5",,,,,86.00,,,"HPI - All Countries",active,Processor,
,All-in-One,,"i3 - Gen 4",,,,,78.00,,,"HPI - All Countries",active,Processor,
,All-in-One,,"i3 - Gen 3",,,,,65.00,,,"HPI - All Countries",active,Processor,
,All-in-One,,"i3 - Gen 2",,,,,52.00,,,"HPI - All Countries",active,Processor,
,All-in-One,,"i3 - Gen 1",,,,,45.00,,,"HPI - All Countries",active,Processor,
,All-in-One,,Core2Quad,,,,,31.00,,,"HPI - All Countries",active,Processor,
,All-in-One,,Core2Duo,,,,,15.00,,,"HPI - All Countries",active,Processor,
,All-in-One,,CoreDuo,,,,,12.00,,,"HPI - All Countries",active,Processor,
,All-in-One,,A12,,,,,66.00,,,"HPI - All Countries",active,Processor,
,All-in-One,,A10,,,,,55.00,,,"HPI - All Countries",active,Processor,
,All-in-One,,A8,,,,,50.00,,,"HPI - All Countries",active,Processor,
,All-in-One,,A6,,,,,36.00,,,"HPI - All Countries",active,Processor,
,All-in-One,,A4,,,,,16.00,,,"HPI - All Countries",active,Processor,
,All-in-One,,"AMD Phenom II",,,,,13.00,,,"HPI - All Countries",active,Processor,
,All-in-One,,"AMD Athlon II",,,,,13.00,,,"HPI - All Countries",active,Processor,
,All-in-One,,"Pentium 3 / 4",,,,,9.00,,,"HPI - All Countries",active,Processor,
,Tablet,,"Pro 9.7"" - Wifi + Celluar - 32GB",,,,,123.00,,,,active,Processor,
,Notebook,,"i5 - Gen 1",,,,,65.00,,,"HPI - All Countries",active,Processor,
,Notebook,,"i3 - Gen 5",,,,,143.00,,,"HPI - All Countries",active,Processor,
,Notebook,,Other,,,,,3.00,,,"HPI Trade-in - APJ",active,Processor,
,Notebook,,"i5 - Gen 2",,,,,73.00,,,"HPI - All Countries",active,Processor,
,Notebook,,"AMD A Series",,,,,58.00,,,"HPI Trade-in - APJ",active,Processor,
,Notebook,,"Core 2",,,,,16.00,,,"HPI Trade-in - APJ",active,Processor,
,Tablet,,"Pro 10.5"" - Wifi + Cellular - 256GB",,,,,165.00,,,,active,Processor,
,Tablet,,"Pro 12.9"" - Wifi + Cellular - 256GB",,,,,170.00,,,,active,Processor,
,Notebook,,i3,,,,,76.00,,,"HPI Trade-in - APJ",active,Processor,
,Notebook,,i5,,,,,94.00,,,"HPI Trade-in - APJ",active,Processor,
,Notebook,,i7,,,,,118.00,,,"HPI Trade-in - APJ",active,Processor,
,Notebook,,"Core 2",,,,,10.00,,,"HPI Trade-in - APJ",active,Processor,Malaysia
,Notebook,,"AMD A Series",,,,,45.00,,,"HPI Trade-in - APJ",active,Processor,Malaysia
,Notebook,,i3,,,,,60.00,,,"HPI Trade-in - APJ",active,Processor,Malaysia
,Notebook,,i5,,,,,75.00,,,"HPI Trade-in - APJ",active,Processor,Malaysia
,Notebook,,i7,,,,,95.00,,,"HPI Trade-in - APJ",active,Processor,Malaysia
,Notebook,,"Core 2",,,,,10.00,,,"HPI Trade-in - APJ",active,Processor,China
,Notebook,,"AMD A Series",,,,,45.00,,,"HPI Trade-in - APJ",active,Processor,China
,Notebook,,i3,,,,,60.00,,,"HPI Trade-in - APJ",active,Processor,China
,Notebook,,i5,,,,,75.00,,,"HPI Trade-in - APJ",active,Processor,China
,Notebook,,i7,,,,,95.00,,,"HPI Trade-in - APJ",active,Processor,China
,Notebook,,"Core 2",,,,,10.00,,,"HPI Trade-in - APJ",active,Processor,"Hong Kong"
,Notebook,,"AMD A Series",,,,,45.00,,,"HPI Trade-in - APJ",active,Processor,"Hong Kong"
,Notebook,,i3,,,,,60.00,,,"HPI Trade-in - APJ",active,Processor,"Hong Kong"
,Notebook,,i5,,,,,75.00,,,"HPI Trade-in - APJ",active,Processor,"Hong Kong"
,Notebook,,i7,,,,,95.00,,,"HPI Trade-in - APJ",active,Processor,"Hong Kong"
,Notebook,,"Core 2",,,,,5.00,,,"HPI Trade-in - APJ",active,Processor,Australia
,Notebook,,"AMD A Series",,,,,40.00,,,"HPI Trade-in - APJ",active,Processor,Australia
,Notebook,,i3,,,,,55.00,,,"HPI Trade-in - APJ",active,Processor,Australia
,Notebook,,i5,,,,,70.00,,,"HPI Trade-in - APJ",active,Processor,Australia
,Notebook,,i7,,,,,90.00,,,"HPI Trade-in - APJ",active,Processor,Australia
,Notebook,,"Core 2",,,,,5.00,,,"HPI Trade-in - APJ",active,Processor,Japan
,Notebook,,"AMD A Series",,,,,40.00,,,"HPI Trade-in - APJ",active,Processor,Japan
,Notebook,,i3,,,,,55.00,,,"HPI Trade-in - APJ",active,Processor,Japan
,Notebook,,i5,,,,,70.00,,,"HPI Trade-in - APJ",active,Processor,Japan
,Notebook,,i7,,,,,90.00,,,"HPI Trade-in - APJ",active,Processor,Japan
,Notebook,,"Core 2",,,,,16.00,,,"HPI Trade-in - APJ",active,Processor,India
,Notebook,,"AMD A Series",,,,,58.00,,,"HPI Trade-in - APJ",active,Processor,India
,Notebook,,i3,,,,,76.00,,,"HPI Trade-in - APJ",active,Processor,India
,Notebook,,i5,,,,,94.00,,,"HPI Trade-in - APJ",active,Processor,India
,Notebook,,i7,,,,,118.00,,,"HPI Trade-in - APJ",active,Processor,India
,Desktop,,"Core 2",,,,,16.00,,,"HPI Trade-in - APJ",active,Processor,
,Desktop,,"AMD A Series",,,,,34.00,,,"HPI Trade-in - APJ",active,Processor,
,Desktop,,i3,,,,,64.00,,,"HPI Trade-in - APJ",active,Processor,
,Desktop,,i5,,,,,76.00,,,"HPI Trade-in - APJ",active,Processor,
,Desktop,,i7,,,,,100.00,,,"HPI Trade-in - APJ",active,Processor,
,Desktop,,"Core 2",,,,,10.00,,,"HPI Trade-in - APJ",active,Processor,Malaysia
,Desktop,,"AMD A Series",,,,,25.00,,,"HPI Trade-in - APJ",active,Processor,Malaysia
,Desktop,,i3,,,,,50.00,,,"HPI Trade-in - APJ",active,Processor,Malaysia
,Desktop,,i5,,,,,60.00,,,"HPI Trade-in - APJ",active,Processor,Malaysia
,Desktop,,i7,,,,,80.00,,,"HPI Trade-in - APJ",active,Processor,Malaysia
,Desktop,,"Core 2",,,,,10.00,,,"HPI Trade-in - APJ",active,Processor,China
,Desktop,,"AMD A Series",,,,,25.00,,,"HPI Trade-in - APJ",active,Processor,China
,Desktop,,i3,,,,,50.00,,,"HPI Trade-in - APJ",active,Processor,China
,Desktop,,i5,,,,,60.00,,,"HPI Trade-in - APJ",active,Processor,China
,Desktop,,i7,,,,,80.00,,,"HPI Trade-in - APJ",active,Processor,China
,Desktop,,"Core 2",,,,,10.00,,,"HPI Trade-in - APJ",active,Processor,"Hong Kong"
,Desktop,,"AMD A Series",,,,,25.00,,,"HPI Trade-in - APJ",active,Processor,"Hong Kong"
,Desktop,,i3,,,,,50.00,,,"HPI Trade-in - APJ",active,Processor,"Hong Kong"
,Desktop,,i5,,,,,60.00,,,"HPI Trade-in - APJ",active,Processor,"Hong Kong"
,Desktop,,i7,,,,,80.00,,,"HPI Trade-in - APJ",active,Processor,"Hong Kong"
,Desktop,,"Core 2",,,,,5.00,,,"HPI Trade-in - APJ",active,Processor,Australia
,Desktop,,"AMD A Series",,,,,20.00,,,"HPI Trade-in - APJ",active,Processor,Australia
,Desktop,,i3,,,,,45.00,,,"HPI Trade-in - APJ",active,Processor,Australia
,Desktop,,i5,,,,,55.00,,,"HPI Trade-in - APJ",active,Processor,Australia
,Desktop,,i7,,,,,75.00,,,"HPI Trade-in - APJ",active,Processor,Australia
,Desktop,,"Core 2",,,,,5.00,,,"HPI Trade-in - APJ",active,Processor,Japan
,Desktop,,"AMD A Series",,,,,20.00,,,"HPI Trade-in - APJ",active,Processor,Japan
,Desktop,,i3,,,,,45.00,,,"HPI Trade-in - APJ",active,Processor,Japan
,Desktop,,i5,,,,,55.00,,,"HPI Trade-in - APJ",active,Processor,Japan
,Desktop,,i7,,,,,75.00,,,"HPI Trade-in - APJ",active,Processor,Japan
,Desktop,,"Core 2",,,,,16.00,,,"HPI Trade-in - APJ",active,Processor,India
,Desktop,,"AMD A Series",,,,,34.00,,,"HPI Trade-in - APJ",active,Processor,India
,Desktop,,i3,,,,,64.00,,,"HPI Trade-in - APJ",active,Processor,India
,Desktop,,i5,,,,,76.00,,,"HPI Trade-in - APJ",active,Processor,India
,Desktop,,i7,,,,,100.00,,,"HPI Trade-in - APJ",active,Processor,India
,LCD,,,"15 - 18",,,,12.80,,,"HPI Trade-in - APJ",active,Lcd,
,LCD,,,"19 - 21",,,,17.60,,,"HPI Trade-in - APJ",active,Lcd,
,LCD,,,"22 - 24",,,,29.60,,,"HPI Trade-in - APJ",active,Lcd,
,LCD,,,"25 - 27",,,,38.00,,,"HPI Trade-in - APJ",active,Lcd,
,LCD,,,"28 - 30",,,,44.00,,,"HPI Trade-in - APJ",active,Lcd,
,LCD,,,"15 - 18",,,,7.00,,,"HPI Trade-in - APJ",active,Lcd,Malaysia
,LCD,,,"19 - 21",,,,11.00,,,"HPI Trade-in - APJ",active,Lcd,Malaysia
,LCD,,,"22 - 24",,,,21.00,,,"HPI Trade-in - APJ",active,Lcd,Malaysia
,LCD,,,"25 - 27",,,,28.00,,,"HPI Trade-in - APJ",active,Lcd,Malaysia
,LCD,,,"28 - 30",,,,33.00,,,"HPI Trade-in - APJ",active,Lcd,Malaysia
,LCD,,,"15 - 18",,,,7.00,,,"HPI Trade-in - APJ",active,Lcd,China
,LCD,,,"19 - 21",,,,11.00,,,"HPI Trade-in - APJ",active,Lcd,China
,LCD,,,"22 - 24",,,,21.00,,,"HPI Trade-in - APJ",active,Lcd,China
,LCD,,,"25 - 27",,,,28.00,,,"HPI Trade-in - APJ",active,Lcd,China
,LCD,,,"28 - 30",,,,33.00,,,"HPI Trade-in - APJ",active,Lcd,China
,LCD,,,"15 - 18",,,,7.00,,,"HPI Trade-in - APJ",active,Lcd,"Hong Kong"
,LCD,,,"19 - 21",,,,11.00,,,"HPI Trade-in - APJ",active,Lcd,"Hong Kong"
,LCD,,,"22 - 24",,,,21.00,,,"HPI Trade-in - APJ",active,Lcd,"Hong Kong"
,LCD,,,"25 - 27",,,,28.00,,,"HPI Trade-in - APJ",active,Lcd,"Hong Kong"
,LCD,,,"28 - 30",,,,33.00,,,"HPI Trade-in - APJ",active,Lcd,"Hong Kong"
,LCD,,,"15 - 18",,,,2.00,,,"HPI Trade-in - APJ",active,Lcd,Australia
,LCD,,,"19 - 21",,,,6.00,,,"HPI Trade-in - APJ",active,Lcd,Australia
,LCD,,,"22 - 24",,,,16.00,,,"HPI Trade-in - APJ",active,Lcd,Australia
,LCD,,,"25 - 27",,,,23.00,,,"HPI Trade-in - APJ",active,Lcd,Australia
,LCD,,,"28 - 30",,,,28.00,,,"HPI Trade-in - APJ",active,Lcd,Australia
,LCD,,,"15 - 18",,,,2.00,,,"HPI Trade-in - APJ",active,Lcd,Japan
,LCD,,,"19 - 21",,,,6.00,,,"HPI Trade-in - APJ",active,Lcd,Japan
,LCD,,,"22 - 24",,,,16.00,,,"HPI Trade-in - APJ",active,Lcd,Japan
,LCD,,,"25 - 27",,,,23.00,,,"HPI Trade-in - APJ",active,Lcd,Japan
,LCD,,,"28 - 30",,,,28.00,,,"HPI Trade-in - APJ",active,Lcd,Japan
,LCD,,,"15 - 18",,,,12.80,,,"HPI Trade-in - APJ",active,Lcd,India
,LCD,,,"19 - 21",,,,17.60,,,"HPI Trade-in - APJ",active,Lcd,India
,LCD,,,"22 - 24",,,,29.60,,,"HPI Trade-in - APJ",active,Lcd,India
,LCD,,,"25 - 27",,,,38.00,,,"HPI Trade-in - APJ",active,Lcd,India
,LCD,,,"28 - 30",,,,44.00,,,"HPI Trade-in - APJ",active,Lcd,India
,LCD,,,"All Sizes",,,,0.00,,,"HPI Trade-in - APJ",active,Lcd,
,All-in-One,,"Core 2",,,,,52.00,,,"HPI Trade-in - APJ",active,Processor,
,All-in-One,,"AMD A Series",,,,,77.00,,,"HPI Trade-in - APJ",active,Processor,
,All-in-One,,i3,,,,,112.00,,,"HPI Trade-in - APJ",active,Processor,
,All-in-One,,i5,,,,,122.00,,,"HPI Trade-in - APJ",active,Processor,
,All-in-One,,i7,,,,,147.00,,,"HPI Trade-in - APJ",active,Processor,
,All-in-One,,"Core 2",,,,,40.00,,,"HPI Trade-in - APJ",active,Processor,Malaysia
,All-in-One,,"AMD A Series",,,,,60.00,,,"HPI Trade-in - APJ",active,Processor,Malaysia
,All-in-One,,i3,,,,,90.00,,,"HPI Trade-in - APJ",active,Processor,Malaysia
,All-in-One,,i5,,,,,100.00,,,"HPI Trade-in - APJ",active,Processor,Malaysia
,All-in-One,,i7,,,,,120.00,,,"HPI Trade-in - APJ",active,Processor,Malaysia
,All-in-One,,"Core 2",,,,,40.00,,,"HPI Trade-in - APJ",active,Processor,China
,All-in-One,,"AMD A Series",,,,,60.00,,,"HPI Trade-in - APJ",active,Processor,China
,All-in-One,,i3,,,,,90.00,,,"HPI Trade-in - APJ",active,Processor,China
,All-in-One,,i5,,,,,100.00,,,"HPI Trade-in - APJ",active,Processor,China
,All-in-One,,i7,,,,,120.00,,,"HPI Trade-in - APJ",active,Processor,China
,All-in-One,,"Core 2",,,,,40.00,,,"HPI Trade-in - APJ",active,Processor,"Hong Kong"
,All-in-One,,"AMD A Series",,,,,60.00,,,"HPI Trade-in - APJ",active,Processor,"Hong Kong"
,All-in-One,,i3,,,,,90.00,,,"HPI Trade-in - APJ",active,Processor,"Hong Kong"
,All-in-One,,i5,,,,,100.00,,,"HPI Trade-in - APJ",active,Processor,"Hong Kong"
,All-in-One,,i7,,,,,120.00,,,"HPI Trade-in - APJ",active,Processor,"Hong Kong"
,All-in-One,,"Core 2",,,,,35.00,,,"HPI Trade-in - APJ",active,Processor,Australia
,All-in-One,,"AMD A Series",,,,,55.00,,,"HPI Trade-in - APJ",active,Processor,Australia
,All-in-One,,i3,,,,,85.00,,,"HPI Trade-in - APJ",active,Processor,Australia
,All-in-One,,i5,,,,,95.00,,,"HPI Trade-in - APJ",active,Processor,Australia
,All-in-One,,i7,,,,,115.00,,,"HPI Trade-in - APJ",active,Processor,Australia
,All-in-One,,"Core 2",,,,,35.00,,,"HPI Trade-in - APJ",active,Processor,Japan
,All-in-One,,"AMD A Series",,,,,55.00,,,"HPI Trade-in - APJ",active,Processor,Japan
,All-in-One,,i3,,,,,85.00,,,"HPI Trade-in - APJ",active,Processor,Japan
,All-in-One,,i5,,,,,95.00,,,"HPI Trade-in - APJ",active,Processor,Japan
,All-in-One,,i7,,,,,115.00,,,"HPI Trade-in - APJ",active,Processor,Japan
,All-in-One,,"Core 2",,,,,52.00,,,"HPI Trade-in - APJ",active,Processor,India
,All-in-One,,"AMD A Series",,,,,77.00,,,"HPI Trade-in - APJ",active,Processor,India
,All-in-One,,i3,,,,,112.00,,,"HPI Trade-in - APJ",active,Processor,India
,All-in-One,,i5,,,,,122.00,,,"HPI Trade-in - APJ",active,Processor,India
,All-in-One,,i7,,,,,147.00,,,"HPI Trade-in - APJ",active,Processor,India
,Notebook,,"AMD A Series",,,,,45.00,,,"HPI Trade-in - APJ",active,Processor,Singapore
,Notebook,,"Core 2",,,,,10.00,,,"HPI Trade-in - APJ",active,Processor,Singapore
,Notebook,,i3,,,,,60.00,,,"HPI Trade-in - APJ",active,Processor,Singapore
,Notebook,,i5,,,,,75.00,,,"HPI Trade-in - APJ",active,Processor,Singapore
,Notebook,,i7,,,,,95.00,,,"HPI Trade-in - APJ",active,Processor,Singapore
,Desktop,,"Core 2",,,,,10.00,,,"HPI Trade-in - APJ",active,Processor,Singapore
,Desktop,,"AMD A Series",,,,,25.00,,,"HPI Trade-in - APJ",active,Processor,Singapore
,Desktop,,i3,,,,,50.00,,,"HPI Trade-in - APJ",active,Processor,Singapore
,Desktop,,i5,,,,,60.00,,,"HPI Trade-in - APJ",active,Processor,Singapore
,Desktop,,i7,,,,,80.00,,,"HPI Trade-in - APJ",active,Processor,Singapore
,LCD,,,"15 - 18",,,,7.00,,,"HPI Trade-in - APJ",active,Lcd,Singapore
,LCD,,,"19 - 21",,,,11.00,,,"HPI Trade-in - APJ",active,Lcd,Singapore
,LCD,,,"22 - 24",,,,21.00,,,"HPI Trade-in - APJ",active,Lcd,Singapore
,LCD,,,"25 - 27",,,,28.00,,,"HPI Trade-in - APJ",active,Lcd,Singapore
,LCD,,,"28 - 30",,,,33.00,,,"HPI Trade-in - APJ",active,Lcd,Singapore
,All-in-One,,"Core 2",,,,,40.00,,,"HPI Trade-in - APJ",active,Processor,Singapore
,All-in-One,,"AMD A Series",,,,,60.00,,,"HPI Trade-in - APJ",active,Processor,Singapore
,All-in-One,,i3,,,,,90.00,,,"HPI Trade-in - APJ",active,Processor,Singapore
,All-in-One,,i5,,,,,100.00,,,"HPI Trade-in - APJ",active,Processor,Singapore
,All-in-One,,i7,,,,,120.00,,,"HPI Trade-in - APJ",active,Processor,Singapore
,Workstation,,"i7 - Gen 5",,,,,179.00,,,,active,Processor,
,Workstation,,"i7 - Gen 4",,,,,143.00,,,,active,Processor,
,Workstation,,"i7 - Gen 3",,,,,103.00,,,,active,Processor,
,Workstation,,"i7 - Gen 2",,,,,89.00,,,,active,Processor,
,Workstation,,"i7 - Gen 1",,,,,75.00,,,,active,Processor,
,Workstation,,"i7 - Gen 5",,,,,161.10,,,"HPI - All Countries",active,Processor,
,Workstation,,"i7 - Gen 4",,,,,128.70,,,"HPI - All Countries",active,Processor,
,Workstation,,"i7 - Gen 3",,,,,92.70,,,"HPI - All Countries",active,Processor,
,Workstation,,"i7 - Gen 2",,,,,80.10,,,"HPI - All Countries",active,Processor,
,Workstation,,"i7 - Gen 1",,,,,67.50,,,"HPI - All Countries",active,Processor,
,Tablet,,"Pro 9.7"" - Wifi only - 256GB",,,,,137.00,,,,active,Processor,
,Tablet,,"Pro 10.5"" - Wifi + Cellular - 512GB",,,,,200.00,,,,active,Processor,
,Tablet,,"Pro 10.5"" - Wifi only - 64GB",,,,,135.00,,,,active,Processor,
,Tablet,,"Pro 10.5"" - Wifi only - 512GB",,,,,165.00,,,,active,Processor,
,Tablet,,"Pro 10.5"" - Wifi + Cellular - 64GB",,,,,145.00,,,,active,Processor,
,Tablet,,"Pro 10.5"" - Wifi only - 256GB",,,,,140.00,,,,active,Processor,
,Tablet,,"Pro 12.9"" - Wifi Only - 32GB",,,,,141.00,,,,active,Processor,
,Tablet,,"Pro 12.9"" - Wifi + Cellular - 128GB",,,,,165.00,,,,active,Processor,
,Tablet,,"Pro 12.9"" - Wifi Only - 128GB",,,,,150.00,,,,active,Processor,
,Tablet,,"Pro 12.9"" - Wifi Only - 256GB",,,,,165.00,,,,active,Processor,
,Notebook,,"i5 - Gen 6",,,,,200.00,,,,active,Processor,
,Notebook,,"i3 - Gen 7",,,,,210.00,,,,active,Processor,
,Notebook,,"i7 - Gen 7",,,,,270.00,,,,active,Processor,
"Acer  Aspire M5100",Desktop,Acer,"AMD Athlon II",,,,,,,,,active,Model,
,Notebook,,Other,,,,,3.00,,,"HPI Trade-in - APJ",active,Processor,Japan
,Notebook,,Other,,,,,3.00,,,"HPI Trade-in - APJ",active,Processor,India
,Notebook,,Other,,,,,3.00,,,"HPI Trade-in - APJ",active,Processor,"Hong Kong"
,Notebook,,Other,,,,,3.00,,,"HPI Trade-in - APJ",active,Processor,China
,Notebook,,Other,,,,,3.00,,,"HPI Trade-in - APJ",active,Processor,Australia
,Desktop,,Other,,,,,3.00,,,"HPI Trade-in - APJ",active,Processor,
"Folio 1040 G2 - i5",Notebook,HP,"i5 - Gen 5","14""",,,,,,,,active,Model,
"Folio 1040 G1 - i5",Notebook,HP,"i5 - Gen 4","14""",,,,,,,,active,Model,
,Desktop,,Other,,,,,3.00,,,"HPI Trade-in - APJ",active,Processor,Malaysia
,Desktop,,Other,,,,,3.00,,,"HPI Trade-in - APJ",active,Processor,Japan
,All-in-One,,Other,,,,,15.00,,,"HPI Trade-in - APJ",active,Processor,
"Omen 17-AN009TX",Notebook,HP,"i7 - Gen 7","17""",1TB,16GB,No,,,,,active,Model,
"Omen 15-CEO73TX",Notebook,HP,"i5 - Gen 7","15""",1TB,8GB,No,,,,,active,Model,
"Omen 15-CEO70TX",Notebook,HP,"i5 - Gen 7","15""",1TB,8GB,No,,,,,active,Model,
"Omen 15-AX248TX",Notebook,HP,"i5 - Gen 7","15""",1TB,8GB,No,,,,,active,Model,
"Pav x360 15-BK001TX",Notebook,HP,"i5 - Gen 6","15""",1TB,8GB,No,,,,,active,Model,
"Pav x360 13-U131TU",Notebook,HP,"i3 - Gen 7","13.3""",1TB,4GB,No,,,,,active,Model,
"Pav 15-AU003TX",Notebook,HP,"i5 - Gen 6","15""",1TB,8GB,No,,,,,active,Model,
HP15-BS544TU,Notebook,HP,"i3 - Gen 6","15""",1TB,8GB,No,,,,,active,Model,
"Spectre 13- V122TU",Notebook,HP,"i7 - Gen 7","13.3""",512GB,8GB,No,,,,,active,Model,
HP14-AM519TU,Notebook,HP,"i3 - Gen 6","14""",1TB,4GB,No,,,,,active,Model,
"Acer  Aspire e5-571 - i5",Notebook,Acer,"i5 - Gen 5","15""",,,,,,,,active,Model,
,All-in-One,,Other,,,,,15.00,,,"HPI Trade-in - APJ",active,Processor,Malaysia
,All-in-One,,Other,,,,,15.00,,,"HPI Trade-in - APJ",active,Processor,Japan
,All-in-One,,Other,,,,,15.00,,,"HPI Trade-in - APJ",active,Processor,Australia
,All-in-One,,Other,,,,,15.00,,,"HPI Trade-in - APJ",active,Processor,China
,All-in-One,,Other,,,,,15.00,,,"HPI Trade-in - APJ",active,Processor,"Hong Kong"
,All-in-One,,Other,,,,,15.00,,,"HPI Trade-in - APJ",active,Processor,India
"Folio 1040 G2 - i5",Notebook,HP,i5,"14""",,,,,,,"HPI Trade-in - APJ",active,Model,
"Folio 1040 G1 - i5",Notebook,HP,i5,"14""",,,,,,,"HPI Trade-in - APJ",active,Model,
,Desktop,,Other,,,,,3.00,,,"HPI Trade-in - APJ",active,Processor,India
,Desktop,,Other,,,,,3.00,,,"HPI Trade-in - APJ",active,Processor,"Hong Kong"
"Omen 17-AN009TX",Notebook,HP,i7,"17""",1TB,16GB,No,,,,"HPI Trade-in - APJ",active,Model,
"Omen 15-CEO73TX",Notebook,HP,i5,"15""",1TB,8GB,No,,,,"HPI Trade-in - APJ",active,Model,
"Omen 15-CEO70TX",Notebook,HP,i5,"15""",1TB,8GB,No,,,,"HPI Trade-in - APJ",active,Model,
"Omen 15-AX248TX",Notebook,HP,i5,"15""",1TB,8GB,No,,,,"HPI Trade-in - APJ",active,Model,
"Pav x360 15-BK001TX",Notebook,HP,i5,"15""",1TB,8GB,No,,,,"HPI Trade-in - APJ",active,Model,
"Pav x360 13-U131TU",Notebook,HP,i3,"13.3""",1TB,4GB,No,,,,"HPI Trade-in - APJ",active,Model,
"Pav 15-AU003TX",Notebook,HP,i5,"15""",1TB,8GB,No,,,,"HPI Trade-in - APJ",active,Model,
HP15-BS544TU,Notebook,HP,i3,"15""",1TB,8GB,No,,,,"HPI Trade-in - APJ",active,Model,
"Spectre 13- V122TU",Notebook,HP,i7,"13.3""",512GB,8GB,No,,,,"HPI Trade-in - APJ",active,Model,
HP14-AM519TU,Notebook,HP,i3,"14""",1TB,4GB,No,,,,"HPI Trade-in - APJ",active,Model,
,Desktop,,Other,,,,,3.00,,,"HPI Trade-in - APJ",active,Processor,China
,Desktop,,Other,,,,,3.00,,,"HPI Trade-in - APJ",active,Processor,Australia
,Notebook,,Other,,,,,3.00,,,"HPI Trade-in - APJ",active,Processor,Singapore
"Dell  OptiPlex 580",Desktop,Dell,"AMD Athlon II",,,,,,,,,active,Model,
"Dell  OptiPlex 580",Desktop,Dell,Other,,,,,,,,"HPI Trade-in - APJ",active,Model,
,All-in-One,,Other,,,,,15.00,,,"HPI Trade-in - APJ",active,Processor,Singapore
,Desktop,,Other,,,,,3.00,,,"HPI Trade-in - APJ",active,Processor,Singapore
,Notebook,,Other,,,,,3.00,,,"HPI Trade-in - APJ",active,Processor,Malaysia
"HP  Compaq 8100 Elite - i3",Desktop,HP,"i3 - Gen 1",,,,,,,,,active,Model,
"Dell  Latitude E6320 - i5",Notebook,Dell,"i5 - Gen 2","13.3""",,,,,,,,active,Model,
"Dell  Latitude E6320 - i7",Notebook,Dell,"i7 - Gen 2","13.3""",,,,,,,,active,Model,
"Dell  Latitude E6420 - i5",Notebook,Dell,"i5 - Gen 2","14""",,,,,,,,active,Model,
"Lenovo ThinkCentre M57 - Core2Duo",Desktop,Lenovo,Core2Duo,,,,,,,,,active,Model,
"Lenovo ThinkCentre M57 - Core2Quad",Desktop,Lenovo,Core2Quad,,,,,,,,,active,Model,
"Acer  TravelMate 3270",Notebook,Acer,Core2Duo,"14""",,,,,,,,active,Model,
"Acer  TravelMate 3280",Notebook,Acer,CoreDuo,"14""",,,,,,,,active,Model,
"Acer  TravelMate 4720",Notebook,Acer,Core2Duo,"14""",,,,,,,,active,Model,
"Acer  TravelMate 4750 - i5",Notebook,Acer,"i5 - Gen 2","14""",,,,,,,,active,Model,
"Acer  TravelMate 6292",Notebook,Acer,Core2Duo,"12.5""",,,,,,,,active,Model,
"Acer  TravelMate 6495 - i5",Notebook,Acer,"i5 - Gen 2","14""",,,,,,,,active,Model,
"Acer  TravelMate 6592",Notebook,Acer,Core2Duo,"15""",,,,,,,,active,Model,
"Acer  TravelMate 6595 - i5",Notebook,Acer,"i5 - Gen 2","15""",,,,,,,,active,Model,
"Acer  TravelMate 8481 - i5",Notebook,Acer,"i5 - Gen 2","14""",,,,,,,,active,Model,
"Acer  TravelMate P243 - i5",Notebook,Acer,"i5 - Gen 3","14""",,,,,,,,active,Model,
"Acer  TravelMate P645 - i5",Notebook,Acer,"i5 - Gen 4","14""",,,,,,,,active,Model,
"Acer  Veriton 1000",Desktop,Acer,Core2Duo,,,,,,,,,active,Model,
"Acer  Veriton 3900Pro",Desktop,Acer,Core2Duo,,,,,,,,,active,Model,
"Acer  Veriton 661 - C2D",Desktop,Acer,Core2Duo,,,,,,,,,active,Model,
"Acer  Veriton 661 - i5",Desktop,Acer,"i5 - Gen 2",,,,,,,,,active,Model,
"Acer  Veriton 661 - i7",Desktop,Acer,"i7 - Gen 2",,,,,,,,,active,Model,
"Acer  Veriton L4610G - i5",Desktop,Acer,"i5 - Gen 2",,,,,,,,,active,Model,
"Acer  Veriton S6620G - i5",Desktop,Acer,"i5 - Gen 3",,,,,,,,,active,Model,
"Acer  Veriton S6620G - i7",Desktop,Acer,"i7 - Gen 3",,,,,,,,,active,Model,
"Acer  Veriton S6630G - i5",Desktop,Acer,"i5 - Gen 4",,,,,,,,,active,Model,
"Acer  Veriton S670G",Desktop,Acer,Core2Duo,,,,,,,,,active,Model,
"Acer  Veriton S680G - i3",Desktop,Acer,"i3 - Gen 1",,,,,,,,,active,Model,
"Acer  Veriton S680G - i5",Desktop,Acer,"i5 - Gen 1",,,,,,,,,active,Model,
"Acer  Veriton X4610G - i5",Desktop,Acer,"i5 - Gen 2",,,,,,,,,active,Model,
"Acer  Veriton X4620G - i5",Desktop,Acer,"i5 - Gen 3",,,,,,,,,active,Model,
"Acer  Veriton X4630G - i5",Desktop,Acer,"i5 - Gen 4",,,,,,,,,active,Model,
"Acer  Veriton X480G",Desktop,Acer,Core2Duo,,,,,,,,,active,Model,
"Acer  Veriton X490G - i3",Desktop,Acer,"i3 - Gen 1",,,,,,,,,active,Model,
"Acer  Veriton X490G - i5",Desktop,Acer,"i5 - Gen 1",,,,,,,,,active,Model,
"Acer  Veriton X6630G - i5",Desktop,Acer,"i5 - Gen 4",,,,,,,,,active,Model,
"Asus  X452L - i5",Notebook,Asus,"i5 - Gen 4","14""",,,,,,,,active,Model,
"Dell  Inspiron 1464 - i5",Notebook,Dell,"i5 - Gen 4","14""",,,,,,,,active,Model,
"Dell  Inspiron 6400",Notebook,Dell,CoreDuo,"15""",,,,,,,,active,Model,
"Dell  Inspiron 660S - i5",Desktop,Dell,"i5 - Gen 3",,,,,,,,,active,Model,
"Dell  Latitude D420",Notebook,Dell,CoreDuo,"12.5""",,,,,,,,active,Model,
"Dell  Latitude D430",Notebook,Dell,Core2Duo,"12.5""",,,,,,,,active,Model,
"Dell  Latitude D620",Notebook,Dell,Core2Duo,"14""",,,,,,,,active,Model,
"Dell  Latitude D630",Notebook,Dell,Core2Duo,"14""",,,,,,,,active,Model,
"Dell  Latitude D830",Notebook,Dell,Core2Duo,"15""",,,,,,,,active,Model,
"Dell  Latitude E4200",Notebook,Dell,Core2Duo,"12.5""",,,,,,,,active,Model,
"Dell  Latitude E4300",Notebook,Dell,Core2Duo,"13.3""",,,,,,,,active,Model,
"Dell  Latitude E4310 - i5",Notebook,Dell,"i5 - Gen 1","13.3""",,,,,,,,active,Model,
"Dell  Latitude E5410 - i5",Notebook,Dell,"i5 - Gen 1","14""",,,,,,,,active,Model,
"Dell  Latitude E5420 - i5",Notebook,Dell,"i5 - Gen 2","14""",,,,,,,,active,Model,
"Dell  Latitude E5420 - i7",Notebook,Dell,"i7 - Gen 2","14""",,,,,,,,active,Model,
"Dell  Latitude E5430 - i5",Notebook,Dell,"i5 - Gen 3","14""",,,,,,,,active,Model,
"Dell  Latitude E5440 - i5",Notebook,Dell,"i5 - Gen 4","14""",,,,,,,,active,Model,
"Dell  Latitude E5470 - i5",Notebook,Dell,"i5 - Gen 6","14""",,,,,,,,active,Model,
"Dell  Latitude E6230 - i5",Notebook,Dell,"i5 - Gen 3","12.5""",,,,,,,,active,Model,
"Dell  Latitude E6400",Notebook,Dell,Core2Duo,"14""",,,,,,,,active,Model,
"Dell  Latitude E6410 - i5",Notebook,Dell,"i5 - Gen 1","14""",,,,,,,,active,Model,
"Dell  Latitude E6430 - i5",Notebook,Dell,"i5 - Gen 3","14""",,,,,,,,active,Model,
"Dell  Latitude E6500",Notebook,Dell,Core2Duo,"15""",,,,,,,,active,Model,
"Dell  Latitude E6530 - i5",Notebook,Dell,"i5 - Gen 3","15""",,,,,,,,active,Model,
"Dell  Latitude E7240 - i5",Notebook,Dell,"i5 - Gen 4","12.5""",,,,,,,,active,Model,
"Dell  OptiPlex 3010 - i3",Desktop,Dell,"i3 - Gen 3",,,,,,,,,active,Model,
"Dell  OptiPlex 3010 - i5",Desktop,Dell,"i5 - Gen 3",,,,,,,,,active,Model,
"Dell  OptiPlex 3020 - i3",Desktop,Dell,"i3 - Gen 4",,,,,,,,,active,Model,
"Dell  Optiplex 320 - Core2Duo",Desktop,HP,Core2Duo,,,,,,,,,active,Model,
"Dell  OptiPlex 390 - i3",Desktop,Dell,"i3 - Gen 2",,,,,,,,,active,Model,
"Dell  OptiPlex 390 - i5",Desktop,Dell,"i5 - Gen 2",,,,,,,,,active,Model,
"Dell  OptiPlex 390 - i7",Desktop,Dell,"i7 - Gen 2",,,,,,,,,active,Model,
"Dell  OptiPlex 7010 - i5",Desktop,Dell,"i5 - Gen 3",,,,,,,,,active,Model,
"Dell  Optiplex 745",Desktop,Dell,Core2Duo,,,,,,,,,active,Model,
"Dell  Optiplex 755 - Core2Duo",Desktop,Dell,Core2Duo,,,,,,,,,active,Model,
"Dell  Optiplex 760 - Core2Duo",Desktop,Dell,Core2Duo,,,,,,,,,active,Model,
"Dell  Optiplex 780 - Core2Duo",Desktop,Dell,Core2Duo,,,,,,,,,active,Model,
"Dell  OptiPlex 790 - i3",Desktop,Dell,"i3 - Gen 2",,,,,,,,,active,Model,
"Dell  Optiplex 9010 - i5",Desktop,Dell,"i5 - Gen 3",,,,,,,,,active,Model,
"Dell  Optiplex 960 - Core2Duo",Desktop,Dell,Core2Duo,,,,,,,,,active,Model,
"Dell  Optiplex 960 - Core2Quad",Desktop,Dell,Core2Quad,,,,,,,,,active,Model,
"Dell  Optiplex 990 - i3",Desktop,Dell,"i3 - Gen 2",,,,,,,,,active,Model,
"Dell  Optiplex 990 - i5",Desktop,Dell,"i5 - Gen 2",,,,,,,,,active,Model,
"Dell  Optiplex 990 - i7",Desktop,Dell,"i7 - Gen 2",,,,,,,,,active,Model,
"Dell  Precision M4700 - i7",Notebook,Dell,"i7 - Gen 3","15""",,,,,,,,active,Model,
"Dell  Precision M4800 - i7",Notebook,Dell,"i7 - Gen 4","15""",,,,,,,,active,Model,
"Dell  Precision T1500 - i7",Workstation,Dell,"i7 - Gen 1",,,,,,,,,active,Model,
"Dell  Precision T1650 - i7",Desktop,Dell,"i7 - Gen 3",,,,,,,,,active,Model,
"Dell  XPS L321X - i5",Notebook,Dell,"i5 - Gen 2","13.3""",,,,,,,,active,Model,
"Dell  XPS L322X - i5",Notebook,Dell,"i5 - Gen 3","13.3""",,,,,,,,active,Model,
"Dell  XPS L322X - i7",Notebook,Dell,"i7 - Gen 3","13.3""",,,,,,,,active,Model,
"Fujitsu  LifeBook S6420",Notebook,Fujitsu,Core2Duo,"13.3""",,,,,,,,active,Model,
"Fujitsu  LifeBook S7110",Notebook,Fujitsu,Core2Duo,"14""",,,,,,,,active,Model,
"Fujitsu  Lifebook S7111",Notebook,Fujitsu,Core2Duo,"14""",,,,,,,,active,Model,
"Fujitsu  Lifebook SH560 - i3",Notebook,Fujitsu,"i3 - Gen 1","13.3""",,,,,,,,active,Model,
"Fujitsu  LifeBook SH772 - i7",Notebook,Fujitsu,"i7 - Gen 3","13.3""",,,,,,,,active,Model,
"HP  3130 Pro - i3",Desktop,HP,"i3 - Gen 1",,,,,,,,,active,Model,
"HP  3300 Pro - i3",Desktop,HP,"i3 - Gen 2",,,,,,,,,active,Model,
"HP  6005 Pro",Desktop,HP,"AMD Athlon II",,,,,,,,,active,Model,
"HP  6710b",Notebook,HP,Core2Duo,"15""",,,,,,,,active,Model,
"HP  6730b",Notebook,HP,Core2Duo,"15""",,,,,,,,active,Model,
"HP  6910p",Notebook,HP,Core2Duo,"14""",,,,,,,,active,Model,
"HP  Compaq 2210b",Notebook,HP,Core2Duo,"12.5""",,,,,,,,active,Model,
"HP  Compaq 2230s",Notebook,HP,Core2Duo,"12.5""",,,,,,,,active,Model,
"HP  Compaq 2510p",Notebook,HP,Core2Duo,"12.5""",,,,,,,,active,Model,
"HP  Compaq 510",Notebook,HP,Core2Duo,"14""",,,,,,,,active,Model,
"HP  Compaq 6000 Pro - Core2Duo",Desktop,HP,Core2Duo,,,,,,,,,active,Model,
"HP  Compaq 6000 Pro - Core2Quad",Desktop,HP,Core2Quad,,,,,,,,,active,Model,
"HP  Compaq 6200 Pro - i3",Desktop,HP,"i3 - Gen 2",,,,,,,,,active,Model,
"HP  Compaq 6200 Pro - i5",Desktop,HP,"i5 - Gen 2",,,,,,,,,active,Model,
"HP  Compaq 6200 Pro - i7",Desktop,HP,"i7 - Gen 2",,,,,,,,,active,Model,
"HP  Compaq 6300 Pro - i3",Desktop,HP,"i3 - Gen 3",,,,,,,,,active,Model,
"HP  Compaq 6300 Pro - i5",Desktop,HP,"i5 - Gen 3",,,,,,,,,active,Model,
"HP  Compaq 6300 Pro - i7",Desktop,HP,"i7 - Gen 3",,,,,,,,,active,Model,
"HP  Compaq 6305 Pro",Desktop,HP,A10,,,,,,,,,active,Model,
"HP  Compaq 6510b",Notebook,HP,Core2Duo,"14""",,,,,,,,active,Model,
"HP  Compaq 6530b",Notebook,HP,Core2Duo,"14""",,,,,,,,active,Model,
"HP  Compaq 6730b",Notebook,HP,Core2Duo,"15""",,,,,,,,active,Model,
"HP  Compaq 6910p",Notebook,HP,Core2Duo,"14""",,,,,,,,active,Model,
"HP  Compaq 8000 Elite - Core2Duo",Desktop,HP,Core2Duo,,,,,,,,,active,Model,
"HP  Compaq 8000 Elite - Core2Quad",Desktop,HP,Core2Quad,,,,,,,,,active,Model,
"HP  Compaq 8100 Elite - i5",Desktop,HP,"i5 - Gen 1",,,,,,,,,active,Model,
"HP  Compaq 8100 Elite - i7",Desktop,HP,"i7 - Gen 1",,,,,,,,,active,Model,
"HP  Compaq 8200 Elite - i3",Desktop,HP,"i3 - Gen 2",,,,,,,,,active,Model,
"HP  Compaq 8200 Elite - i5",Desktop,HP,"i5 - Gen 2",,,,,,,,,active,Model,
"HP  Compaq 8200 Elite - i7",Desktop,HP,"i7 - Gen 2",,,,,,,,,active,Model,
"HP  Compaq 8300 Elite - i5",Desktop,HP,"i5 - Gen 3",,,,,,,,,active,Model,
"HP  Compaq 8300 Elite - i7",Desktop,HP,"i7 - Gen 3",,,,,,,,,active,Model,
"HP  Compaq 8510p",Notebook,HP,Core2Duo,"15""",,,,,,,,active,Model,
"HP  Compaq DC5700",Desktop,HP,Core2Duo,,,,,,,,,active,Model,
"HP  Compaq dc5800 - Core2Duo",Desktop,HP,Core2Duo,,,,,,,,,active,Model,
"HP  Compaq dc5800 - Core2Quad",Desktop,HP,Core2Quad,,,,,,,,,active,Model,
"HP  Compaq dc7700 - Core2Duo",Desktop,HP,Core2Duo,,,,,,,,,active,Model,
"HP  Compaq dc7700 - CoreDuo",Desktop,HP,CoreDuo,,,,,,,,,active,Model,
"HP  Compaq dc7800 - Core2Duo",Desktop,HP,Core2Duo,,,,,,,,,active,Model,
"HP  Compaq dc7800 - Core2Quad",Desktop,HP,Core2Quad,,,,,,,,,active,Model,
"HP  Compaq dc7900 - Core2Duo",Desktop,HP,Core2Duo,,,,,,,,,active,Model,
"HP  Compaq dx2810 - Core2Duo",Desktop,HP,Core2Duo,,,,,,,,,active,Model,
"HP  Compaq dx7300 - Core2Duo",Desktop,HP,Core2Duo,,,,,,,,,active,Model,
"HP  Compaq dx7400 - Core2Duo",Desktop,HP,Core2Duo,,,,,,,,,active,Model,
"HP  Compaq nc6400 - Core2Duo",Notebook,HP,Core2Duo,"14""",,,,,,,,active,Model,
"HP  Compaq nc6400 - CoreDuo",Notebook,HP,CoreDuo,"14""",,,,,,,,active,Model,
"HP  Compaq nc8430",Notebook,HP,Core2Duo,"15""",,,,,,,,active,Model,
"HP  Compaq NX6320",Notebook,HP,Core2Duo,"15""",,,,,,,,active,Model,
"HP  EliteBook 2170p - i5",Notebook,HP,"i5 - Gen 3","11.5""",,,,,,,,active,Model,
"HP  EliteBook 2170p - i7",Notebook,HP,"i7 - Gen 3","11.5""",,,,,,,,active,Model,
"HP  EliteBook 2530p",Notebook,HP,Core2Duo,"12.5""",,,,,,,,active,Model,
"HP  EliteBook 2540p - i5",Notebook,HP,"i5 - Gen 1","12.5""",,,,,,,,active,Model,
"HP  EliteBook 2540p - i7",Notebook,HP,"i7 - Gen 1","12.5""",,,,,,,,active,Model,
"HP  EliteBook 2560p - i5",Notebook,HP,"i5 - Gen 2","12.5""",,,,,,,,active,Model,
"HP  EliteBook 2560p - i7",Notebook,HP,"i7 - Gen 2","12.5""",,,,,,,,active,Model,
"HP  EliteBook 2570p - i5",Notebook,HP,"i5 - Gen 3","12.5""",,,,,,,,active,Model,
"HP  EliteBook 2570p - i7",Notebook,HP,"i7 - Gen 3","12.5""",,,,,,,,active,Model,
"HP  EliteBook 2730p",Notebook,HP,Core2Duo,"12.5""",,,,,,,,active,Model,
"HP  EliteBook 2740p - i5",Notebook,HP,"i5 - Gen 1","12.5""",,,,,,,,active,Model,
"HP  EliteBook 2760p - i5",Notebook,HP,"i5 - Gen 2","12.5""",,,,,,,,active,Model,
"HP  EliteBook 6930p",Notebook,HP,Core2Duo,"14""",,,,,,,,active,Model,
"HP  EliteBook 820 G1 - i5",Notebook,HP,"i5 - Gen 4","12.5""",,,,,,,,active,Model,
"HP  EliteBook 820 G2 - i5",Notebook,HP,"i5 - Gen 5","12.5""",,,,,,,,active,Model,
"HP  EliteBook 820 G3 - i5",Notebook,HP,"i5 - Gen 6","12.5""",,,,,,,,active,Model,
"HP  EliteBook 8440p - i5",Notebook,HP,"i5 - Gen 1","14""",,,,,,,,active,Model,
"HP  EliteBook 8440p - i7",Notebook,HP,"i7 - Gen 1","14""",,,,,,,,active,Model,
"HP  EliteBook 8460p - i5",Notebook,HP,"i5 - Gen 2","14""",,,,,,,,active,Model,
"HP  EliteBook 8460p - i7",Notebook,HP,"i7 - Gen 2","14""",,,,,,,,active,Model,
"HP  EliteBook 8470p - i5",Notebook,HP,"i5 - Gen 3","14""",,,,,,,,active,Model,
"HP  EliteBook 8470p - i7",Notebook,HP,"i7 - Gen 3","14""",,,,,,,,active,Model,
"HP  EliteBook 8530p",Notebook,HP,Core2Duo,"15""",,,,,,,,active,Model,
"HP  EliteBook 8540P - i5",Notebook,HP,"i5 - Gen 1","15""",,,,,,,,active,Model,
"HP  EliteBook 8540P - i7",Notebook,HP,"i7 - Gen 1","15""",,,,,,,,active,Model,
"HP  EliteBook 8560w - i7",Notebook,HP,"i7 - Gen 2","15""",,,,,,,,active,Model,
"HP  EliteBook 8570w - i7",Notebook,HP,"i7 - Gen 3","15""",,,,,,,,active,Model,
"HP  EliteBook Folio 9470m - i5",Notebook,HP,"i5 - Gen 3","14""",,,,,,,,active,Model,
"HP  EliteBook Folio 9480m - i5",Notebook,HP,"i5 - Gen 4","14""",,,,,,,,active,Model,
"HP  EliteDesk 800 G1 - i5",Desktop,HP,"i5 - Gen 4",,,,,,,,,active,Model,
"HP  Folio 13-2000 - i5",Notebook,HP,"i5 - Gen 2","13.3""",,,,,,,,active,Model,
"HP  NC2400",Notebook,HP,CoreDuo,"12.5""",,,,,,,,active,Model,
"HP  Pavilion DV2000",Notebook,HP,Core2Duo,"14""",,,,,,,,active,Model,
"HP  Presario CQ45",Notebook,HP,Core2Duo,"14""",,,,,,,,active,Model,
"HP  Pro 3000 MCT",Desktop,HP,Core2Duo,,,,,,,,,active,Model,
"HP  Pro 3130 MCT - i3",Desktop,HP,"i3 - Gen 1",,,,,,,,,active,Model,
"HP  ProBook 4321s - i3",Notebook,HP,"i3 - Gen 1","13.3""",,,,,,,,active,Model,
"HP  ProBook 4321s - i5",Notebook,HP,"i5 - Gen 1","13.3""",,,,,,,,active,Model,
"HP  ProBook 4330s - i3",Notebook,HP,"i3 - Gen 2","13.3""",,,,,,,,active,Model,
"HP  ProBook 4331s - i5",Notebook,HP,"i5 - Gen 2","13.3""",,,,,,,,active,Model,
"HP  ProBook 440 G0 - i5",Notebook,HP,"i5 - Gen 3","14""",,,,,,,,active,Model,
"HP  ProBook 4420s - i3",Notebook,HP,"i3 - Gen 1","14""",,,,,,,,active,Model,
"HP  ProBook 4430s - i5",Notebook,HP,"i5 - Gen 2","14""",,,,,,,,active,Model,
"HP  ProBook 4441s - i5",Notebook,HP,"i5 - Gen 3","14""",,,,,,,,active,Model,
"HP  ProBook 4520s - i3",Notebook,HP,"i3 - Gen 1","15""",,,,,,,,active,Model,
"HP  ProBook 4720s - i3",Notebook,HP,"i3 - Gen 1","17""",,,,,,,,active,Model,
"HP  ProBook 5310m",Notebook,HP,Core2Duo,"13.3""",,,,,,,,active,Model,
"HP  ProBook 640 G1 - i5",Notebook,HP,"i5 - Gen 4","14""",,,,,,,,active,Model,
"HP  ProBook 6440b - i5",Notebook,HP,"i5 - Gen 1","14""",,,,,,,,active,Model,
"HP  ProBook 6450b - i5",Notebook,HP,"i5 - Gen 1","14""",,,,,,,,active,Model,
"HP  ProBook 6450b - i7",Notebook,HP,"i7 - Gen 1","14""",,,,,,,,active,Model,
"HP  ProBook 6460b - i5",Notebook,HP,"i5 - Gen 2","14""",,,,,,,,active,Model,
"HP  ProBook 6470b - i5",Notebook,HP,"i5 - Gen 3","14""",,,,,,,,active,Model,
"HP  ProBook 650 G1 - i5",Notebook,HP,"i5 - Gen 4","15""",,,,,,,,active,Model,
"HP  ProBook 6540b - i7",Notebook,HP,"i7 - Gen 1","15""",,,,,,,,active,Model,
"HP  Probook 6550b - i3",Notebook,HP,"i3 - Gen 1","15""",,,,,,,,active,Model,
"HP  Probook 6550b - i5",Notebook,HP,"i5 - Gen 1","15""",,,,,,,,active,Model,
"HP  Probook 6550b - i7",Notebook,HP,"i7 - Gen 1","15""",,,,,,,,active,Model,
"HP  ProBook 6560b - i5",Notebook,HP,"i5 - Gen 2","15""",,,,,,,,active,Model,
"HP  ProBook 6560b - i7",Notebook,HP,"i7 - Gen 2","15""",,,,,,,,active,Model,
"HP  ProBook 6570b - i5",Notebook,HP,"i5 - Gen 3","15""",,,,,,,,active,Model,
"HP  ProDesk 600 G1 - i3",Desktop,HP,"i3 - Gen 4",,,,,,,,,active,Model,
"HP  ProDesk 600 G1 - i5",Desktop,HP,"i5 - Gen 4",,,,,,,,,active,Model,
"HP  Spectre XT Pro 13 - i5",Notebook,HP,"i5 - Gen 3","13.3""",,,,,,,,active,Model,
"HP  ZBook 14 - i7",Notebook,HP,"i7 - Gen 4","14""",,,,,,,,active,Model,
"HP  ZBook 15 - i5",Notebook,HP,"i5 - Gen 4","15""",,,,,,,,active,Model,
"HP  ZBook 15 - i7",Notebook,HP,"i7 - Gen 4","15""",,,,,,,,active,Model,
"Lenovo 3000 V100",Notebook,Lenovo,CoreDuo,"12.5""",,,,,,,,active,Model,
"Lenovo 3000 V200",Notebook,Lenovo,Core2Duo,"12.5""",,,,,,,,active,Model,
"Lenovo IdeaPad S410p - i7",Notebook,Lenovo,"i7 - Gen 4","14""",,,,,,,,active,Model,
"Lenovo Lenovo B40-70 - i5",Notebook,Lenovo,"i5 - Gen 4","14""",,,,,,,,active,Model,
"Lenovo Lenovo G470 - i5",Notebook,Lenovo,"i5 - Gen 2","14""",,,,,,,,active,Model,
"Lenovo ThinkCentre A70 - Core2Duo",Desktop,Lenovo,Core2Duo,,,,,,,,,active,Model,
"Lenovo ThinkCentre A85 - i3",Desktop,Lenovo,"i3 - Gen 1",,,,,,,,,active,Model,
"Lenovo ThinkCentre Edge 71 - i3",Desktop,Lenovo,"i3 - Gen 2",,,,,,,,,active,Model,
"Lenovo ThinkCentre M58 - Core2Duo",Desktop,Lenovo,Core2Duo,,,,,,,,,active,Model,
"Lenovo ThinkCentre M58 - Core2Quad",Desktop,Lenovo,Core2Quad,,,,,,,,,active,Model,
"Lenovo ThinkCentre M72 - i5",Desktop,Lenovo,"i5 - Gen 3",,,,,,,,,active,Model,
"Lenovo ThinkCentre M80 - i3",Desktop,Lenovo,"i3 - Gen 1",,,,,,,,,active,Model,
"Lenovo ThinkCentre M81 - i3",Desktop,Lenovo,"i3 - Gen 2",,,,,,,,,active,Model,
"Lenovo ThinkCentre M82 - i3",Desktop,Lenovo,"i3 - Gen 3",,,,,,,,,active,Model,
"Lenovo ThinkCentre M83 - i5",Desktop,Lenovo,"i5 - Gen 4",,,,,,,,,active,Model,
"Lenovo ThinkCentre M90p - i5",Desktop,Lenovo,"i5 - Gen 1",,,,,,,,,active,Model,
"Lenovo ThinkCentre M90p - i7",Desktop,Lenovo,"i7 - Gen 1",,,,,,,,,active,Model,
"Lenovo ThinkCentre M91p - i5",Desktop,Lenovo,"i5 - Gen 2",,,,,,,,,active,Model,
"Lenovo ThinkCentre M92p - i5",Desktop,Lenovo,"i5 - Gen 3",,,,,,,,,active,Model,
"Lenovo ThinkCentre M92p - i7",Desktop,Lenovo,"i7 - Gen 3",,,,,,,,,active,Model,
"Lenovo ThinkPad L412 - i5",Notebook,Lenovo,"i5 - Gen 1","14""",,,,,,,,active,Model,
"Lenovo ThinkPad L420 - i5",Notebook,Lenovo,"i5 - Gen 2","14""",,,,,,,,active,Model,
"Lenovo ThinkPad R400",Notebook,Lenovo,Core2Duo,"14""",,,,,,,,active,Model,
"Lenovo ThinkPad R60 - Core2Duo",Notebook,Lenovo,Core2Duo,"15""",,,,,,,,active,Model,
"Lenovo ThinkPad R60 - CoreDuo",Notebook,Lenovo,CoreDuo,"15""",,,,,,,,active,Model,
"Lenovo ThinkPad SL500",Notebook,Lenovo,Core2Duo,"15""",,,,,,,,active,Model,
"Lenovo ThinkPad SL510",Notebook,Lenovo,Core2Duo,"15""",,,,,,,,active,Model,
"Lenovo ThinkPad T410 - i5",Notebook,Lenovo,"i5 - Gen 1","14""",,,,,,,,active,Model,
"Lenovo ThinkPad T420 - i5",Notebook,Lenovo,"i5 - Gen 2","14""",,,,,,,,active,Model,
"Lenovo ThinkPad T440 - i5",Notebook,Lenovo,"i5 - Gen 4","14""",,,,200.00,,,,active,Model,
"Lenovo ThinkPad T500",Notebook,Lenovo,Core2Duo,"15""",,,,,,,,active,Model,
"Lenovo ThinkPad T60 - Core2Duo",Notebook,Lenovo,Core2Duo,"14""",,,,,,,,active,Model,
"Lenovo ThinkPad T60 - Core Duo",Notebook,Lenovo,CoreDuo,"14""",,,,,,,,active,Model,
"Lenovo ThinkPad T61",Notebook,Lenovo,Core2Duo,"14""",,,,,,,,active,Model,
"Lenovo ThinkPad X200",Notebook,Lenovo,Core2Duo,"12.5""",,,,,,,,active,Model,
"Lenovo ThinkPad X201i - i3",Notebook,Lenovo,"i3 - Gen 1","12.5""",,,,,,,,active,Model,
"Lenovo ThinkPad X201i - i5",Notebook,Lenovo,"i5 - Gen 4","12.5""",,,,,,,,active,Model,
"Lenovo ThinkPad X220 - i5",Notebook,Lenovo,"i5 - Gen 2","12.5""",,,,,,,,active,Model,
"Lenovo ThinkPad X220 - i7",Notebook,Lenovo,"i7 - Gen 2","12.5""",,,,,,,,active,Model,
"Lenovo ThinkPad X230 - i3",Notebook,Lenovo,"i3 - Gen 2","12.5""",,,,,,,,active,Model,
"Lenovo ThinkPad X230 - i5",Notebook,Lenovo,"i5 - Gen 3","12.5""",,,,,,,,active,Model,
"Lenovo ThinkPad X60 - Core2Duo",Notebook,Lenovo,Core2Duo,"12.5""",,,,,,,,active,Model,
"Lenovo ThinkPad X60 - CoreDuo",Notebook,Lenovo,CoreDuo,"12.5""",,,,,,,,active,Model,
"Lenovo ThinkPad x61",Notebook,Lenovo,Core2Duo,"12.5""",,,,,,,,active,Model,
"Samsung  530U - i5",Notebook,Samsung,"i5 - Gen 3","13.3""",,,,,,,,active,Model,
"Samsung  NP530U3C - i5",Notebook,Samsung,"i5 - Gen 3","13.3""",,,,,,,,active,Model,
"Samsung R40",Notebook,Samsung,CoreDuo,"15""",,,,,,,,active,Model,
"Acer  Aspire e5-571 - i5",Notebook,Acer,i5,"15""",,,,,,,"HPI Trade-in - APJ",active,Model,
"Acer  Aspire M5100",Desktop,Acer,Other,,,,,,,,"HPI Trade-in - APJ",active,Model,
"HP  Compaq 8100 Elite - i3",Desktop,HP,i3,,,,,,,,"HPI Trade-in - APJ",active,Model,
"Dell  Latitude E6320 - i5",Notebook,Dell,i5,"13.3""",,,,,,,"HPI Trade-in - APJ",active,Model,
"Dell  Latitude E6320 - i7",Notebook,Dell,i7,"13.3""",,,,,,,"HPI Trade-in - APJ",active,Model,
"Dell  Latitude E6420 - i5",Notebook,Dell,i5,"14""",,,,,,,"HPI Trade-in - APJ",active,Model,
"Lenovo ThinkCentre M57 - Core2Duo",Desktop,Lenovo,"Core 2",,,,,,,,"HPI Trade-in - APJ",active,Model,
"Lenovo ThinkCentre M57 - Core2Quad",Desktop,Lenovo,"Core 2",,,,,,,,"HPI Trade-in - APJ",active,Model,
"Acer  TravelMate 3270",Notebook,Acer,"Core 2","14""",,,,,,,"HPI Trade-in - APJ",active,Model,
"Acer  TravelMate 3280",Notebook,Acer,"Core 2","14""",,,,,,,"HPI Trade-in - APJ",active,Model,
"Acer  TravelMate 4720",Notebook,Acer,"Core 2","14""",,,,,,,"HPI Trade-in - APJ",active,Model,
"Acer  TravelMate 4750 - i5",Notebook,Acer,i5,"14""",,,,,,,"HPI Trade-in - APJ",active,Model,
"Acer  TravelMate 6292",Notebook,Acer,"Core 2","12.5""",,,,,,,"HPI Trade-in - APJ",active,Model,
"Acer  TravelMate 6495 - i5",Notebook,Acer,i5,"14""",,,,,,,"HPI Trade-in - APJ",active,Model,
"Acer  TravelMate 6592",Notebook,Acer,"Core 2","15""",,,,,,,"HPI Trade-in - APJ",active,Model,
"Acer  TravelMate 6595 - i5",Notebook,Acer,i5,"15""",,,,,,,"HPI Trade-in - APJ",active,Model,
"Acer  TravelMate 8481 - i5",Notebook,Acer,i5,"14""",,,,,,,"HPI Trade-in - APJ",active,Model,
"Acer  TravelMate P243 - i5",Notebook,Acer,i5,"14""",,,,,,,"HPI Trade-in - APJ",active,Model,
"Acer  TravelMate P645 - i5",Notebook,Acer,i5,"14""",,,,,,,"HPI Trade-in - APJ",active,Model,
"Acer  Veriton 1000",Desktop,Acer,"Core 2",,,,,,,,"HPI Trade-in - APJ",active,Model,
"Acer  Veriton 3900Pro",Desktop,Acer,"Core 2",,,,,,,,"HPI Trade-in - APJ",active,Model,
"Acer  Veriton 661 - C2D",Desktop,Acer,"Core 2",,,,,,,,"HPI Trade-in - APJ",active,Model,
"Acer  Veriton 661 - i5",Desktop,Acer,i5,,,,,,,,"HPI Trade-in - APJ",active,Model,
"Acer  Veriton 661 - i7",Desktop,Acer,i7,,,,,,,,"HPI Trade-in - APJ",active,Model,
"Acer  Veriton L4610G - i5",Desktop,Acer,i5,,,,,,,,"HPI Trade-in - APJ",active,Model,
"Acer  Veriton S6620G - i5",Desktop,Acer,i5,,,,,,,,"HPI Trade-in - APJ",active,Model,
"Acer  Veriton S6620G - i7",Desktop,Acer,i7,,,,,,,,"HPI Trade-in - APJ",active,Model,
"Acer  Veriton S6630G - i5",Desktop,Acer,i5,,,,,,,,"HPI Trade-in - APJ",active,Model,
"Acer  Veriton S670G",Desktop,Acer,"Core 2",,,,,,,,"HPI Trade-in - APJ",active,Model,
"Acer  Veriton S680G - i3",Desktop,Acer,i3,,,,,,,,"HPI Trade-in - APJ",active,Model,
"Acer  Veriton S680G - i5",Desktop,Acer,i5,,,,,,,,"HPI Trade-in - APJ",active,Model,
"Acer  Veriton X4610G - i5",Desktop,Acer,i5,,,,,,,,"HPI Trade-in - APJ",active,Model,
"Acer  Veriton X4620G - i5",Desktop,Acer,i5,,,,,,,,"HPI Trade-in - APJ",active,Model,
"Acer  Veriton X4630G - i5",Desktop,Acer,i5,,,,,,,,"HPI Trade-in - APJ",active,Model,
"Acer  Veriton X480G",Desktop,Acer,"Core 2",,,,,,,,"HPI Trade-in - APJ",active,Model,
"Acer  Veriton X490G - i3",Desktop,Acer,i3,,,,,,,,"HPI Trade-in - APJ",active,Model,
"Acer  Veriton X490G - i5",Desktop,Acer,i5,,,,,,,,"HPI Trade-in - APJ",active,Model,
"Acer  Veriton X6630G - i5",Desktop,Acer,i5,,,,,,,,"HPI Trade-in - APJ",active,Model,
"Asus  X452L - i5",Notebook,Asus,i5,"14""",,,,,,,"HPI Trade-in - APJ",active,Model,
"Dell  Inspiron 1464 - i5",Notebook,Dell,i5,"14""",,,,,,,"HPI Trade-in - APJ",active,Model,
"Dell  Inspiron 6400",Notebook,Dell,"Core 2","15""",,,,,,,"HPI Trade-in - APJ",active,Model,
"Dell  Inspiron 660S - i5",Desktop,Dell,i5,,,,,,,,"HPI Trade-in - APJ",active,Model,
"Dell  Latitude D420",Notebook,Dell,"Core 2","12.5""",,,,,,,"HPI Trade-in - APJ",active,Model,
"Dell  Latitude D430",Notebook,Dell,"Core 2","12.5""",,,,,,,"HPI Trade-in - APJ",active,Model,
"Dell  Latitude D620",Notebook,Dell,"Core 2","14""",,,,,,,"HPI Trade-in - APJ",active,Model,
"Dell  Latitude D630",Notebook,Dell,"Core 2","14""",,,,,,,"HPI Trade-in - APJ",active,Model,
"Dell  Latitude D830",Notebook,Dell,"Core 2","15""",,,,,,,"HPI Trade-in - APJ",active,Model,
"Dell  Latitude E4200",Notebook,Dell,"Core 2","12.5""",,,,,,,"HPI Trade-in - APJ",active,Model,
"Dell  Latitude E4300",Notebook,Dell,"Core 2","13.3""",,,,,,,"HPI Trade-in - APJ",active,Model,
"Dell  Latitude E4310 - i5",Notebook,Dell,i5,"13.3""",,,,,,,"HPI Trade-in - APJ",active,Model,
"Dell  Latitude E5410 - i5",Notebook,Dell,i5,"14""",,,,,,,"HPI Trade-in - APJ",active,Model,
"Dell  Latitude E5420 - i5",Notebook,Dell,i5,"14""",,,,,,,"HPI Trade-in - APJ",active,Model,
"Dell  Latitude E5420 - i7",Notebook,Dell,i7,"14""",,,,,,,"HPI Trade-in - APJ",active,Model,
"Dell  Latitude E5430 - i5",Notebook,Dell,i5,"14""",,,,,,,"HPI Trade-in - APJ",active,Model,
"Dell  Latitude E5440 - i5",Notebook,Dell,i5,"14""",,,,,,,"HPI Trade-in - APJ",active,Model,
"Dell  Latitude E5470 - i5",Notebook,Dell,i5,"14""",,,,,,,"HPI Trade-in - APJ",active,Model,
"Dell  Latitude E6230 - i5",Notebook,Dell,i5,"12.5""",,,,,,,"HPI Trade-in - APJ",active,Model,
"Dell  Latitude E6400",Notebook,Dell,"Core 2","14""",,,,,,,"HPI Trade-in - APJ",active,Model,
"Dell  Latitude E6410 - i5",Notebook,Dell,i5,"14""",,,,,,,"HPI Trade-in - APJ",active,Model,
"Dell  Latitude E6430 - i5",Notebook,Dell,i5,"14""",,,,,,,"HPI Trade-in - APJ",active,Model,
"Dell  Latitude E6500",Notebook,Dell,"Core 2","15""",,,,,,,"HPI Trade-in - APJ",active,Model,
"Dell  Latitude E6530 - i5",Notebook,Dell,i5,"15""",,,,,,,"HPI Trade-in - APJ",active,Model,
"Dell  Latitude E7240 - i5",Notebook,Dell,i5,"12.5""",,,,,,,"HPI Trade-in - APJ",active,Model,
"Dell  OptiPlex 3010 - i3",Desktop,Dell,i3,,,,,,,,"HPI Trade-in - APJ",active,Model,
"Dell  OptiPlex 3010 - i5",Desktop,Dell,i5,,,,,,,,"HPI Trade-in - APJ",active,Model,
"Dell  OptiPlex 3020 - i3",Desktop,Dell,i3,,,,,,,,"HPI Trade-in - APJ",active,Model,
"Dell  Optiplex 320 - Core2Duo",Desktop,HP,"Core 2",,,,,,,,"HPI Trade-in - APJ",active,Model,
"Dell  OptiPlex 390 - i3",Desktop,Dell,i3,,,,,,,,"HPI Trade-in - APJ",active,Model,
"Dell  OptiPlex 390 - i5",Desktop,Dell,i5,,,,,,,,"HPI Trade-in - APJ",active,Model,
"Dell  OptiPlex 390 - i7",Desktop,Dell,i7,,,,,,,,"HPI Trade-in - APJ",active,Model,
"Dell  OptiPlex 5040 - i5",Desktop,Dell,i5,,,,,,,,"HPI Trade-in - APJ",active,Model,
"Dell  OptiPlex 7010 - i5",Desktop,Dell,i5,,,,,,,,"HPI Trade-in - APJ",active,Model,
"Dell  Optiplex 745",Desktop,Dell,"Core 2",,,,,,,,"HPI Trade-in - APJ",active,Model,
"Dell  Optiplex 755 - Core2Duo",Desktop,Dell,"Core 2",,,,,,,,"HPI Trade-in - APJ",active,Model,
"Dell  Optiplex 760 - Core2Duo",Desktop,Dell,"Core 2",,,,,,,,"HPI Trade-in - APJ",active,Model,
"Dell  Optiplex 780 - Core2Duo",Desktop,Dell,"Core 2",,,,,,,,"HPI Trade-in - APJ",active,Model,
"Dell  OptiPlex 790 - i3",Desktop,Dell,i3,,,,,,,,"HPI Trade-in - APJ",active,Model,
"Dell  Optiplex 9010 - i5",Desktop,Dell,i5,,,,,,,,"HPI Trade-in - APJ",active,Model,
"Dell  Optiplex 960 - Core2Duo",Desktop,Dell,"Core 2",,,,,,,,"HPI Trade-in - APJ",active,Model,
"Dell  Optiplex 960 - Core2Quad",Desktop,Dell,"Core 2",,,,,,,,"HPI Trade-in - APJ",active,Model,
"Dell  Optiplex 990 - i3",Desktop,Dell,i3,,,,,,,,"HPI Trade-in - APJ",active,Model,
"Dell  Optiplex 990 - i5",Desktop,Dell,i5,,,,,,,,"HPI Trade-in - APJ",active,Model,
"Dell  Optiplex 990 - i7",Desktop,Dell,i7,,,,,,,,"HPI Trade-in - APJ",active,Model,
"Dell  Precision M4700 - i7",Notebook,Dell,i7,"15""",,,,,,,"HPI Trade-in - APJ",active,Model,
"Dell  Precision M4800 - i7",Notebook,Dell,i7,"15""",,,,,,,"HPI Trade-in - APJ",active,Model,
"Dell  Precision T1650 - i7",Desktop,Dell,i7,,,,,,,,"HPI Trade-in - APJ",active,Model,
"Dell  XPS L321X - i5",Notebook,Dell,i5,"13.3""",,,,,,,"HPI Trade-in - APJ",active,Model,
"Dell  XPS L322X - i5",Notebook,Dell,i5,"13.3""",,,,,,,"HPI Trade-in - APJ",active,Model,
"Dell  XPS L322X - i7",Notebook,Dell,i7,"13.3""",,,,,,,"HPI Trade-in - APJ",active,Model,
"Fujitsu  LifeBook S6420",Notebook,Fujitsu,"Core 2","13.3""",,,,,,,"HPI Trade-in - APJ",active,Model,
"Fujitsu  LifeBook S7110",Notebook,Fujitsu,"Core 2","14""",,,,,,,"HPI Trade-in - APJ",active,Model,
"Fujitsu  Lifebook S7111",Notebook,Fujitsu,"Core 2","14""",,,,,,,"HPI Trade-in - APJ",active,Model,
"Fujitsu  Lifebook SH560 - i3",Notebook,Fujitsu,i3,"13.3""",,,,,,,"HPI Trade-in - APJ",active,Model,
"Fujitsu  LifeBook SH772 - i7",Notebook,Fujitsu,i7,"13.3""",,,,,,,"HPI Trade-in - APJ",active,Model,
"HP  3130 Pro - i3",Desktop,HP,i3,,,,,,,,"HPI Trade-in - APJ",active,Model,
"HP  3300 Pro - i3",Desktop,HP,i3,,,,,,,,"HPI Trade-in - APJ",active,Model,
"HP  6005 Pro",Desktop,HP,Other,,,,,,,,"HPI Trade-in - APJ",active,Model,
"HP  6710b",Notebook,HP,"Core 2","15""",,,,,,,"HPI Trade-in - APJ",active,Model,
"HP  6730b",Notebook,HP,"Core 2","15""",,,,,,,"HPI Trade-in - APJ",active,Model,
"HP  6910p",Notebook,HP,"Core 2","14""",,,,,,,"HPI Trade-in - APJ",active,Model,
"HP  Compaq 2210b",Notebook,HP,"Core 2","12.5""",,,,,,,"HPI Trade-in - APJ",active,Model,
"HP  Compaq 2230s",Notebook,HP,"Core 2","12.5""",,,,,,,"HPI Trade-in - APJ",active,Model,
"HP  Compaq 2510p",Notebook,HP,"Core 2","12.5""",,,,,,,"HPI Trade-in - APJ",active,Model,
"HP  Compaq 510",Notebook,HP,"Core 2","14""",,,,,,,"HPI Trade-in - APJ",active,Model,
"HP  Compaq 6000 Pro - Core2Duo",Desktop,HP,"Core 2",,,,,,,,"HPI Trade-in - APJ",active,Model,
"HP  Compaq 6000 Pro - Core2Quad",Desktop,HP,"Core 2",,,,,,,,"HPI Trade-in - APJ",active,Model,
"HP  Compaq 6200 Pro - i3",Desktop,HP,i3,,,,,,,,"HPI Trade-in - APJ",active,Model,
"HP  Compaq 6200 Pro - i5",Desktop,HP,i5,,,,,,,,"HPI Trade-in - APJ",active,Model,
"HP  Compaq 6200 Pro - i7",Desktop,HP,i7,,,,,,,,"HPI Trade-in - APJ",active,Model,
"HP  Compaq 6300 Pro - i3",Desktop,HP,i3,,,,,,,,"HPI Trade-in - APJ",active,Model,
"HP  Compaq 6300 Pro - i5",Desktop,HP,i5,,,,,,,,"HPI Trade-in - APJ",active,Model,
"HP  Compaq 6300 Pro - i7",Desktop,HP,i7,,,,,,,,"HPI Trade-in - APJ",active,Model,
"HP  Compaq 6305 Pro",Desktop,HP,"AMD A Series",,,,,,,,"HPI Trade-in - APJ",active,Model,
"HP  Compaq 6510b",Notebook,HP,"Core 2","14""",,,,,,,"HPI Trade-in - APJ",active,Model,
"HP  Compaq 6530b",Notebook,HP,"Core 2","14""",,,,,,,"HPI Trade-in - APJ",active,Model,
"HP  Compaq 6730b",Notebook,HP,"Core 2","15""",,,,,,,"HPI Trade-in - APJ",active,Model,
"HP  Compaq 6910p",Notebook,HP,"Core 2","14""",,,,,,,"HPI Trade-in - APJ",active,Model,
"HP  Compaq 8000 Elite - Core2Duo",Desktop,HP,"Core 2",,,,,,,,"HPI Trade-in - APJ",active,Model,
"HP  Compaq 8000 Elite - Core2Quad",Desktop,HP,"Core 2",,,,,,,,"HPI Trade-in - APJ",active,Model,
"HP  Compaq 8100 Elite - i5",Desktop,HP,i5,,,,,,,,"HPI Trade-in - APJ",active,Model,
"HP  Compaq 8100 Elite - i7",Desktop,HP,i7,,,,,,,,"HPI Trade-in - APJ",active,Model,
"HP  Compaq 8200 Elite - i3",Desktop,HP,i3,,,,,,,,"HPI Trade-in - APJ",active,Model,
"HP  Compaq 8200 Elite - i5",Desktop,HP,i5,,,,,,,,"HPI Trade-in - APJ",active,Model,
"HP  Compaq 8200 Elite - i7",Desktop,HP,i7,,,,,,,,"HPI Trade-in - APJ",active,Model,
"HP  Compaq 8300 Elite - i5",Desktop,HP,i5,,,,,,,,"HPI Trade-in - APJ",active,Model,
"HP  Compaq 8300 Elite - i7",Desktop,HP,i7,,,,,,,,"HPI Trade-in - APJ",active,Model,
"HP  Compaq 8510p",Notebook,HP,"Core 2","15""",,,,,,,"HPI Trade-in - APJ",active,Model,
"HP  Compaq DC5700",Desktop,HP,"Core 2",,,,,,,,"HPI Trade-in - APJ",active,Model,
"HP  Compaq dc5800 - Core2Duo",Desktop,HP,"Core 2",,,,,,,,"HPI Trade-in - APJ",active,Model,
"HP  Compaq dc5800 - Core2Quad",Desktop,HP,"Core 2",,,,,,,,"HPI Trade-in - APJ",active,Model,
"HP  Compaq dc7700 - Core2Duo",Desktop,HP,"Core 2",,,,,,,,"HPI Trade-in - APJ",active,Model,
"HP  Compaq dc7700 - CoreDuo",Desktop,HP,"Core 2",,,,,,,,"HPI Trade-in - APJ",active,Model,
"HP  Compaq dc7800 - Core2Duo",Desktop,HP,"Core 2",,,,,,,,"HPI Trade-in - APJ",active,Model,
"HP  Compaq dc7800 - Core2Quad",Desktop,HP,"Core 2",,,,,,,,"HPI Trade-in - APJ",active,Model,
"HP  Compaq dc7900 - Core2Duo",Desktop,HP,"Core 2",,,,,,,,"HPI Trade-in - APJ",active,Model,
"HP  Compaq dx2810 - Core2Duo",Desktop,HP,"Core 2",,,,,,,,"HPI Trade-in - APJ",active,Model,
"HP  Compaq dx7300 - Core2Duo",Desktop,HP,"Core 2",,,,,,,,"HPI Trade-in - APJ",active,Model,
"HP  Compaq dx7400 - Core2Duo",Desktop,HP,"Core 2",,,,,,,,"HPI Trade-in - APJ",active,Model,
"HP  Compaq nc6400 - Core2Duo",Notebook,HP,"Core 2","14""",,,,,,,"HPI Trade-in - APJ",active,Model,
"HP  Compaq nc6400 - CoreDuo",Notebook,HP,"Core 2","14""",,,,,,,"HPI Trade-in - APJ",active,Model,
"HP  Compaq nc8430",Notebook,HP,"Core 2","15""",,,,,,,"HPI Trade-in - APJ",active,Model,
"HP  Compaq NX6320",Notebook,HP,"Core 2","15""",,,,,,,"HPI Trade-in - APJ",active,Model,
"HP  EliteBook 2170p - i5",Notebook,HP,i5,"11.5""",,,,,,,"HPI Trade-in - APJ",active,Model,
"HP  EliteBook 2170p - i7",Notebook,HP,i7,"11.5""",,,,,,,"HPI Trade-in - APJ",active,Model,
"HP  EliteBook 2530p",Notebook,HP,"Core 2","12.5""",,,,,,,"HPI Trade-in - APJ",active,Model,
"HP  EliteBook 2540p - i5",Notebook,HP,i5,"12.5""",,,,,,,"HPI Trade-in - APJ",active,Model,
"HP  EliteBook 2540p - i7",Notebook,HP,i7,"12.5""",,,,,,,"HPI Trade-in - APJ",active,Model,
"HP  EliteBook 2560p - i5",Notebook,HP,i5,"12.5""",,,,,,,"HPI Trade-in - APJ",active,Model,
"HP  EliteBook 2560p - i7",Notebook,HP,i7,"12.5""",,,,,,,"HPI Trade-in - APJ",active,Model,
"HP  EliteBook 2570p - i5",Notebook,HP,i5,"12.5""",,,,,,,"HPI Trade-in - APJ",active,Model,
"HP  EliteBook 2570p - i7",Notebook,HP,i7,"12.5""",,,,,,,"HPI Trade-in - APJ",active,Model,
"HP  EliteBook 2730p",Notebook,HP,"Core 2","12.5""",,,,,,,"HPI Trade-in - APJ",active,Model,
"HP  EliteBook 2740p - i5",Notebook,HP,i5,"12.5""",,,,,,,"HPI Trade-in - APJ",active,Model,
"HP  EliteBook 2760p - i5",Notebook,HP,i5,"12.5""",,,,,,,"HPI Trade-in - APJ",active,Model,
"HP  EliteBook 6930p",Notebook,HP,"Core 2","14""",,,,,,,"HPI Trade-in - APJ",active,Model,
"HP  EliteBook 820 G1 - i5",Notebook,HP,i5,"12.5""",,,,,,,"HPI Trade-in - APJ",active,Model,
"HP  EliteBook 820 G2 - i5",Notebook,HP,i5,"12.5""",,,,,,,"HPI Trade-in - APJ",active,Model,
"HP  EliteBook 820 G3 - i5",Notebook,HP,i5,"12.5""",,,,,,,"HPI Trade-in - APJ",active,Model,
"HP  EliteBook 8440p - i5",Notebook,HP,i5,"14""",,,,,,,"HPI Trade-in - APJ",active,Model,
"HP  EliteBook 8440p - i7",Notebook,HP,i7,"14""",,,,,,,"HPI Trade-in - APJ",active,Model,
"HP  EliteBook 8460p - i5",Notebook,HP,i5,"14""",,,,,,,"HPI Trade-in - APJ",active,Model,
"HP  EliteBook 8460p - i7",Notebook,HP,i7,"14""",,,,,,,"HPI Trade-in - APJ",active,Model,
"HP  EliteBook 8470p - i5",Notebook,HP,i5,"14""",,,,,,,"HPI Trade-in - APJ",active,Model,
"HP  EliteBook 8470p - i7",Notebook,HP,i7,"14""",,,,,,,"HPI Trade-in - APJ",active,Model,
"HP  EliteBook 8530p",Notebook,HP,"Core 2","15""",,,,,,,"HPI Trade-in - APJ",active,Model,
"HP  EliteBook 8540P - i5",Notebook,HP,i5,"15""",,,,,,,"HPI Trade-in - APJ",active,Model,
"HP  EliteBook 8540P - i7",Notebook,HP,i7,"15""",,,,,,,"HPI Trade-in - APJ",active,Model,
"HP  EliteBook 8560w - i7",Notebook,HP,i7,"15""",,,,,,,"HPI Trade-in - APJ",active,Model,
"HP  EliteBook 8570w - i7",Notebook,HP,i7,"15""",,,,,,,"HPI Trade-in - APJ",active,Model,
"HP  EliteBook Folio 9470m - i5",Notebook,HP,i5,"14""",,,,,,,"HPI Trade-in - APJ",active,Model,
"HP  EliteBook Folio 9480m - i5",Notebook,HP,i5,"14""",,,,,,,"HPI Trade-in - APJ",active,Model,
"HP  EliteDesk 800 G1 - i5",Desktop,HP,i5,,,,,,,,"HPI Trade-in - APJ",active,Model,
"HP  Folio 13-2000 - i5",Notebook,HP,i5,"13.3""",,,,,,,"HPI Trade-in - APJ",active,Model,
"HP  NC2400",Notebook,HP,"Core 2","12.5""",,,,,,,"HPI Trade-in - APJ",active,Model,
"HP  Pavilion DV2000",Notebook,HP,"Core 2","14""",,,,,,,"HPI Trade-in - APJ",active,Model,
"HP  Presario CQ45",Notebook,HP,"Core 2","14""",,,,,,,"HPI Trade-in - APJ",active,Model,
"HP  Pro 3000 MCT",Desktop,HP,"Core 2",,,,,,,,"HPI Trade-in - APJ",active,Model,
"HP  Pro 3130 MCT - i3",Desktop,HP,i3,,,,,,,,"HPI Trade-in - APJ",active,Model,
"HP  ProBook 4321s - i3",Notebook,HP,i3,"13.3""",,,,,,,"HPI Trade-in - APJ",active,Model,
"HP  ProBook 4321s - i5",Notebook,HP,i5,"13.3""",,,,,,,"HPI Trade-in - APJ",active,Model,
"HP  ProBook 4330s - i3",Notebook,HP,i3,"13.3""",,,,,,,"HPI Trade-in - APJ",active,Model,
"HP  ProBook 4331s - i5",Notebook,HP,i5,"13.3""",,,,,,,"HPI Trade-in - APJ",active,Model,
"HP  ProBook 440 G0 - i5",Notebook,HP,i5,"14""",,,,,,,"HPI Trade-in - APJ",active,Model,
"HP  ProBook 4420s - i3",Notebook,HP,i3,"14""",,,,,,,"HPI Trade-in - APJ",active,Model,
"HP  ProBook 4430s - i5",Notebook,HP,i5,"14""",,,,,,,"HPI Trade-in - APJ",active,Model,
"HP  ProBook 4441s - i5",Notebook,HP,i5,"14""",,,,,,,"HPI Trade-in - APJ",active,Model,
"HP  ProBook 4520s - i3",Notebook,HP,i3,"15""",,,,,,,"HPI Trade-in - APJ",active,Model,
"HP  ProBook 4720s - i3",Notebook,HP,i3,"17""",,,,,,,"HPI Trade-in - APJ",active,Model,
"HP  ProBook 5310m",Notebook,HP,"Core 2","13.3""",,,,,,,"HPI Trade-in - APJ",active,Model,
"HP  ProBook 640 G1 - i5",Notebook,HP,i5,"14""",,,,,,,"HPI Trade-in - APJ",active,Model,
"HP  ProBook 6440b - i5",Notebook,HP,i5,"14""",,,,,,,"HPI Trade-in - APJ",active,Model,
"HP  ProBook 6450b - i5",Notebook,HP,i5,"14""",,,,,,,"HPI Trade-in - APJ",active,Model,
"HP  ProBook 6450b - i7",Notebook,HP,i7,"14""",,,,,,,"HPI Trade-in - APJ",active,Model,
"HP  ProBook 6460b - i5",Notebook,HP,i5,"14""",,,,,,,"HPI Trade-in - APJ",active,Model,
"HP  ProBook 6470b - i5",Notebook,HP,i5,"14""",,,,,,,"HPI Trade-in - APJ",active,Model,
"HP  ProBook 650 G1 - i5",Notebook,HP,i5,"15""",,,,,,,"HPI Trade-in - APJ",active,Model,
"HP  ProBook 6540b - i7",Notebook,HP,i7,"15""",,,,,,,"HPI Trade-in - APJ",active,Model,
"HP  Probook 6550b - i3",Notebook,HP,i3,"15""",,,,,,,"HPI Trade-in - APJ",active,Model,
"HP  Probook 6550b - i5",Notebook,HP,i5,"15""",,,,,,,"HPI Trade-in - APJ",active,Model,
"HP  Probook 6550b - i7",Notebook,HP,i7,"15""",,,,,,,"HPI Trade-in - APJ",active,Model,
"HP  ProBook 6560b - i5",Notebook,HP,i5,"15""",,,,,,,"HPI Trade-in - APJ",active,Model,
"HP  ProBook 6560b - i7",Notebook,HP,i7,"15""",,,,,,,"HPI Trade-in - APJ",active,Model,
"HP  ProBook 6570b - i5",Notebook,HP,i5,"15""",,,,,,,"HPI Trade-in - APJ",active,Model,
"HP  ProDesk 600 G1 - i3",Desktop,HP,i3,,,,,,,,"HPI Trade-in - APJ",active,Model,
"HP  ProDesk 600 G1 - i5",Desktop,HP,i5,,,,,,,,"HPI Trade-in - APJ",active,Model,
"HP  ProDesk 600 G2 - i5",Desktop,HP,i5,,,,,,,,"HPI Trade-in - APJ",active,Model,
"HP  Spectre XT Pro 13 - i5",Notebook,HP,i5,"13.3""",,,,,,,"HPI Trade-in - APJ",active,Model,
"HP  ZBook 14 - i7",Notebook,HP,i7,"14""",,,,,,,"HPI Trade-in - APJ",active,Model,
"HP  ZBook 15 - i5",Notebook,HP,i5,"15""",,,,,,,"HPI Trade-in - APJ",active,Model,
"HP  ZBook 15 - i7",Notebook,HP,i7,"15""",,,,,,,"HPI Trade-in - APJ",active,Model,
"Lenovo 3000 V100",Notebook,Lenovo,"Core 2","12.5""",,,,,,,"HPI Trade-in - APJ",active,Model,
"Lenovo 3000 V200",Notebook,Lenovo,"Core 2","12.5""",,,,,,,"HPI Trade-in - APJ",active,Model,
"Lenovo IdeaPad S410p - i7",Notebook,Lenovo,i7,"14""",,,,,,,"HPI Trade-in - APJ",active,Model,
"Lenovo Lenovo B40-70 - i5",Notebook,Lenovo,i5,"14""",,,,,,,"HPI Trade-in - APJ",active,Model,
"Lenovo Lenovo G470 - i5",Notebook,Lenovo,i5,"14""",,,,,,,"HPI Trade-in - APJ",active,Model,
"Lenovo ThinkCentre A70 - Core2Duo",Desktop,Lenovo,"Core 2",,,,,,,,"HPI Trade-in - APJ",active,Model,
"Lenovo ThinkCentre A85 - i3",Desktop,Lenovo,i3,,,,,,,,"HPI Trade-in - APJ",active,Model,
"Lenovo ThinkCentre Edge 71 - i3",Desktop,Lenovo,i3,,,,,,,,"HPI Trade-in - APJ",active,Model,
"Lenovo ThinkCentre M58 - Core2Duo",Desktop,Lenovo,"Core 2",,,,,,,,"HPI Trade-in - APJ",active,Model,
"Lenovo ThinkCentre M58 - Core2Quad",Desktop,Lenovo,"Core 2",,,,,,,,"HPI Trade-in - APJ",active,Model,
"Lenovo ThinkCentre M72 - i5",Desktop,Lenovo,i5,,,,,,,,"HPI Trade-in - APJ",active,Model,
"Lenovo ThinkCentre M80 - i3",Desktop,Lenovo,i3,,,,,,,,"HPI Trade-in - APJ",active,Model,
"Lenovo ThinkCentre M81 - i3",Desktop,Lenovo,i3,,,,,,,,"HPI Trade-in - APJ",active,Model,
"Lenovo ThinkCentre M82 - i3",Desktop,Lenovo,i3,,,,,,,,"HPI Trade-in - APJ",active,Model,
"Lenovo ThinkCentre M83 - i5",Desktop,Lenovo,i5,,,,,,,,"HPI Trade-in - APJ",active,Model,
"Lenovo ThinkCentre M90p - i5",Desktop,Lenovo,i5,,,,,,,,"HPI Trade-in - APJ",active,Model,
"Lenovo ThinkCentre M90p - i7",Desktop,Lenovo,i7,,,,,,,,"HPI Trade-in - APJ",active,Model,
"Lenovo ThinkCentre M91p - i5",Desktop,Lenovo,i5,,,,,,,,"HPI Trade-in - APJ",active,Model,
"Lenovo ThinkCentre M92p - i5",Desktop,Lenovo,i5,,,,,,,,"HPI Trade-in - APJ",active,Model,
"Lenovo ThinkCentre M92p - i7",Desktop,Lenovo,i7,,,,,,,,"HPI Trade-in - APJ",active,Model,
"Lenovo ThinkPad L412 - i5",Notebook,Lenovo,i5,"14""",,,,,,,"HPI Trade-in - APJ",active,Model,
"Lenovo ThinkPad L420 - i5",Notebook,Lenovo,i5,"14""",,,,,,,"HPI Trade-in - APJ",active,Model,
"Lenovo ThinkPad R400",Notebook,Lenovo,"Core 2","14""",,,,,,,"HPI Trade-in - APJ",active,Model,
"Lenovo ThinkPad R60 - Core2Duo",Notebook,Lenovo,"Core 2","15""",,,,,,,"HPI Trade-in - APJ",active,Model,
"Lenovo ThinkPad R60 - CoreDuo",Notebook,Lenovo,"Core 2","15""",,,,,,,"HPI Trade-in - APJ",active,Model,
"Lenovo ThinkPad SL500",Notebook,Lenovo,"Core 2","15""",,,,,,,"HPI Trade-in - APJ",active,Model,
"Lenovo ThinkPad SL510",Notebook,Lenovo,"Core 2","15""",,,,,,,"HPI Trade-in - APJ",active,Model,
"Lenovo ThinkPad T410 - i5",Notebook,Lenovo,i5,"14""",,,,,,,"HPI Trade-in - APJ",active,Model,
"Lenovo ThinkPad T420 - i5",Notebook,Lenovo,i5,"14""",,,,,,,"HPI Trade-in - APJ",active,Model,
"Lenovo ThinkPad T440 - i5",Notebook,Lenovo,i5,"14""",,,,,,,"HPI Trade-in - APJ",active,Model,
"Lenovo ThinkPad T500",Notebook,Lenovo,"Core 2","15""",,,,,,,"HPI Trade-in - APJ",active,Model,
"Lenovo ThinkPad T60 - Core2Duo",Notebook,Lenovo,"Core 2","14""",,,,,,,"HPI Trade-in - APJ",active,Model,
"Lenovo ThinkPad T60 - Core Duo",Notebook,Lenovo,"Core 2","14""",,,,,,,"HPI Trade-in - APJ",active,Model,
"Lenovo ThinkPad T61",Notebook,Lenovo,"Core 2","14""",,,,,,,"HPI Trade-in - APJ",active,Model,
"Lenovo ThinkPad X200",Notebook,Lenovo,"Core 2","12.5""",,,,,,,"HPI Trade-in - APJ",active,Model,
"Lenovo ThinkPad X201i - i3",Notebook,Lenovo,i3,"12.5""",,,,,,,"HPI Trade-in - APJ",active,Model,
"Lenovo ThinkPad X201i - i5",Notebook,Lenovo,i5,"12.5""",,,,,,,"HPI Trade-in - APJ",active,Model,
"Lenovo ThinkPad X220 - i5",Notebook,Lenovo,i5,"12.5""",,,,,,,"HPI Trade-in - APJ",active,Model,
"Lenovo ThinkPad X220 - i7",Notebook,Lenovo,i7,"12.5""",,,,,,,"HPI Trade-in - APJ",active,Model,
"Lenovo ThinkPad X230 - i3",Notebook,Lenovo,i3,"12.5""",,,,,,,"HPI Trade-in - APJ",active,Model,
"Lenovo ThinkPad X230 - i5",Notebook,Lenovo,i5,"12.5""",,,,,,,"HPI Trade-in - APJ",active,Model,
"Lenovo ThinkPad X60 - Core2Duo",Notebook,Lenovo,"Core 2","12.5""",,,,,,,"HPI Trade-in - APJ",active,Model,
"Lenovo ThinkPad X60 - CoreDuo",Notebook,Lenovo,"Core 2","12.5""",,,,,,,"HPI Trade-in - APJ",active,Model,
"Lenovo ThinkPad x61",Notebook,Lenovo,"Core 2","12.5""",,,,,,,"HPI Trade-in - APJ",active,Model,
"Samsung  530U - i5",Notebook,Samsung,i5,"13.3""",,,,,,,"HPI Trade-in - APJ",active,Model,
"Samsung  NP530U3C - i5",Notebook,Samsung,i5,"13.3""",,,,,,,"HPI Trade-in - APJ",active,Model,
"Samsung R40",Notebook,Samsung,"Core 2","15""",,,,,,,"HPI Trade-in - APJ",active,Model,
"HP Super Display",LCD,HP,,"21""",,,,,,,,active,Model,
"AIO Super",All-in-One,HP,A10,,,,,,,,,active,Model,
"Super Notebook",Notebook,Dell,A10,"14""",,,,,,,,active,Model,
,Notebook,,A10,,,,,,20.00,,,active,Processor,
,LCD,Dell,,,,,,,17.00,,,active,Processor,Australia
,All-in-One,Acer,A10,,,,,,88.00,,"HPE Asset recovery - All Countries",active,Processor,China
,LCD,Lenovo,,,,,,,89.00,,,active,Processor,India
,Desktop,Dell,"i3 - Gen 4",,,,,,55.00,,,active,Processor,Australia
,Desktop,Brands,A10,,,,,,14.00,,ABC,active,Processor,France
6570,LCD,Lenovo,,"10""",,,,,,,ABC,active,Model,Netherlands
6572,Desktop,Asus,A10,,,,,,55.00,,ABC,active,Model,India
"Lenovo ThinkPad T440 - i5",Notebook,Lenovo,"i5 - Gen 4","14""",,,,,,,"HPI Trade-in - APJ",active,Model,
