
,Notebook,,"Core i5  3rd gen",,,,,93.60,,,default,active
,Notebook,,"Core i5  2nd gen",,320GB,,No,78.30,,,default,active
,Notebook,,"Core i5  1st gen",,,,,69.30,,,default,active
,Notebook,,"Core i3  4th gen",,,,,126.00,,,default,active
,Notebook,,"Core i3  3rd gen",,,,,78.30,,,default,active
,Notebook,,"Core i3  2nd gen",,,,,69.30,,,default,active
,Notebook,,"Core i3  1st gen",,,,,63.00,,,default,active
,Notebook,,"Core2Duo / DualCore  3.10 GHz. above",,,,,25.20,,,default,active
,Notebook,,"Core2Duo / DualCore  3.00 - 2.10 GHz",,,,,25.20,,,default,active
,Notebook,,"Core2Duo / DualCore  2.00 GHz. below",,,,,21.60,,,default,active
,Notebook,,"CoreDuo / CentrinoDuo  3.10 GHz. above",,,,,21.60,,,default,active
,Notebook,,"CoreDuo / CentrinoDuo  3.00 - 2.10 GHz.",,,,,21.60,,,default,active
,Notebook,,"CoreDuo / CentrinoDuo  2.00 GHz. below",,,,,17.10,,,default,active
,Notebook,,"AMD A series  A10",,,,,99.00,,,default,active
,Notebook,,"AMD A series  A8",,,,,76.50,,,default,active
,Notebook,,"AMD A series  A6",,,,,58.50,,,default,active
,Notebook,,"AMD A series  A4",,,,,40.50,,,default,active
,Notebook,,"AMD PhenomII x2 (DualCore)  -",,,,,31.50,,,default,active
,Notebook,,"AMD Athlon64 x2 (DualCore)  3.10 GHz. above",,,,,19.80,,,default,active
,Notebook,,"AMD Athlon64 x2 (DualCore)  3.00 - 2.10 GHz.",,,,,19.80,,,default,active
,Notebook,,"AMD Athlon64 x2 (DualCore)  2.00 GHz. below",,,,,19.60,,,default,active
,Notebook,,"AMD Athlon II  -",,,,,19.80,,,default,active
,Notebook,,"Pentium 3 / 4",,,,,11.70,,,default,active
,Notebook,,Other,,,,,8.00,,,default,active
,Desktop,,"Core i7  4th gen",,,,,137.70,,,default,active
,Desktop,,"Core i7  3rd gen",,,,,99.00,,,default,active
,Desktop,,"Core i7  2nd gen",,,,,86.40,,,default,active
,Desktop,,"Core i7  1st gen",,,,,72.00,,,default,active
,Desktop,,"Core i5  4th gen",,,,,108.00,,,default,active
,Desktop,,"Core i5  3rd gen",,,,,78.30,,,default,active
,Desktop,,"Core i5  2nd gen",,,,,69.30,,,default,active
,Desktop,,"Core i5  1st gen",,,,,59.40,,,default,active
,Desktop,,"Intel Core i3  4th gen",,,,,84.60,,,default,active
,Desktop,,"Core i3  3rd gen",,,,,69.30,,,default,active
,Desktop,,"Core i3  2nd gen",,,,,55.80,,,default,active
,Desktop,,"Core i3  1st gen",,,,,48.60,,,default,active
"Latitude E7240",Notebook,Dell,"Core i7  4th gen","14""",500GB,8GB,Yes,,,,default,active
,Desktop,,"Core2Duo / DualCore  3.10 GHz. above",,,,,18.00,,,default,active
,Desktop,,"Core2Duo / DualCore  3.00 - 2.10 GHz",,,,,18.00,,,default,active
,Desktop,,"Core2Duo / DualCore  2.00 GHz. below",,,,,13.50,,,default,active
,Desktop,,"CoreDuo / CentrinoDuo  3.10 GHz. above",,,,,13.50,,,default,active
,Desktop,,"CoreDuo / CentrinoDuo  3.00 - 2.10 GHz.",,,,,13.50,,,default,active
,Desktop,,"CoreDuo / CentrinoDuo  2.00 GHz. below",,,,,10.80,,,default,active
,Desktop,,"AMD A series  A10",,,,,59.40,,,default,active
,Desktop,,"AMD A series  A8",,,,,54.00,,,default,active
,Desktop,,"AMD A series  A6",,,,,38.70,,,default,active
,Desktop,,"AMD A series  A4",,,,,18.00,,,default,active
,Desktop,,"AMD PhenomII x2 (DualCore)  -",,,,,18.00,,,default,active
,Desktop,,"AMD Athlon64 x2 (DualCore)  3.10 GHz. above",,,,,13.50,,,default,active
,Desktop,,"AMD Athlon64 x2 (DualCore)  3.00 - 2.10 GHz.",,,,,12.60,,,default,active
,Desktop,,"AMD Athlon64 x2 (DualCore)  2.00 GHz. below",,,,,9.90,,,default,active
,Desktop,,"AMD Athlon II  -",,,,,9.90,,,default,active
,Desktop,,"Pentium 3 / 4",,,,,7.20,,,default,active
,Desktop,,Other,,,,,0.00,,,default,active
,LCD,,,"24""",,,,41.40,,,default,active
,LCD,,,"23""",,,,36.90,,,default,active
,LCD,,,"22""",,,,31.50,,,default,active
,LCD,,,"21""",,,,24.30,,,default,active
,LCD,,,"20""",,,,19.80,,,default,active
,LCD,,,"19""",,,,15.30,,,default,active
,LCD,,,"18""",,,,12.60,,,default,active
,LCD,,,"17""",,,,9.90,,,default,active
"Elitebook 840 G1",Notebook,HP,"Core i7  4th gen","14""",750GB,8GB,No,,,,default,active
2570,Notebook,HP,"Core i5  2nd gen",,320GB,4GB,No,,,,default,active
6460,Notebook,HP,"Core i5  2nd gen","14""",500GB,4GB,Yes,,,,default,active
6570,Notebook,HP,"Core i5  3rd gen","14""",500GB,4GB,Yes,,,,default,active
,All-in-One,,"Core i7  4th gen",,,,,137.70,,,default,active
,All-in-One,,"Core i7  3rd gen",,,,,99.00,,,default,active
,All-in-One,,"Core i7  2nd gen",,,,,86.40,,,default,active
,All-in-One,,"Core i7  1st gen",,,,,72.00,,,default,active
,All-in-One,,"Core i5  4th gen",,,,,108.00,,,default,active
,All-in-One,,"Core i5  3rd gen",,,,,78.30,,,default,active
,All-in-One,,"Core i5  2nd gen",,,,,69.30,,,default,active
,All-in-One,,"Core i5  1st gen",,,,,59.40,,,default,active
,All-in-One,,"Core i3  4th gen",,,,,84.60,,,default,active
,All-in-One,,"Core i3  3rd gen",,,,,69.30,,,default,active
,All-in-One,,"Core i3  2nd gen",,,,,55.80,,,default,active
,All-in-One,,"Core i3  1st gen",,,,,48.60,,,default,active
,All-in-One,,"Intel Core2Duo / DualCore  3.10 GHz. above",,,,,43.20,,,default,active
,All-in-One,,"Intel Core2Duo / DualCore  3.00 - 2.10 GHz",,,,,37.80,,,default,active
,All-in-One,,"Intel Core2Duo / DualCore  2.00 GHz. below",,,,,27.00,,,default,active
,All-in-One,,"Intel CoreDuo / CentrinoDuo  3.10 GHz. above",,,,,21.60,,,default,active
,All-in-One,,"Intel CoreDuo / CentrinoDuo  3.00 - 2.10 GHz.",,,,,21.60,,,default,active
,All-in-One,,"Intel CoreDuo / CentrinoDuo  2.00 GHz. below",,,,,16.20,,,default,active
,All-in-One,,"AMD A series  A10",,,,,16.20,,,default,active
,All-in-One,,"AMD A series  A8",,,,,16.20,,,default,active
,All-in-One,,"AMD A series  A6",,,,,12.96,,,default,active
,All-in-One,,"AMD A series  A4",,,,,71.28,,,default,active
,All-in-One,,"AMD PhenomII x2 (DualCore)  -",,,,,64.80,,,default,active
,All-in-One,,"AMD Athlon64 x2 (DualCore)  3.10 GHz. above",,,,,46.44,,,default,active
,All-in-One,,"AMD Athlon64 x2 (DualCore)  3.00 - 2.10 GHz.",,,,,21.60,,,default,active
,All-in-One,,"AMD Athlon64 x2 (DualCore)  2.00 GHz. below",,,,,21.60,,,default,active
,All-in-One,,"AMD Athlon II  -",,,,,16.20,,,default,active
,All-in-One,,"Pentium 3 / 4",,,,,15.12,,,default,active
,All-in-One,,Other,,,,,11.88,,,default,active
"Elitedesk 800 ",Desktop,HP,"Core i5  4th gen",,750GB,8GB,Yes,,,,default,active
7000,Notebook,HP,"Core i3  3rd gen",,,,,100.00,,,default,active
"model ABC",Notebook,HP,"Core i3  1st gen","15""",500GB,8GB,No,95.00,,,default,active
"model efg",Notebook,HP,"Core i7  2nd gen","14""",500GB,4GB,Yes,,15.00,,default,active
"model hij",Desktop,HP,,,1TB,8GB,No,,,10.00,default,active
,Notebook,Dell,"Core i3  2nd gen",,,,,69.30,,,default,active
9000,Notebook,HP,"Core i5  4th gen","14""",,,,200.00,,,default,active
0,Desktop,HP,,,,,,92.00,,,default,active
,Desktop,,"Intel Core i7  3rd gen",,,,,23.00,,,default,active
,Notebook,Apple,"Core i7  3rd gen",,,,,,129.00,,default,active
,Notebook,Apple,"AMD A series  A10",,,,,120.00,,,default,active
,Notebook,Apple,"Core i7  3rd gen",,,,,121.00,,,default,active
,All-in-One,Acer,"Macbook Pro17 - Intel Core i7  1st gen",,,,,121.00,,,"HP World Stores India",active
,Notebook,HP,"Core i7  4th gen",,,,,72.00,,,"HP World Stores India",active
,All-in-One,HP,"AMD Athlon64 x2 (DualCore)  2.00 GHz. below",,,,,137.70,,,"HP World Stores India",active
,Notebook,HP,"Core i3  3rd gen",,,,,92.00,,,"HP World Stores India",active
