﻿model,product type,brand,processor,screen,hdd,ram,dvd,price,margin $,margin %,client,status,factor,country
,Notebook,,Core i5  3rd gen,,,,,100,,,HP World Stores India,active,Processor,
,Notebook,,Core i5  2nd gen,,,,,900,,,Store B,active,Processor,
,Notebook,,Core i5  1st gen,,,,,69.3,,,,active,Processor,
,Notebook,,Core i5  3rd gen,,,,,93.6,,,,active,Processor,New Zealand
,Notebook,,Core i5  2nd gen,,,,,1200,,,,active,Processor,
model zzz,Notebook,Dell,Core i5  2nd gen,"15""",200G,2G,Yes,1000,,,,active,Model,Australia
model zzz,Notebook,Dell,Core i5  2nd gen,"15""",200G,2G,Yes,1001,,,,active,Model,New Zealand
