model,"product type",brand,processor,screen,hdd,ram,dvd,price,"margin $","margin %",client,status,confgitype,country
,Tablet,,"Pro 9.7"" - Wifi only - 128GB",,,,,125.00,,,,active,Processor,
,Notebook,,"i5 - Gen 1",,,,,72.00,,,,active,Processor,
,Notebook,,"i5 - Gen 3",,,,,97.00,,,,active,Processor,
,Notebook,,"i7 - Gen 1",,,,,75.00,,,,active,Processor,
,Notebook,,"i3 - Gen 4",,,,,130.00,,,,active,Processor,
,Notebook,,"i3 - Gen 3",,,,,81.00,,,,active,Processor,
,Notebook,,"i3 - Gen 2",,,,,72.00,,,,active,Processor,
,Notebook,,"i3 - Gen 1",,,,,65.00,,,,active,Processor,
,Notebook,,Core2Duo,,,,,24.00,,,,active,Processor,
,Notebook,,CoreDuo,,,,,20.00,,,,active,Processor,
,Notebook,,A10,,,,,103.00,,,,active,Processor,
,Notebook,,A8,,,,,80.00,,,,active,Processor,
,Notebook,,A6,,,,,60.00,,,,active,Processor,
,Notebook,,A4,,,,,42.00,,,,active,Processor,
,Notebook,,"AMD Phenom II",,,,,23.00,,,,active,Processor,
,Notebook,,"AMD Athlon II",,,,,18.00,,,,active,Processor,
,All-in-One,,Core2Duo,,,,,17.00,,,,active,Processor,
,Notebook,,"Pentium 3 / 4",,,,,10.00,,,,active,Processor,
,Notebook,,"i7 - Gen 3",,,,,122.00,,,,active,Processor,
,Notebook,,"i7 - Gen 2",,,,,103.00,,,,active,Processor,
,Desktop,,"i7 - Gen 4",,,,,143.00,,,,active,Processor,
,Desktop,,"i7 - Gen 3",,,,,103.00,,,,active,Processor,
,Desktop,,"i7 - Gen 2",,,,,89.00,,,,active,Processor,
,Desktop,,"i7 - Gen 1",,,,,75.00,,,,active,Processor,
,Desktop,,"i5 - Gen 4",,,,,112.00,,,,active,Processor,
,Desktop,,"i5 - Gen 3",,,,,81.00,,,,active,Processor,
,Desktop,,"i5 - Gen 2",,,,,72.00,,,,active,Processor,
,Desktop,,"i5 - Gen 1",,,,,61.00,,,,active,Processor,
,All-in-One,,CoreDuo,,,,,13.00,,,,active,Processor,
,Desktop,,"i3 - Gen 3",,,,,72.00,,,,active,Processor,
,Desktop,,"i3 - Gen 2",,,,,58.00,,,,active,Processor,
,Desktop,,"i3 - Gen 1",,,,,50.00,,,,active,Processor,
,Notebook,,"i7 - Gen 6",,,,,240.00,,,,active,Processor,
,Desktop,,Core2Duo,,,,,17.00,,,,active,Processor,
,Desktop,,CoreDuo,,,,,13.00,,,,active,Processor,
,Desktop,,A10,,,,,61.00,,,,active,Processor,
,Desktop,,A8,,,,,56.00,,,,active,Processor,
,Desktop,,A6,,,,,40.00,,,,active,Processor,
,Desktop,,A4,,,,,18.00,,,,active,Processor,
,Desktop,,"AMD Phenom II",,,,,14.00,,,,active,Processor,
,Desktop,,"AMD Athlon II",,,,,14.00,,,,active,Processor,
,All-in-One,,Core2Quad,,,,,34.00,,,,active,Processor,
,Desktop,,"Pentium 3 / 4",,,,,10.00,,,,active,Processor,
,Notebook,,"i7 - Gen 4",,,,,183.00,,,,active,Processor,
,LCD,,,"24""",,,,40.00,,,,active,Lcd,
,LCD,,,"23""",,,,40.00,,,,active,Lcd,
,LCD,,,"22""",,,,34.00,,,,active,Lcd,
,LCD,,,"21""",,,,26.00,,,,active,Lcd,
,LCD,,,"20""",,,,21.00,,,,active,Lcd,
,LCD,,,"19""",,,,16.00,,,,active,Lcd,
,LCD,,,"18""",,,,14.00,,,,active,Lcd,
,LCD,,,"17""",,,,11.00,,,,active,Lcd,
,Notebook,,"i3 - Gen 4",,,,,117.00,,,"HPI - All Countries",active,Processor,
,Tablet,,"Pro 9.7"" - Wifi only - 32GB",,,,,109.00,,,,active,Processor,
,Notebook,,"i5 - Gen 3",,,,,87.00,,,"HPI - All Countries",active,Processor,
,All-in-One,,"i7 - Gen 4",,,,,143.00,,,,active,Processor,
,All-in-One,,"i7 - Gen 3",,,,,103.00,,,,active,Processor,
,All-in-One,,"i7 - Gen 2",,,,,89.00,,,,active,Processor,
,All-in-One,,"i7 - Gen 1",,,,,75.00,,,,active,Processor,
,All-in-One,,"i5 - Gen 4",,,,,112.00,,,,active,Processor,
,All-in-One,,"i5 - Gen 3",,,,,81.00,,,,active,Processor,
,All-in-One,,"i5 - Gen 2",,,,,72.00,,,,active,Processor,
,All-in-One,,"i5 - Gen 1",,,,,61.00,,,,active,Processor,
,All-in-One,,"i3 - Gen 4",,,,,87.00,,,,active,Processor,
,All-in-One,,"i3 - Gen 3",,,,,72.00,,,,active,Processor,
,All-in-One,,"i3 - Gen 2",,,,,58.00,,,,active,Processor,
,All-in-One,,"i3 - Gen 1",,,,,50.00,,,,active,Processor,
,Notebook,,Centrino,,,,,20.00,,,,active,Processor,
,Notebook,,"i3 - Gen 5",,,,,159.00,,,,active,Processor,
,Notebook,,"i5 - Gen 5",,,,,172.00,,,,active,Processor,
,Notebook,,"i5 - Gen 4",,,,,143.00,,,,active,Processor,
,Notebook,,"i5 - Gen 2",,,,,81.00,,,,active,Processor,
,All-in-One,,A10,,,,,61.00,,,,active,Processor,
,All-in-One,,A8,,,,,56.00,,,,active,Processor,
,All-in-One,,A6,,,,,40.00,,,,active,Processor,
,All-in-One,,A4,,,,,18.00,,,,active,Processor,
,All-in-One,,"AMD Phenom II",,,,,14.00,,,,active,Processor,
,All-in-One,,"AMD Athlon II",,,,,14.00,,,,active,Processor,
,Tablet,,"Pro 9.7"" - Wifi + Celluar - 128GB",,,,,150.00,,,,active,Processor,
,All-in-One,,"Pentium 3 / 4",,,,,10.00,,,,active,Processor,
,Notebook,,"i7 - Gen 5",,,,,212.00,,,,active,Processor,
,Notebook,,"i5 - Gen 7",,,,,230.00,,,,active,Processor,
,All-in-One,,A12,,,,,73.00,,,,active,Processor,
,Notebook,,"i7 - Gen 5",,,,,191.00,,,"HPI - All Countries",active,Processor,
,Notebook,,"i7 - Gen 4",,,,,165.00,,,"HPI - All Countries",active,Processor,
,Notebook,,"i7 - Gen 3",,,,,110.00,,,"HPI - All Countries",active,Processor,
,Notebook,,"i7 - Gen 2",,,,,93.00,,,"HPI - All Countries",active,Processor,
,Notebook,,"i7 - Gen 1",,,,,68.00,,,"HPI - All Countries",active,Processor,
,Notebook,,"i5 - Gen 5",,,,,155.00,,,"HPI - All Countries",active,Processor,
,Notebook,,"i5 - Gen 4",,,,,129.00,,,"HPI - All Countries",active,Processor,
,Notebook,,A12,,,,,122.00,,,,active,Processor,
,Desktop,,"i7 - Gen 5",,,,,179.00,,,,active,Processor,
,Desktop,,"i5 - Gen 5",,,,,121.00,,,,active,Processor,
,Notebook,,"i3 - Gen 6",,,,,190.00,,,,active,Processor,
,Desktop,,"i3 - Gen 5",,,,,95.00,,,,active,Processor,
,Desktop,,"i3 - Gen 4",,,,,87.00,,,,active,Processor,
,Desktop,,Core2Quad,,,,,34.00,,,,active,Processor,
,Desktop,,A12,,,,,73.00,,,,active,Processor,
,All-in-One,,"i7 - Gen 5",,,,,179.00,,,,active,Processor,
,All-in-One,,"i5 - Gen 5",,,,,121.00,,,,active,Processor,
,All-in-One,,"i3 - Gen 5",,,,,95.00,,,,active,Processor,
,Notebook,,"i3 - Gen 3",,,,,73.00,,,"HPI - All Countries",active,Processor,
,Notebook,,"i3 - Gen 2",,,,,65.00,,,"HPI - All Countries",active,Processor,
,Notebook,,"i3 - Gen 1",,,,,59.00,,,"HPI - All Countries",active,Processor,
,Notebook,,Core2Duo,,,,,22.00,,,"HPI - All Countries",active,Processor,
,Notebook,,CoreDuo,,,,,18.00,,,"HPI - All Countries",active,Processor,
,Notebook,,Centrino,,,,,18.00,,,"HPI - All Countries",active,Processor,
,Notebook,,A12,,,,,110.00,,,"HPI - All Countries",active,Processor,
,Notebook,,A10,,,,,93.00,,,"HPI - All Countries",active,Processor,
,Notebook,,A8,,,,,72.00,,,"HPI - All Countries",active,Processor,
,Notebook,,A6,,,,,54.00,,,"HPI - All Countries",active,Processor,
,Notebook,,A4,,,,,38.00,,,"HPI - All Countries",active,Processor,
,Notebook,,"AMD Phenom II",,,,,21.00,,,"HPI - All Countries",active,Processor,
,Notebook,,"AMD Athlon II",,,,,16.00,,,"HPI - All Countries",active,Processor,
,Notebook,,"Pentium 3 / 4",,,,,9.00,,,"HPI - All Countries",active,Processor,
,Desktop,,"i7 - Gen 5",,,,,161.00,,,"HPI - All Countries",active,Processor,
,Desktop,,"i7 - Gen 4",,,,,129.00,,,"HPI - All Countries",active,Processor,
,Desktop,,"i7 - Gen 3",,,,,93.00,,,"HPI - All Countries",active,Processor,
,Desktop,,"i7 - Gen 2",,,,,80.00,,,"HPI - All Countries",active,Processor,
,Desktop,,"i7 - Gen 1",,,,,68.00,,,"HPI - All Countries",active,Processor,
,Desktop,,"i5 - Gen 5",,,,,109.00,,,"HPI - All Countries",active,Processor,
,Desktop,,"i5 - Gen 4",,,,,101.00,,,"HPI - All Countries",active,Processor,
,Desktop,,"i5 - Gen 3",,,,,73.00,,,"HPI - All Countries",active,Processor,
,Desktop,,"i5 - Gen 2",,,,,65.00,,,"HPI - All Countries",active,Processor,
,Desktop,,"i5 - Gen 1",,,,,55.00,,,"HPI - All Countries",active,Processor,
,Desktop,,"i3 - Gen 5",,,,,86.00,,,"HPI - All Countries",active,Processor,
,Desktop,,"i3 - Gen 4",,,,,78.00,,,"HPI - All Countries",active,Processor,
,Desktop,,"i3 - Gen 3",,,,,65.00,,,"HPI - All Countries",active,Processor,
,Desktop,,"i3 - Gen 2",,,,,52.00,,,"HPI - All Countries",active,Processor,
,Desktop,,"i3 - Gen 1",,,,,45.00,,,"HPI - All Countries",active,Processor,
,Desktop,,Core2Quad,,,,,31.00,,,"HPI - All Countries",active,Processor,
,Desktop,,Core2Duo,,,,,15.00,,,"HPI - All Countries",active,Processor,
,Desktop,,CoreDuo,,,,,12.00,,,"HPI - All Countries",active,Processor,
,Desktop,,A12,,,,,66.00,,,"HPI - All Countries",active,Processor,
,Desktop,,A10,,,,,55.00,,,"HPI - All Countries",active,Processor,
,Desktop,,A8,,,,,50.00,,,"HPI - All Countries",active,Processor,
,Desktop,,A6,,,,,36.00,,,"HPI - All Countries",active,Processor,
,Desktop,,A4,,,,,16.00,,,"HPI - All Countries",active,Processor,
,Desktop,,"AMD Phenom II",,,,,13.00,,,"HPI - All Countries",active,Processor,
,Desktop,,"AMD Athlon II",,,,,13.00,,,"HPI - All Countries",active,Processor,
,Desktop,,"Pentium 3 / 4",,,,,9.00,,,"HPI - All Countries",active,Processor,
,LCD,,,"24""",,,,36.00,,,"HPI - All Countries",active,Lcd,
,LCD,,,"23""",,,,36.00,,,"HPI - All Countries",active,Lcd,
,LCD,,,"22""",,,,31.00,,,"HPI - All Countries",active,Lcd,
,LCD,,,"21""",,,,23.00,,,"HPI - All Countries",active,Lcd,
,LCD,,,"20""",,,,19.00,,,"HPI - All Countries",active,Lcd,
,LCD,,,"19""",,,,14.00,,,"HPI - All Countries",active,Lcd,
,LCD,,,"18""",,,,13.00,,,"HPI - All Countries",active,Lcd,
,LCD,,,"17""",,,,10.00,,,"HPI - All Countries",active,Lcd,
,All-in-One,,"i7 - Gen 5",,,,,161.00,,,"HPI - All Countries",active,Processor,
,All-in-One,,"i7 - Gen 4",,,,,129.00,,,"HPI - All Countries",active,Processor,
,All-in-One,,"i7 - Gen 3",,,,,93.00,,,"HPI - All Countries",active,Processor,
,All-in-One,,"i7 - Gen 2",,,,,80.00,,,"HPI - All Countries",active,Processor,
,All-in-One,,"i7 - Gen 1",,,,,68.00,,,"HPI - All Countries",active,Processor,
,All-in-One,,"i5 - Gen 5",,,,,109.00,,,"HPI - All Countries",active,Processor,
,All-in-One,,"i5 - Gen 4",,,,,101.00,,,"HPI - All Countries",active,Processor,
,All-in-One,,"i5 - Gen 3",,,,,73.00,,,"HPI - All Countries",active,Processor,
,All-in-One,,"i5 - Gen 2",,,,,65.00,,,"HPI - All Countries",active,Processor,
,All-in-One,,"i5 - Gen 1",,,,,55.00,,,"HPI - All Countries",active,Processor,
,All-in-One,,"i3 - Gen 5",,,,,86.00,,,"HPI - All Countries",active,Processor,
,All-in-One,,"i3 - Gen 4",,,,,78.00,,,"HPI - All Countries",active,Processor,
,All-in-One,,"i3 - Gen 3",,,,,65.00,,,"HPI - All Countries",active,Processor,
,All-in-One,,"i3 - Gen 2",,,,,52.00,,,"HPI - All Countries",active,Processor,
,All-in-One,,"i3 - Gen 1",,,,,45.00,,,"HPI - All Countries",active,Processor,
,All-in-One,,Core2Quad,,,,,31.00,,,"HPI - All Countries",active,Processor,
,All-in-One,,Core2Duo,,,,,15.00,,,"HPI - All Countries",active,Processor,
,All-in-One,,CoreDuo,,,,,12.00,,,"HPI - All Countries",active,Processor,
,All-in-One,,A12,,,,,66.00,,,"HPI - All Countries",active,Processor,
,All-in-One,,A10,,,,,55.00,,,"HPI - All Countries",active,Processor,
,All-in-One,,A8,,,,,50.00,,,"HPI - All Countries",active,Processor,
,All-in-One,,A6,,,,,36.00,,,"HPI - All Countries",active,Processor,
,All-in-One,,A4,,,,,16.00,,,"HPI - All Countries",active,Processor,
,All-in-One,,"AMD Phenom II",,,,,13.00,,,"HPI - All Countries",active,Processor,
,All-in-One,,"AMD Athlon II",,,,,13.00,,,"HPI - All Countries",active,Processor,
,All-in-One,,"Pentium 3 / 4",,,,,9.00,,,"HPI - All Countries",active,Processor,
,Tablet,,"Pro 9.7"" - Wifi + Celluar - 32GB",,,,,123.00,,,,active,Processor,
,Notebook,,"i5 - Gen 1",,,,,65.00,,,"HPI - All Countries",active,Processor,
,Notebook,,"i3 - Gen 5",,,,,143.00,,,"HPI - All Countries",active,Processor,
,Notebook,,"i5 - Gen 2",,,,,73.00,,,"HPI - All Countries",active,Processor,
,Notebook,,"AMD A Series",,,,,58.00,,,"HPI Trade-in - APJ",active,Processor,
,Notebook,,"Core 2",,,,,16.00,,,"HPI Trade-in - APJ",active,Processor,
,Tablet,,"Pro 10.5"" - Wifi + Cellular - 256GB",,,,,165.00,,,,active,Processor,
,Tablet,,"Pro 12.9"" - Wifi + Cellular - 256GB",,,,,170.00,,,,active,Processor,
,Notebook,,i3,,,,,76.00,,,"HPI Trade-in - APJ",active,Processor,
,Notebook,,i5,,,,,94.00,,,"HPI Trade-in - APJ",active,Processor,
,Notebook,,i7,,,,,118.00,,,"HPI Trade-in - APJ",active,Processor,
,Notebook,,"Core 2",,,,,10.00,,,"HPI Trade-in - APJ",active,Processor,Malaysia
,Notebook,,"AMD A Series",,,,,45.00,,,"HPI Trade-in - APJ",active,Processor,Malaysia
,Notebook,,i3,,,,,60.00,,,"HPI Trade-in - APJ",active,Processor,Malaysia
,Notebook,,i5,,,,,75.00,,,"HPI Trade-in - APJ",active,Processor,Malaysia
,Notebook,,i7,,,,,95.00,,,"HPI Trade-in - APJ",active,Processor,Malaysia
,Notebook,,"Core 2",,,,,10.00,,,"HPI Trade-in - APJ",active,Processor,China
,Notebook,,"AMD A Series",,,,,45.00,,,"HPI Trade-in - APJ",active,Processor,China
,Notebook,,i3,,,,,60.00,,,"HPI Trade-in - APJ",active,Processor,China
,Notebook,,i5,,,,,75.00,,,"HPI Trade-in - APJ",active,Processor,China
,Notebook,,i7,,,,,95.00,,,"HPI Trade-in - APJ",active,Processor,China
,Notebook,,"Core 2",,,,,10.00,,,"HPI Trade-in - APJ",active,Processor,"Hong Kong"
,Notebook,,"AMD A Series",,,,,45.00,,,"HPI Trade-in - APJ",active,Processor,"Hong Kong"
,Notebook,,i3,,,,,60.00,,,"HPI Trade-in - APJ",active,Processor,"Hong Kong"
,Notebook,,i5,,,,,75.00,,,"HPI Trade-in - APJ",active,Processor,"Hong Kong"
,Notebook,,i7,,,,,95.00,,,"HPI Trade-in - APJ",active,Processor,"Hong Kong"
,Notebook,,"Core 2",,,,,5.00,,,"HPI Trade-in - APJ",active,Processor,Australia
,Notebook,,"AMD A Series",,,,,40.00,,,"HPI Trade-in - APJ",active,Processor,Australia
,Notebook,,i3,,,,,55.00,,,"HPI Trade-in - APJ",active,Processor,Australia
,Notebook,,i5,,,,,70.00,,,"HPI Trade-in - APJ",active,Processor,Australia
,Notebook,,i7,,,,,90.00,,,"HPI Trade-in - APJ",active,Processor,Australia
,Notebook,,"Core 2",,,,,5.00,,,"HPI Trade-in - APJ",active,Processor,Japan
,Notebook,,"AMD A Series",,,,,40.00,,,"HPI Trade-in - APJ",active,Processor,Japan
,Notebook,,i3,,,,,55.00,,,"HPI Trade-in - APJ",active,Processor,Japan
,Notebook,,i5,,,,,70.00,,,"HPI Trade-in - APJ",active,Processor,Japan
,Notebook,,i7,,,,,90.00,,,"HPI Trade-in - APJ",active,Processor,Japan
,Notebook,,"Core 2",,,,,16.00,,,"HPI Trade-in - APJ",active,Processor,India
,Notebook,,"AMD A Series",,,,,58.00,,,"HPI Trade-in - APJ",active,Processor,India
,Notebook,,i3,,,,,76.00,,,"HPI Trade-in - APJ",active,Processor,India
,Notebook,,i5,,,,,94.00,,,"HPI Trade-in - APJ",active,Processor,India
,Notebook,,i7,,,,,118.00,,,"HPI Trade-in - APJ",active,Processor,India
,Desktop,,"Core 2",,,,,16.00,,,"HPI Trade-in - APJ",active,Processor,
,Desktop,,"AMD A Series",,,,,34.00,,,"HPI Trade-in - APJ",active,Processor,
,Desktop,,i3,,,,,64.00,,,"HPI Trade-in - APJ",active,Processor,
,Desktop,,i5,,,,,76.00,,,"HPI Trade-in - APJ",active,Processor,
,Desktop,,i7,,,,,100.00,,,"HPI Trade-in - APJ",active,Processor,
,Desktop,,"Core 2",,,,,10.00,,,"HPI Trade-in - APJ",active,Processor,Malaysia
,Desktop,,"AMD A Series",,,,,25.00,,,"HPI Trade-in - APJ",active,Processor,Malaysia
,Desktop,,i3,,,,,50.00,,,"HPI Trade-in - APJ",active,Processor,Malaysia
,Desktop,,i5,,,,,60.00,,,"HPI Trade-in - APJ",active,Processor,Malaysia
,Desktop,,i7,,,,,80.00,,,"HPI Trade-in - APJ",active,Processor,Malaysia
,Desktop,,"Core 2",,,,,10.00,,,"HPI Trade-in - APJ",active,Processor,China
,Desktop,,"AMD A Series",,,,,25.00,,,"HPI Trade-in - APJ",active,Processor,China
,Desktop,,i3,,,,,50.00,,,"HPI Trade-in - APJ",active,Processor,China
,Desktop,,i5,,,,,60.00,,,"HPI Trade-in - APJ",active,Processor,China
,Desktop,,i7,,,,,80.00,,,"HPI Trade-in - APJ",active,Processor,China
,Desktop,,"Core 2",,,,,10.00,,,"HPI Trade-in - APJ",active,Processor,"Hong Kong"
,Desktop,,"AMD A Series",,,,,25.00,,,"HPI Trade-in - APJ",active,Processor,"Hong Kong"
,Desktop,,i3,,,,,50.00,,,"HPI Trade-in - APJ",active,Processor,"Hong Kong"
,Desktop,,i5,,,,,60.00,,,"HPI Trade-in - APJ",active,Processor,"Hong Kong"
,Desktop,,i7,,,,,80.00,,,"HPI Trade-in - APJ",active,Processor,"Hong Kong"
,Desktop,,"Core 2",,,,,5.00,,,"HPI Trade-in - APJ",active,Processor,Australia
,Desktop,,"AMD A Series",,,,,20.00,,,"HPI Trade-in - APJ",active,Processor,Australia
,Desktop,,i3,,,,,45.00,,,"HPI Trade-in - APJ",active,Processor,Australia
,Desktop,,i5,,,,,55.00,,,"HPI Trade-in - APJ",active,Processor,Australia
,Desktop,,i7,,,,,75.00,,,"HPI Trade-in - APJ",active,Processor,Australia
,Desktop,,"Core 2",,,,,5.00,,,"HPI Trade-in - APJ",active,Processor,Japan
,Desktop,,"AMD A Series",,,,,20.00,,,"HPI Trade-in - APJ",active,Processor,Japan
,Desktop,,i3,,,,,45.00,,,"HPI Trade-in - APJ",active,Processor,Japan
,Desktop,,i5,,,,,55.00,,,"HPI Trade-in - APJ",active,Processor,Japan
,Desktop,,i7,,,,,75.00,,,"HPI Trade-in - APJ",active,Processor,Japan
,Desktop,,"Core 2",,,,,16.00,,,"HPI Trade-in - APJ",active,Processor,India
,Desktop,,"AMD A Series",,,,,34.00,,,"HPI Trade-in - APJ",active,Processor,India
,Desktop,,i3,,,,,64.00,,,"HPI Trade-in - APJ",active,Processor,India
,Desktop,,i5,,,,,76.00,,,"HPI Trade-in - APJ",active,Processor,India
,Desktop,,i7,,,,,100.00,,,"HPI Trade-in - APJ",active,Processor,India
,LCD,,,"15 - 18",,,,12.80,,,"HPI Trade-in - APJ",active,Lcd,
,LCD,,,"19 - 21",,,,17.60,,,"HPI Trade-in - APJ",active,Lcd,
,LCD,,,"22 - 24",,,,29.60,,,"HPI Trade-in - APJ",active,Lcd,
,LCD,,,"25 - 27",,,,38.00,,,"HPI Trade-in - APJ",active,Lcd,
,LCD,,,"28 - 30",,,,44.00,,,"HPI Trade-in - APJ",active,Lcd,
,LCD,,,"15 - 18",,,,7.00,,,"HPI Trade-in - APJ",active,Lcd,Malaysia
,LCD,,,"19 - 21",,,,11.00,,,"HPI Trade-in - APJ",active,Lcd,Malaysia
,LCD,,,"22 - 24",,,,21.00,,,"HPI Trade-in - APJ",active,Lcd,Malaysia
,LCD,,,"25 - 27",,,,28.00,,,"HPI Trade-in - APJ",active,Lcd,Malaysia
,LCD,,,"28 - 30",,,,33.00,,,"HPI Trade-in - APJ",active,Lcd,Malaysia
,LCD,,,"15 - 18",,,,7.00,,,"HPI Trade-in - APJ",active,Lcd,China
,LCD,,,"19 - 21",,,,11.00,,,"HPI Trade-in - APJ",active,Lcd,China
,LCD,,,"22 - 24",,,,21.00,,,"HPI Trade-in - APJ",active,Lcd,China
,LCD,,,"25 - 27",,,,28.00,,,"HPI Trade-in - APJ",active,Lcd,China
,LCD,,,"28 - 30",,,,33.00,,,"HPI Trade-in - APJ",active,Lcd,China
,LCD,,,"15 - 18",,,,7.00,,,"HPI Trade-in - APJ",active,Lcd,"Hong Kong"
,LCD,,,"19 - 21",,,,11.00,,,"HPI Trade-in - APJ",active,Lcd,"Hong Kong"
,LCD,,,"22 - 24",,,,21.00,,,"HPI Trade-in - APJ",active,Lcd,"Hong Kong"
,LCD,,,"25 - 27",,,,28.00,,,"HPI Trade-in - APJ",active,Lcd,"Hong Kong"
,LCD,,,"28 - 30",,,,33.00,,,"HPI Trade-in - APJ",active,Lcd,"Hong Kong"
,LCD,,,"15 - 18",,,,2.00,,,"HPI Trade-in - APJ",active,Lcd,Australia
,LCD,,,"19 - 21",,,,6.00,,,"HPI Trade-in - APJ",active,Lcd,Australia
,LCD,,,"22 - 24",,,,16.00,,,"HPI Trade-in - APJ",active,Lcd,Australia
,LCD,,,"25 - 27",,,,23.00,,,"HPI Trade-in - APJ",active,Lcd,Australia
,LCD,,,"28 - 30",,,,28.00,,,"HPI Trade-in - APJ",active,Lcd,Australia
,LCD,,,"15 - 18",,,,2.00,,,"HPI Trade-in - APJ",active,Lcd,Japan
,LCD,,,"19 - 21",,,,6.00,,,"HPI Trade-in - APJ",active,Lcd,Japan
,LCD,,,"22 - 24",,,,16.00,,,"HPI Trade-in - APJ",active,Lcd,Japan
,LCD,,,"25 - 27",,,,23.00,,,"HPI Trade-in - APJ",active,Lcd,Japan
,LCD,,,"28 - 30",,,,28.00,,,"HPI Trade-in - APJ",active,Lcd,Japan
,LCD,,,"15 - 18",,,,12.80,,,"HPI Trade-in - APJ",active,Lcd,India
,LCD,,,"19 - 21",,,,17.60,,,"HPI Trade-in - APJ",active,Lcd,India
,LCD,,,"22 - 24",,,,29.60,,,"HPI Trade-in - APJ",active,Lcd,India
,LCD,,,"25 - 27",,,,38.00,,,"HPI Trade-in - APJ",active,Lcd,India
,LCD,,,"28 - 30",,,,44.00,,,"HPI Trade-in - APJ",active,Lcd,India
,LCD,,,"All Sizes",,,,0.00,,,"HPI Trade-in - APJ",active,Lcd,
,All-in-One,,"Core 2",,,,,52.00,,,"HPI Trade-in - APJ",active,Processor,
,All-in-One,,"AMD A Series",,,,,77.00,,,"HPI Trade-in - APJ",active,Processor,
,All-in-One,,i3,,,,,112.00,,,"HPI Trade-in - APJ",active,Processor,
,All-in-One,,i5,,,,,122.00,,,"HPI Trade-in - APJ",active,Processor,
,All-in-One,,i7,,,,,147.00,,,"HPI Trade-in - APJ",active,Processor,
,All-in-One,,"Core 2",,,,,40.00,,,"HPI Trade-in - APJ",active,Processor,Malaysia
,All-in-One,,"AMD A Series",,,,,60.00,,,"HPI Trade-in - APJ",active,Processor,Malaysia
,All-in-One,,i3,,,,,90.00,,,"HPI Trade-in - APJ",active,Processor,Malaysia
,All-in-One,,i5,,,,,100.00,,,"HPI Trade-in - APJ",active,Processor,Malaysia
,All-in-One,,i7,,,,,120.00,,,"HPI Trade-in - APJ",active,Processor,Malaysia
,All-in-One,,"Core 2",,,,,40.00,,,"HPI Trade-in - APJ",active,Processor,China
,All-in-One,,"AMD A Series",,,,,60.00,,,"HPI Trade-in - APJ",active,Processor,China
,All-in-One,,i3,,,,,90.00,,,"HPI Trade-in - APJ",active,Processor,China
,All-in-One,,i5,,,,,100.00,,,"HPI Trade-in - APJ",active,Processor,China
,All-in-One,,i7,,,,,120.00,,,"HPI Trade-in - APJ",active,Processor,China
,All-in-One,,"Core 2",,,,,40.00,,,"HPI Trade-in - APJ",active,Processor,"Hong Kong"
,All-in-One,,"AMD A Series",,,,,60.00,,,"HPI Trade-in - APJ",active,Processor,"Hong Kong"
,All-in-One,,i3,,,,,90.00,,,"HPI Trade-in - APJ",active,Processor,"Hong Kong"
,All-in-One,,i5,,,,,100.00,,,"HPI Trade-in - APJ",active,Processor,"Hong Kong"
,All-in-One,,i7,,,,,120.00,,,"HPI Trade-in - APJ",active,Processor,"Hong Kong"
,All-in-One,,"Core 2",,,,,35.00,,,"HPI Trade-in - APJ",active,Processor,Australia
,All-in-One,,"AMD A Series",,,,,55.00,,,"HPI Trade-in - APJ",active,Processor,Australia
,All-in-One,,i3,,,,,85.00,,,"HPI Trade-in - APJ",active,Processor,Australia
,All-in-One,,i5,,,,,95.00,,,"HPI Trade-in - APJ",active,Processor,Australia
,All-in-One,,i7,,,,,115.00,,,"HPI Trade-in - APJ",active,Processor,Australia
,All-in-One,,"Core 2",,,,,35.00,,,"HPI Trade-in - APJ",active,Processor,Japan
,All-in-One,,"AMD A Series",,,,,55.00,,,"HPI Trade-in - APJ",active,Processor,Japan
,All-in-One,,i3,,,,,85.00,,,"HPI Trade-in - APJ",active,Processor,Japan
,All-in-One,,i5,,,,,95.00,,,"HPI Trade-in - APJ",active,Processor,Japan
,All-in-One,,i7,,,,,115.00,,,"HPI Trade-in - APJ",active,Processor,Japan
,All-in-One,,"Core 2",,,,,52.00,,,"HPI Trade-in - APJ",active,Processor,India
,All-in-One,,"AMD A Series",,,,,77.00,,,"HPI Trade-in - APJ",active,Processor,India
,All-in-One,,i3,,,,,112.00,,,"HPI Trade-in - APJ",active,Processor,India
,All-in-One,,i5,,,,,122.00,,,"HPI Trade-in - APJ",active,Processor,India
,All-in-One,,i7,,,,,147.00,,,"HPI Trade-in - APJ",active,Processor,India
,Notebook,,"AMD A Series",,,,,45.00,,,"HPI Trade-in - APJ",active,Processor,Singapore
,Notebook,,"Core 2",,,,,10.00,,,"HPI Trade-in - APJ",active,Processor,Singapore
,Notebook,,i3,,,,,60.00,,,"HPI Trade-in - APJ",active,Processor,Singapore
,Notebook,,i5,,,,,75.00,,,"HPI Trade-in - APJ",active,Processor,Singapore
,Notebook,,i7,,,,,95.00,,,"HPI Trade-in - APJ",active,Processor,Singapore
,Desktop,,"Core 2",,,,,10.00,,,"HPI Trade-in - APJ",active,Processor,Singapore
,Desktop,,"AMD A Series",,,,,25.00,,,"HPI Trade-in - APJ",active,Processor,Singapore
,Desktop,,i3,,,,,50.00,,,"HPI Trade-in - APJ",active,Processor,Singapore
,Desktop,,i5,,,,,60.00,,,"HPI Trade-in - APJ",active,Processor,Singapore
,Desktop,,i7,,,,,80.00,,,"HPI Trade-in - APJ",active,Processor,Singapore
,LCD,,,"15 - 18",,,,7.00,,,"HPI Trade-in - APJ",active,Lcd,Singapore
,LCD,,,"19 - 21",,,,11.00,,,"HPI Trade-in - APJ",active,Lcd,Singapore
,LCD,,,"22 - 24",,,,21.00,,,"HPI Trade-in - APJ",active,Lcd,Singapore
,LCD,,,"25 - 27",,,,28.00,,,"HPI Trade-in - APJ",active,Lcd,Singapore
,LCD,,,"28 - 30",,,,33.00,,,"HPI Trade-in - APJ",active,Lcd,Singapore
,All-in-One,,"Core 2",,,,,40.00,,,"HPI Trade-in - APJ",active,Processor,Singapore
,All-in-One,,"AMD A Series",,,,,60.00,,,"HPI Trade-in - APJ",active,Processor,Singapore
,All-in-One,,i3,,,,,90.00,,,"HPI Trade-in - APJ",active,Processor,Singapore
,All-in-One,,i5,,,,,100.00,,,"HPI Trade-in - APJ",active,Processor,Singapore
,All-in-One,,i7,,,,,120.00,,,"HPI Trade-in - APJ",active,Processor,Singapore
,Workstation,,"i7 - Gen 5",,,,,179.00,,,,active,Processor,
,Workstation,,"i7 - Gen 4",,,,,143.00,,,,active,Processor,
,Workstation,,"i7 - Gen 3",,,,,103.00,,,,active,Processor,
,Workstation,,"i7 - Gen 2",,,,,89.00,,,,active,Processor,
,Workstation,,"i7 - Gen 1",,,,,75.00,,,,active,Processor,
,Workstation,,"i7 - Gen 5",,,,,161.10,,,"HPI - All Countries",active,Processor,
,Workstation,,"i7 - Gen 4",,,,,128.70,,,"HPI - All Countries",active,Processor,
,Workstation,,"i7 - Gen 3",,,,,92.70,,,"HPI - All Countries",active,Processor,
,Workstation,,"i7 - Gen 2",,,,,80.10,,,"HPI - All Countries",active,Processor,
,Workstation,,"i7 - Gen 1",,,,,67.50,,,"HPI - All Countries",active,Processor,
,Tablet,,"Pro 9.7"" - Wifi only - 256GB",,,,,137.00,,,,active,Processor,
,Tablet,,"Pro 10.5"" - Wifi + Cellular - 512GB",,,,,200.00,,,,active,Processor,
,Tablet,,"Pro 10.5"" - Wifi only - 64GB",,,,,135.00,,,,active,Processor,
,Tablet,,"Pro 10.5"" - Wifi only - 512GB",,,,,165.00,,,,active,Processor,
,Tablet,,"Pro 10.5"" - Wifi + Cellular - 64GB",,,,,145.00,,,,active,Processor,
,Tablet,,"Pro 10.5"" - Wifi only - 256GB",,,,,140.00,,,,active,Processor,
,Tablet,,"Pro 12.9"" - Wifi Only - 32GB",,,,,141.00,,,,active,Processor,
,Tablet,,"Pro 12.9"" - Wifi + Cellular - 128GB",,,,,165.00,,,,active,Processor,
,Tablet,,"Pro 12.9"" - Wifi Only - 128GB",,,,,150.00,,,,active,Processor,
,Tablet,,"Pro 12.9"" - Wifi Only - 256GB",,,,,165.00,,,,active,Processor,
,Notebook,,"i5 - Gen 6",,,,,200.00,,,,active,Processor,
,Notebook,,"i3 - Gen 7",,,,,210.00,,,,active,Processor,
,Notebook,,"i7 - Gen 7",,,,,270.00,,,,active,Processor,
"Elitedesk 800 - i5",Desktop,HP,"i5 - Gen 4",,,,,,,,,active,Model,
"Folio 1040 G2 - i5",Notebook,HP,"i5 - Gen 5","14""",,,,,,,,active,Model,
"Folio 1040 G1 - i5",Notebook,HP,"i5 - Gen 4","14""",,,,,,,,active,Model,
"Omen 17-AN009TX",Notebook,HP,"i7 - Gen 7",17.3,1TB,16GB,No,,,,,active,Model,
"Omen 15-CEO73TX",Notebook,HP,"i5 - Gen 7","15.6""",1TB,8GB,No,,,,,active,Model,
"Omen 15-CEO70TX",Notebook,HP,"i5 - Gen 7","15.6""",1TB,8GB,No,,,,,active,Model,
"Omen 15-AX248TX",Notebook,HP,"i5 - Gen 7","15.6""",1TB,8GB,No,,,,,active,Model,
"Pav x360 15-BK001TX",Notebook,HP,"i5 - Gen 6","15.6""",1TB,8GB,No,,,,,active,Model,
"Pav x360 13-U131TU",Notebook,HP,"i3 - Gen 7","13.3""",1TB,4GB,No,,,,,active,Model,
"Pav 15-AU003TX",Notebook,HP,"i5 - Gen 6","15.6""",1TB,8GB,No,,,,,active,Model,
HP15-BS544TU,Notebook,HP,"i3 - Gen 6","15.6""",1TB,8GB,No,,,,,active,Model,
"Spectre 13- V122TU",Notebook,HP,"i7 - Gen 7","13.3""",512GB,8GB,No,,,,,active,Model,
HP14-AM519TU,Notebook,HP,"i3 - Gen 6","14""",1TB,4GB,No,,,,,active,Model,
"Elitedesk 800 - i5",Desktop,HP,i5,,,,,,,,"HPI Trade-in - APJ",active,Model,
"Folio 1040 G2 - i5",Notebook,HP,i5,,,,,,,,"HPI Trade-in - APJ",active,Model,
"Folio 1040 G1 - i5",Notebook,HP,i5,,,,,,,,"HPI Trade-in - APJ",active,Model,
"Omen 17-AN009TX",Notebook,HP,i7,,,,,,,,"HPI Trade-in - APJ",active,Model,
"Omen 15-CEO73TX",Notebook,HP,i5,,,,,,,,"HPI Trade-in - APJ",active,Model,
"Omen 15-CEO70TX",Notebook,HP,i5,,,,,,,,"HPI Trade-in - APJ",active,Model,
"Omen 15-AX248TX",Notebook,HP,i5,,,,,,,,"HPI Trade-in - APJ",active,Model,
"Pav x360 15-BK001TX",Notebook,HP,i5,,,,,,,,"HPI Trade-in - APJ",active,Model,
"Pav x360 13-U131TU",Notebook,HP,i3,,,,,,,,"HPI Trade-in - APJ",active,Model,
"Pav 15-AU003TX",Notebook,HP,i5,,,,,,,,"HPI Trade-in - APJ",active,Model,
HP15-BS544TU,Notebook,HP,i3,,,,,,,,"HPI Trade-in - APJ",active,Model,
"Spectre 13- V122TU",Notebook,HP,i7,,,,,,,,"HPI Trade-in - APJ",active,Model,
HP14-AM519TU,Notebook,HP,i3,,,,,,,,"HPI Trade-in - APJ",active,Model,
