message,model,"product type",brand,processor,screen,hdd,ram,dvd,price,"margin $","margin %",client,status
"[processor updated]",,Notebook,,"Core i5  3rd gen",,,,,93.6,,,,active
"[processor updated]",,Notebook,,"Core i5  3rd gen",,,,,,,100,"HP World Stores India",active
"[processor updated]",,Notebook,,"Core i5  2nd gen",,320GB,,No,1000,,,,active
"[processor updated]",,Notebook,,"Core i5  2nd gen",,320GB,,No,,50,,"Store B",active
"[processor updated]",,Notebook,,"Core i5  1st gen",,,,,69.3,,,,active
"[processor updated]",,Notebook,,"Core i5  1st gen",,,,,,,20,,active
