message,model,"product type",brand,processor,screen,hdd,ram,dvd,price,"margin $","margin %",client,status,confgitype,country
"[Processor updated]",,Notebook,,"i3 - Gen 5",,,,,159,,,,active,Processor,
"[Processor updated]",,Notebook,,"i5 - Gen 2",,,,,81,,,,active,Processor,
"[Processor updated]",,Notebook,,"i5 - Gen 1",,,,,72,,,,active,Processor,
"[Processor updated]",,Notebook,,"i5 - Gen 3",,,,,97,,,,active,Processor,
"[Processor updated]",,Notebook,,"i7 - Gen 1",,,,,75,,,,active,Processor,
"[Processor updated]",,Notebook,,"i3 - Gen 4",,,,,130,,,,active,Processor,
"[Processor updated]",,Notebook,,"i3 - Gen 3",,,,,81,,,,active,Processor,
"[Processor updated]",,Notebook,,"i3 - Gen 2",,,,,72,,,,active,Processor,
"[Processor updated]",,Notebook,,"i3 - Gen 1",,,,,65,,,,active,Processor,
"[Processor updated]",,Notebook,,Core2Duo,,,,,24,,,,active,Processor,
"[Processor updated]",,Notebook,,CoreDuo,,,,,20,,,,active,Processor,
"[Processor updated]",,Notebook,,A10,,,,,103,,,,active,Processor,
"[Processor updated]",,Notebook,,A8,,,,,80,,,,active,Processor,
"[Processor updated]",,Notebook,,A6,,,,,60,,,,active,Processor,
"[Processor updated]",,Notebook,,A4,,,,,42,,,,active,Processor,
"[Processor updated]",,Notebook,,"AMD Phenom II",,,,,23,,,,active,Processor,
"[Processor updated]",,Notebook,,"AMD Athlon II",,,,,18,,,,active,Processor,
"[Processor updated]",,All-in-One,,Core2Duo,,,,,17,,,,active,Processor,
"[Processor updated]",,Notebook,,"Pentium 3 / 4",,,,,10,,,,active,Processor,
"[Processor updated]",,Notebook,,"i7 - Gen 3",,,,,122,,,,active,Processor,
"[Processor updated]",,Notebook,,"i7 - Gen 2",,,,,103,,,,active,Processor,
"[Processor updated]",,Desktop,,"i7 - Gen 4",,,,,143,,,,active,Processor,
"[Processor updated]",,Desktop,,"i7 - Gen 3",,,,,103,,,,active,Processor,
"[Processor updated]",,Desktop,,"i7 - Gen 2",,,,,89,,,,active,Processor,
"[Processor updated]",,Desktop,,"i7 - Gen 1",,,,,75,,,,active,Processor,
"[Processor updated]",,Desktop,,"i5 - Gen 4",,,,,112,,,,active,Processor,
"[Processor updated]",,Desktop,,"i5 - Gen 3",,,,,81,,,,active,Processor,
"[Processor updated]",,Desktop,,"i5 - Gen 2",,,,,72,,,,active,Processor,
"[Processor updated]",,Desktop,,"i5 - Gen 1",,,,,61,,,,active,Processor,
"[Processor updated]",,All-in-One,,CoreDuo,,,,,13,,,,active,Processor,
"[Processor updated]",,Desktop,,"i3 - Gen 3",,,,,72,,,,active,Processor,
"[Processor updated]",,Desktop,,"i3 - Gen 2",,,,,58,,,,active,Processor,
"[Processor updated]",,Desktop,,"i3 - Gen 1",,,,,50,,,,active,Processor,
"[Model updated]","Latitude E7240",Notebook,Dell,"i7 - Gen 4","14""",500GB,8GB,Yes,,,,,active,Model,
"[Processor updated]",,Desktop,,Core2Duo,,,,,17,,,,active,Processor,
"[Processor updated]",,Desktop,,CoreDuo,,,,,13,,,,active,Processor,
"[Processor updated]",,Desktop,,A10,,,,,61,,,,active,Processor,
"[Processor updated]",,Desktop,,A8,,,,,56,,,,active,Processor,
"[Processor updated]",,Desktop,,A6,,,,,40,,,,active,Processor,
"[Processor updated]",,Desktop,,A4,,,,,18,,,,active,Processor,
"[Processor updated]",,Desktop,,"AMD Phenom II",,,,,14,,,,active,Processor,
"[Processor updated]",,Desktop,,"AMD Athlon II",,,,,14,,,,active,Processor,
"[Processor updated]",,All-in-One,,Core2Quad,,,,,34,,,,active,Processor,
"[Processor updated]",,Desktop,,"Pentium 3 / 4",,,,,10,,,,active,Processor,
"[Processor updated]",,Notebook,,"i7 - Gen 4",,,,,183,,,,active,Processor,
"[Lcd updated]",,LCD,,,"24""",,,,40,,,,active,Lcd,
"[Lcd updated]",,LCD,,,"23""",,,,40,,,,active,Lcd,
"[Lcd updated]",,LCD,,,"22""",,,,34,,,,active,Lcd,
"[Lcd updated]",,LCD,,,"21""",,,,26,,,,active,Lcd,
"[Lcd updated]",,LCD,,,"20""",,,,21,,,,active,Lcd,
"[Lcd updated]",,LCD,,,"19""",,,,16,,,,active,Lcd,
"[Lcd updated]",,LCD,,,"18""",,,,14,,,,active,Lcd,
"[Lcd updated]",,LCD,,,"17""",,,,11,,,,active,Lcd,
"[Processor updated]",,Notebook,,"i3 - Gen 4",,,,,117,,,"HP Inc",active,Processor,
"[Processor updated]",,Notebook,,"i5 - Gen 2",,,,,81,,,,active,Processor,
"[Processor updated]",,Notebook,,"i5 - Gen 3",,,,,87,,,"HP Inc",active,Processor,
"[Processor updated]",,All-in-One,,"i7 - Gen 4",,,,,143,,,,active,Processor,
"[Processor updated]",,All-in-One,,"i7 - Gen 3",,,,,103,,,,active,Processor,
"[Processor updated]",,All-in-One,,"i7 - Gen 2",,,,,89,,,,active,Processor,
"[Processor updated]",,All-in-One,,"i7 - Gen 1",,,,,75,,,,active,Processor,
"[Processor updated]",,All-in-One,,"i5 - Gen 4",,,,,112,,,,active,Processor,
"[Processor updated]",,All-in-One,,"i5 - Gen 3",,,,,81,,,,active,Processor,
"[Processor updated]",,All-in-One,,"i5 - Gen 2",,,,,72,,,,active,Processor,
"[Processor updated]",,All-in-One,,"i5 - Gen 1",,,,,61,,,,active,Processor,
"[Processor updated]",,All-in-One,,"i3 - Gen 4",,,,,87,,,,active,Processor,
"[Processor updated]",,All-in-One,,"i3 - Gen 3",,,,,72,,,,active,Processor,
"[Processor updated]",,All-in-One,,"i3 - Gen 2",,,,,58,,,,active,Processor,
"[Processor updated]",,All-in-One,,"i3 - Gen 1",,,,,50,,,,active,Processor,
"[Processor updated]",,Notebook,,Centrino,,,,,20,,,,active,Processor,
"[Processor updated]",,Notebook,,"i3 - Gen 5",,,,,159,,,,active,Processor,
"[Processor updated]",,Notebook,,"i5 - Gen 5",,,,,172,,,,active,Processor,
"[Processor updated]",,Notebook,,"i5 - Gen 4",,,,,143,,,,active,Processor,
"[Processor updated]",,Notebook,,"i5 - Gen 2",,,,,81,,,,active,Processor,
"[Processor updated]",,All-in-One,,A10,,,,,61,,,,active,Processor,
"[Processor updated]",,All-in-One,,A8,,,,,56,,,,active,Processor,
"[Processor updated]",,All-in-One,,A6,,,,,40,,,,active,Processor,
"[Processor updated]",,All-in-One,,A4,,,,,18,,,,active,Processor,
"[Processor updated]",,All-in-One,,"AMD Phenom II",,,,,14,,,,active,Processor,
"[Processor updated]",,All-in-One,,"AMD Athlon II",,,,,14,,,,active,Processor,
"[Processor updated]",,Notebook,,"i5 - Gen 1",,,,,72,,,,active,Processor,
"[Processor updated]",,All-in-One,,"Pentium 3 / 4",,,,,10,,,,active,Processor,
"[Processor updated]",,Notebook,,"i7 - Gen 5",,,,,212,,,,active,Processor,
"[Model updated]","Elitedesk 800 ",Desktop,HP,"i5 - Gen 4",,750GB,8GB,Yes,,,,,active,Model,
"[Processor updated]",,All-in-One,,A12,,,,,73,,,,active,Processor,
"[Processor updated]",,Notebook,,"i7 - Gen 5",,,,,191,,,"HP Inc",active,Processor,
"[Processor updated]",,Notebook,,"i7 - Gen 4",,,,,165,,,"HP Inc",active,Processor,
"[Processor updated]",,Notebook,,"i7 - Gen 3",,,,,110,,,"HP Inc",active,Processor,
"[Processor updated]",,Notebook,,"i7 - Gen 2",,,,,93,,,"HP Inc",active,Processor,
"[Processor updated]",,Notebook,,"i7 - Gen 1",,,,,68,,,"HP Inc",active,Processor,
"[Processor updated]",,Notebook,,"i5 - Gen 5",,,,,155,,,"HP Inc",active,Processor,
"[Processor updated]",,Notebook,,"i5 - Gen 4",,,,,129,,,"HP Inc",active,Processor,
"[Processor updated]",,Notebook,,A12,,,,,122,,,,active,Processor,
"[Processor updated]",,Desktop,,"i7 - Gen 5",,,,,179,,,,active,Processor,
"[Processor updated]",,Desktop,,"i5 - Gen 5",,,,,121,,,,active,Processor,
"[Processor updated]",,Desktop,,"i3 - Gen 5",,,,,95,,,,active,Processor,
"[Processor updated]",,Desktop,,"i3 - Gen 4",,,,,87,,,,active,Processor,
"[Processor updated]",,Desktop,,Core2Quad,,,,,34,,,,active,Processor,
"[Processor updated]",,Desktop,,A12,,,,,73,,,,active,Processor,
"[Processor updated]",,All-in-One,,"i7 - Gen 5",,,,,179,,,,active,Processor,
"[Processor updated]",,All-in-One,,"i5 - Gen 5",,,,,121,,,,active,Processor,
"[Processor updated]",,All-in-One,,"i3 - Gen 5",,,,,95,,,,active,Processor,
"[Processor updated]",,Notebook,,"i3 - Gen 3",,,,,73,,,"HP Inc",active,Processor,
"[Processor updated]",,Notebook,,"i3 - Gen 2",,,,,65,,,"HP Inc",active,Processor,
"[Processor updated]",,Notebook,,"i3 - Gen 1",,,,,59,,,"HP Inc",active,Processor,
"[Processor updated]",,Notebook,,Core2Duo,,,,,22,,,"HP Inc",active,Processor,
"[Processor updated]",,Notebook,,CoreDuo,,,,,18,,,"HP Inc",active,Processor,
"[Processor updated]",,Notebook,,Centrino,,,,,18,,,"HP Inc",active,Processor,
"[Processor updated]",,Notebook,,A12,,,,,110,,,"HP Inc",active,Processor,
"[Processor updated]",,Notebook,,A10,,,,,93,,,"HP Inc",active,Processor,
"[Processor updated]",,Notebook,,A8,,,,,72,,,"HP Inc",active,Processor,
"[Processor updated]",,Notebook,,A6,,,,,54,,,"HP Inc",active,Processor,
"[Processor updated]",,Notebook,,A4,,,,,38,,,"HP Inc",active,Processor,
"[Processor updated]",,Notebook,,"AMD Phenom II",,,,,21,,,"HP Inc",active,Processor,
"[Processor updated]",,Notebook,,"AMD Athlon II",,,,,16,,,"HP Inc",active,Processor,
"[Processor updated]",,Notebook,,"Pentium 3 / 4",,,,,9,,,"HP Inc",active,Processor,
"[Processor updated]",,Desktop,,"i7 - Gen 5",,,,,161,,,"HP Inc",active,Processor,
"[Processor updated]",,Desktop,,"i7 - Gen 4",,,,,129,,,"HP Inc",active,Processor,
"[Processor updated]",,Desktop,,"i7 - Gen 3",,,,,93,,,"HP Inc",active,Processor,
"[Processor updated]",,Desktop,,"i7 - Gen 2",,,,,80,,,"HP Inc",active,Processor,
"[Processor updated]",,Desktop,,"i7 - Gen 1",,,,,68,,,"HP Inc",active,Processor,
"[Processor updated]",,Desktop,,"i5 - Gen 5",,,,,109,,,"HP Inc",active,Processor,
"[Processor updated]",,Desktop,,"i5 - Gen 4",,,,,101,,,"HP Inc",active,Processor,
"[Processor updated]",,Desktop,,"i5 - Gen 3",,,,,73,,,"HP Inc",active,Processor,
"[Processor updated]",,Desktop,,"i5 - Gen 2",,,,,65,,,"HP Inc",active,Processor,
"[Processor updated]",,Desktop,,"i5 - Gen 1",,,,,55,,,"HP Inc",active,Processor,
"[Processor updated]",,Desktop,,"i3 - Gen 5",,,,,86,,,"HP Inc",active,Processor,
"[Processor updated]",,Desktop,,"i3 - Gen 4",,,,,78,,,"HP Inc",active,Processor,
"[Processor updated]",,Desktop,,"i3 - Gen 3",,,,,65,,,"HP Inc",active,Processor,
"[Processor updated]",,Desktop,,"i3 - Gen 2",,,,,52,,,"HP Inc",active,Processor,
"[Processor updated]",,Desktop,,"i3 - Gen 1",,,,,45,,,"HP Inc",active,Processor,
"[Processor updated]",,Desktop,,Core2Quad,,,,,31,,,"HP Inc",active,Processor,
"[Processor updated]",,Desktop,,Core2Duo,,,,,15,,,"HP Inc",active,Processor,
"[Processor updated]",,Desktop,,CoreDuo,,,,,12,,,"HP Inc",active,Processor,
"[Processor updated]",,Desktop,,A12,,,,,66,,,"HP Inc",active,Processor,
"[Processor updated]",,Desktop,,A10,,,,,55,,,"HP Inc",active,Processor,
"[Processor updated]",,Desktop,,A8,,,,,50,,,"HP Inc",active,Processor,
"[Processor updated]",,Desktop,,A6,,,,,36,,,"HP Inc",active,Processor,
"[Processor updated]",,Desktop,,A4,,,,,16,,,"HP Inc",active,Processor,
"[Processor updated]",,Desktop,,"AMD Phenom II",,,,,13,,,"HP Inc",active,Processor,
"[Processor updated]",,Desktop,,"AMD Athlon II",,,,,13,,,"HP Inc",active,Processor,
"[Processor updated]",,Desktop,,"Pentium 3 / 4",,,,,9,,,"HP Inc",active,Processor,
"[Lcd updated]",,LCD,,,"24""",,,,36,,,"HP Inc",active,Lcd,
"[Lcd updated]",,LCD,,,"23""",,,,36,,,"HP Inc",active,Lcd,
"[Lcd updated]",,LCD,,,"22""",,,,31,,,"HP Inc",active,Lcd,
"[Lcd updated]",,LCD,,,"21""",,,,23,,,"HP Inc",active,Lcd,
"[Lcd updated]",,LCD,,,"20""",,,,19,,,"HP Inc",active,Lcd,
"[Lcd updated]",,LCD,,,"19""",,,,14,,,"HP Inc",active,Lcd,
"[Lcd updated]",,LCD,,,"18""",,,,13,,,"HP Inc",active,Lcd,
"[Lcd updated]",,LCD,,,"17""",,,,10,,,"HP Inc",active,Lcd,
"[Processor updated]",,All-in-One,,"i7 - Gen 5",,,,,161,,,"HP Inc",active,Processor,
"[Processor updated]",,All-in-One,,"i7 - Gen 4",,,,,129,,,"HP Inc",active,Processor,
"[Processor updated]",,All-in-One,,"i7 - Gen 3",,,,,93,,,"HP Inc",active,Processor,
"[Processor updated]",,All-in-One,,"i7 - Gen 2",,,,,80,,,"HP Inc",active,Processor,
"[Processor updated]",,All-in-One,,"i7 - Gen 1",,,,,68,,,"HP Inc",active,Processor,
"[Processor updated]",,All-in-One,,"i5 - Gen 5",,,,,109,,,"HP Inc",active,Processor,
"[Processor updated]",,All-in-One,,"i5 - Gen 4",,,,,101,,,"HP Inc",active,Processor,
"[Processor updated]",,All-in-One,,"i5 - Gen 3",,,,,73,,,"HP Inc",active,Processor,
"[Processor updated]",,All-in-One,,"i5 - Gen 2",,,,,65,,,"HP Inc",active,Processor,
"[Processor updated]",,All-in-One,,"i5 - Gen 1",,,,,55,,,"HP Inc",active,Processor,
"[Processor updated]",,All-in-One,,"i3 - Gen 5",,,,,86,,,"HP Inc",active,Processor,
"[Processor updated]",,All-in-One,,"i3 - Gen 4",,,,,78,,,"HP Inc",active,Processor,
"[Processor updated]",,All-in-One,,"i3 - Gen 3",,,,,65,,,"HP Inc",active,Processor,
"[Processor updated]",,All-in-One,,"i3 - Gen 2",,,,,52,,,"HP Inc",active,Processor,
"[Processor updated]",,All-in-One,,"i3 - Gen 1",,,,,45,,,"HP Inc",active,Processor,
"[Processor updated]",,All-in-One,,Core2Quad,,,,,31,,,"HP Inc",active,Processor,
"[Processor updated]",,All-in-One,,Core2Duo,,,,,15,,,"HP Inc",active,Processor,
"[Processor updated]",,All-in-One,,CoreDuo,,,,,12,,,"HP Inc",active,Processor,
"[Processor updated]",,All-in-One,,A12,,,,,66,,,"HP Inc",active,Processor,
"[Processor updated]",,All-in-One,,A10,,,,,55,,,"HP Inc",active,Processor,
"[Processor updated]",,All-in-One,,A8,,,,,50,,,"HP Inc",active,Processor,
"[Processor updated]",,All-in-One,,A6,,,,,36,,,"HP Inc",active,Processor,
"[Processor updated]",,All-in-One,,A4,,,,,16,,,"HP Inc",active,Processor,
"[Processor updated]",,All-in-One,,"AMD Phenom II",,,,,13,,,"HP Inc",active,Processor,
"[Processor updated]",,All-in-One,,"AMD Athlon II",,,,,13,,,"HP Inc",active,Processor,
"[Processor updated]",,All-in-One,,"Pentium 3 / 4",,,,,9,,,"HP Inc",active,Processor,
"[Processor updated]",,Notebook,,"i5 - Gen 1",,,,,65,,,"HP Inc",active,Processor,
"[Processor updated]",,Notebook,,"i3 - Gen 5",,,,,143,,,"HP Inc",active,Processor,
"[Processor updated]",,Notebook,,"i5 - Gen 2",,,,,73,,,"HP Inc",active,Processor,
"[Processor updated]",,Tablet,,"Pro 256GB - Wifi + Cellular - 10.5""",,,,,165,,,,active,Processor,
"[Processor updated]",,Tablet,,"Pro 256GB - Wifi + Cellular - 12.9""",,,,,170,,,,active,Processor,
"[Processor updated]",,Notebook,,"Core 2",,,,,10,,,"HP Inc Tradein - APJ",active,Processor,Singapore
"[Processor updated]",,Notebook,,"AMD A Series",,,,,45,,,"HP Inc Tradein - APJ",active,Processor,Singapore
"[Processor updated]",,Notebook,,i3,,,,,60,,,"HP Inc Tradein - APJ",active,Processor,Singapore
"[Processor updated]",,Notebook,,i5,,,,,75,,,"HP Inc Tradein - APJ",active,Processor,Singapore
"[Processor updated]",,Notebook,,i7,,,,,95,,,"HP Inc Tradein - APJ",active,Processor,Singapore
"[Processor updated]",,Notebook,,"Core 2",,,,,10,,,"HP Inc Tradein - APJ",active,Processor,Malaysia
"[Processor updated]",,Notebook,,"AMD A Series",,,,,45,,,"HP Inc Tradein - APJ",active,Processor,Malaysia
"[Processor updated]",,Notebook,,i3,,,,,60,,,"HP Inc Tradein - APJ",active,Processor,Malaysia
"[Processor updated]",,Notebook,,i5,,,,,75,,,"HP Inc Tradein - APJ",active,Processor,Malaysia
"[Processor updated]",,Notebook,,i7,,,,,95,,,"HP Inc Tradein - APJ",active,Processor,Malaysia
"[Processor updated]",,Notebook,,"Core 2",,,,,10,,,"HP Inc Tradein - APJ",active,Processor,China
"[Processor updated]",,Notebook,,"AMD A Series",,,,,45,,,"HP Inc Tradein - APJ",active,Processor,China
"[Processor updated]",,Notebook,,i3,,,,,60,,,"HP Inc Tradein - APJ",active,Processor,China
"[Processor updated]",,Notebook,,i5,,,,,75,,,"HP Inc Tradein - APJ",active,Processor,China
"[Processor updated]",,Notebook,,i7,,,,,95,,,"HP Inc Tradein - APJ",active,Processor,China
"[Processor updated]",,Notebook,,"Core 2",,,,,10,,,"HP Inc Tradein - APJ",active,Processor,"Hong Kong"
"[Processor updated]",,Notebook,,"AMD A Series",,,,,45,,,"HP Inc Tradein - APJ",active,Processor,"Hong Kong"
"[Processor updated]",,Notebook,,i3,,,,,60,,,"HP Inc Tradein - APJ",active,Processor,"Hong Kong"
"[Processor updated]",,Notebook,,i5,,,,,75,,,"HP Inc Tradein - APJ",active,Processor,"Hong Kong"
"[Processor updated]",,Notebook,,i7,,,,,95,,,"HP Inc Tradein - APJ",active,Processor,"Hong Kong"
"[Processor updated]",,Notebook,,"Core 2",,,,,5,,,"HP Inc Tradein - APJ",active,Processor,Australia
"[Processor updated]",,Notebook,,"AMD A Series",,,,,40,,,"HP Inc Tradein - APJ",active,Processor,Australia
"[Processor updated]",,Notebook,,i3,,,,,55,,,"HP Inc Tradein - APJ",active,Processor,Australia
"[Processor updated]",,Notebook,,i5,,,,,70,,,"HP Inc Tradein - APJ",active,Processor,Australia
"[Processor updated]",,Notebook,,i7,,,,,90,,,"HP Inc Tradein - APJ",active,Processor,Australia
"[Processor updated]",,Notebook,,"Core 2",,,,,5,,,"HP Inc Tradein - APJ",active,Processor,Japan
"[Processor updated]",,Notebook,,"AMD A Series",,,,,40,,,"HP Inc Tradein - APJ",active,Processor,Japan
"[Processor updated]",,Notebook,,i3,,,,,55,,,"HP Inc Tradein - APJ",active,Processor,Japan
"[Processor updated]",,Notebook,,i5,,,,,70,,,"HP Inc Tradein - APJ",active,Processor,Japan
"[Processor updated]",,Notebook,,i7,,,,,90,,,"HP Inc Tradein - APJ",active,Processor,Japan
"[Processor updated]",,Notebook,,"Core 2",,,,,16,,,"HP Inc Tradein - APJ",active,Processor,India
"[Processor updated]",,Notebook,,"AMD A Series",,,,,58,,,"HP Inc Tradein - APJ",active,Processor,India
"[Processor updated]",,Notebook,,i3,,,,,76,,,"HP Inc Tradein - APJ",active,Processor,India
"[Processor updated]",,Notebook,,i5,,,,,94,,,"HP Inc Tradein - APJ",active,Processor,India
"[Processor updated]",,Notebook,,i7,,,,,118,,,"HP Inc Tradein - APJ",active,Processor,India
"[Processor updated]",,Desktop,,"Core 2",,,,,10,,,"HP Inc Tradein - APJ",active,Processor,Singapore
"[Processor updated]",,Desktop,,"AMD A Series",,,,,25,,,"HP Inc Tradein - APJ",active,Processor,Singapore
"[Processor updated]",,Desktop,,i3,,,,,50,,,"HP Inc Tradein - APJ",active,Processor,Singapore
"[Processor updated]",,Desktop,,i5,,,,,60,,,"HP Inc Tradein - APJ",active,Processor,Singapore
"[Processor updated]",,Desktop,,i7,,,,,80,,,"HP Inc Tradein - APJ",active,Processor,Singapore
"[Processor updated]",,Desktop,,"Core 2",,,,,10,,,"HP Inc Tradein - APJ",active,Processor,Malaysia
"[Processor updated]",,Desktop,,"AMD A Series",,,,,25,,,"HP Inc Tradein - APJ",active,Processor,Malaysia
"[Processor updated]",,Desktop,,i3,,,,,50,,,"HP Inc Tradein - APJ",active,Processor,Malaysia
"[Processor updated]",,Desktop,,i5,,,,,60,,,"HP Inc Tradein - APJ",active,Processor,Malaysia
"[Processor updated]",,Desktop,,i7,,,,,80,,,"HP Inc Tradein - APJ",active,Processor,Malaysia
"[Processor updated]",,Desktop,,"Core 2",,,,,10,,,"HP Inc Tradein - APJ",active,Processor,China
"[Processor updated]",,Desktop,,"AMD A Series",,,,,25,,,"HP Inc Tradein - APJ",active,Processor,China
"[Processor updated]",,Desktop,,i3,,,,,50,,,"HP Inc Tradein - APJ",active,Processor,China
"[Processor updated]",,Desktop,,i5,,,,,60,,,"HP Inc Tradein - APJ",active,Processor,China
"[Processor updated]",,Desktop,,i7,,,,,80,,,"HP Inc Tradein - APJ",active,Processor,China
"[Processor updated]",,Desktop,,"Core 2",,,,,10,,,"HP Inc Tradein - APJ",active,Processor,"Hong Kong"
"[Processor updated]",,Desktop,,"AMD A Series",,,,,25,,,"HP Inc Tradein - APJ",active,Processor,"Hong Kong"
"[Processor updated]",,Desktop,,i3,,,,,50,,,"HP Inc Tradein - APJ",active,Processor,"Hong Kong"
"[Processor updated]",,Desktop,,i5,,,,,60,,,"HP Inc Tradein - APJ",active,Processor,"Hong Kong"
"[Processor updated]",,Desktop,,i7,,,,,80,,,"HP Inc Tradein - APJ",active,Processor,"Hong Kong"
"[Processor updated]",,Desktop,,"Core 2",,,,,5,,,"HP Inc Tradein - APJ",active,Processor,Australia
"[Processor updated]",,Desktop,,"AMD A Series",,,,,20,,,"HP Inc Tradein - APJ",active,Processor,Australia
"[Processor updated]",,Desktop,,i3,,,,,45,,,"HP Inc Tradein - APJ",active,Processor,Australia
"[Processor updated]",,Desktop,,i5,,,,,55,,,"HP Inc Tradein - APJ",active,Processor,Australia
"[Processor updated]",,Desktop,,i7,,,,,75,,,"HP Inc Tradein - APJ",active,Processor,Australia
"[Processor updated]",,Desktop,,"Core 2",,,,,5,,,"HP Inc Tradein - APJ",active,Processor,Japan
"[Processor updated]",,Desktop,,"AMD A Series",,,,,20,,,"HP Inc Tradein - APJ",active,Processor,Japan
"[Processor updated]",,Desktop,,i3,,,,,45,,,"HP Inc Tradein - APJ",active,Processor,Japan
"[Processor updated]",,Desktop,,i5,,,,,55,,,"HP Inc Tradein - APJ",active,Processor,Japan
"[Processor updated]",,Desktop,,i7,,,,,75,,,"HP Inc Tradein - APJ",active,Processor,Japan
"[Processor updated]",,Desktop,,"Core 2",,,,,16,,,"HP Inc Tradein - APJ",active,Processor,India
"[Processor updated]",,Desktop,,"AMD A Series",,,,,34,,,"HP Inc Tradein - APJ",active,Processor,India
"[Processor updated]",,Desktop,,i3,,,,,64,,,"HP Inc Tradein - APJ",active,Processor,India
"[Processor updated]",,Desktop,,i5,,,,,76,,,"HP Inc Tradein - APJ",active,Processor,India
"[Processor updated]",,Desktop,,i7,,,,,100,,,"HP Inc Tradein - APJ",active,Processor,India
"[Lcd updated]",,LCD,,,"15 - 18",,,,7,,,"HP Inc Tradein - APJ",active,Lcd,Singapore
"[Lcd updated]",,LCD,,,"19 - 21",,,,11,,,"HP Inc Tradein - APJ",active,Lcd,Singapore
"[Lcd updated]",,LCD,,,"22 - 24",,,,21,,,"HP Inc Tradein - APJ",active,Lcd,Singapore
"[Lcd updated]",,LCD,,,"25 - 27",,,,28,,,"HP Inc Tradein - APJ",active,Lcd,Singapore
"[Lcd updated]",,LCD,,,"28 - 30",,,,33,,,"HP Inc Tradein - APJ",active,Lcd,Singapore
"[Lcd updated]",,LCD,,,"15 - 18",,,,7,,,"HP Inc Tradein - APJ",active,Lcd,Malaysia
"[Lcd updated]",,LCD,,,"19 - 21",,,,11,,,"HP Inc Tradein - APJ",active,Lcd,Malaysia
"[Lcd updated]",,LCD,,,"22 - 24",,,,21,,,"HP Inc Tradein - APJ",active,Lcd,Malaysia
"[Lcd updated]",,LCD,,,"25 - 27",,,,28,,,"HP Inc Tradein - APJ",active,Lcd,Malaysia
"[Lcd updated]",,LCD,,,"28 - 30",,,,33,,,"HP Inc Tradein - APJ",active,Lcd,Malaysia
"[Lcd updated]",,LCD,,,"15 - 18",,,,7,,,"HP Inc Tradein - APJ",active,Lcd,China
"[Lcd updated]",,LCD,,,"19 - 21",,,,11,,,"HP Inc Tradein - APJ",active,Lcd,China
"[Lcd updated]",,LCD,,,"22 - 24",,,,21,,,"HP Inc Tradein - APJ",active,Lcd,China
"[Lcd updated]",,LCD,,,"25 - 27",,,,28,,,"HP Inc Tradein - APJ",active,Lcd,China
"[Lcd updated]",,LCD,,,"28 - 30",,,,33,,,"HP Inc Tradein - APJ",active,Lcd,China
"[Lcd updated]",,LCD,,,"15 - 18",,,,7,,,"HP Inc Tradein - APJ",active,Lcd,"Hong Kong"
"[Lcd updated]",,LCD,,,"19 - 21",,,,11,,,"HP Inc Tradein - APJ",active,Lcd,"Hong Kong"
"[Lcd updated]",,LCD,,,"22 - 24",,,,21,,,"HP Inc Tradein - APJ",active,Lcd,"Hong Kong"
"[Lcd updated]",,LCD,,,"25 - 27",,,,28,,,"HP Inc Tradein - APJ",active,Lcd,"Hong Kong"
"[Lcd updated]",,LCD,,,"28 - 30",,,,33,,,"HP Inc Tradein - APJ",active,Lcd,"Hong Kong"
"[Lcd updated]",,LCD,,,"15 - 18",,,,2,,,"HP Inc Tradein - APJ",active,Lcd,Australia
"[Lcd updated]",,LCD,,,"19 - 21",,,,6,,,"HP Inc Tradein - APJ",active,Lcd,Australia
"[Lcd updated]",,LCD,,,"22 - 24",,,,16,,,"HP Inc Tradein - APJ",active,Lcd,Australia
"[Lcd updated]",,LCD,,,"25 - 27",,,,23,,,"HP Inc Tradein - APJ",active,Lcd,Australia
"[Lcd updated]",,LCD,,,"28 - 30",,,,28,,,"HP Inc Tradein - APJ",active,Lcd,Australia
"[Lcd updated]",,LCD,,,"15 - 18",,,,2,,,"HP Inc Tradein - APJ",active,Lcd,Japan
"[Lcd updated]",,LCD,,,"19 - 21",,,,6,,,"HP Inc Tradein - APJ",active,Lcd,Japan
"[Lcd updated]",,LCD,,,"22 - 24",,,,16,,,"HP Inc Tradein - APJ",active,Lcd,Japan
"[Lcd updated]",,LCD,,,"25 - 27",,,,23,,,"HP Inc Tradein - APJ",active,Lcd,Japan
"[Lcd updated]",,LCD,,,"28 - 30",,,,28,,,"HP Inc Tradein - APJ",active,Lcd,Japan
"[Lcd updated]",,LCD,,,"15 - 18",,,,12.8,,,"HP Inc Tradein - APJ",active,Lcd,India
"[Lcd updated]",,LCD,,,"19 - 21",,,,17.6,,,"HP Inc Tradein - APJ",active,Lcd,India
"[Lcd updated]",,LCD,,,"22 - 24",,,,29.6,,,"HP Inc Tradein - APJ",active,Lcd,India
"[Lcd updated]",,LCD,,,"25 - 27",,,,38,,,"HP Inc Tradein - APJ",active,Lcd,India
"[Lcd updated]",,LCD,,,"28 - 30",,,,44,,,"HP Inc Tradein - APJ",active,Lcd,India
"[Lcd added]",,LCD,,,"All Sizes",,,,0,,,"HP Inc Tradein - APJ",active,Lcd,
"[Processor added]",,All-in-One,,"Core 2",,,,,40,,,"HP Inc Tradein - APJ",active,Processor,Singapore
"[Processor added]",,All-in-One,,"AMD A Series",,,,,60,,,"HP Inc Tradein - APJ",active,Processor,Singapore
"[Processor added]",,All-in-One,,i3,,,,,90,,,"HP Inc Tradein - APJ",active,Processor,Singapore
"[Processor added]",,All-in-One,,i5,,,,,100,,,"HP Inc Tradein - APJ",active,Processor,Singapore
"[Processor added]",,All-in-One,,i7,,,,,120,,,"HP Inc Tradein - APJ",active,Processor,Singapore
"[Processor added]",,All-in-One,,"Core 2",,,,,40,,,"HP Inc Tradein - APJ",active,Processor,Malaysia
"[Processor added]",,All-in-One,,"AMD A Series",,,,,60,,,"HP Inc Tradein - APJ",active,Processor,Malaysia
"[Processor added]",,All-in-One,,i3,,,,,90,,,"HP Inc Tradein - APJ",active,Processor,Malaysia
"[Processor added]",,All-in-One,,i5,,,,,100,,,"HP Inc Tradein - APJ",active,Processor,Malaysia
"[Processor added]",,All-in-One,,i7,,,,,120,,,"HP Inc Tradein - APJ",active,Processor,Malaysia
"[Processor added]",,All-in-One,,"Core 2",,,,,40,,,"HP Inc Tradein - APJ",active,Processor,China
"[Processor added]",,All-in-One,,"AMD A Series",,,,,60,,,"HP Inc Tradein - APJ",active,Processor,China
"[Processor added]",,All-in-One,,i3,,,,,90,,,"HP Inc Tradein - APJ",active,Processor,China
"[Processor added]",,All-in-One,,i5,,,,,100,,,"HP Inc Tradein - APJ",active,Processor,China
"[Processor added]",,All-in-One,,i7,,,,,120,,,"HP Inc Tradein - APJ",active,Processor,China
"[Processor added]",,All-in-One,,"Core 2",,,,,40,,,"HP Inc Tradein - APJ",active,Processor,"Hong Kong"
"[Processor added]",,All-in-One,,"AMD A Series",,,,,60,,,"HP Inc Tradein - APJ",active,Processor,"Hong Kong"
"[Processor added]",,All-in-One,,i3,,,,,90,,,"HP Inc Tradein - APJ",active,Processor,"Hong Kong"
"[Processor added]",,All-in-One,,i5,,,,,100,,,"HP Inc Tradein - APJ",active,Processor,"Hong Kong"
"[Processor added]",,All-in-One,,i7,,,,,120,,,"HP Inc Tradein - APJ",active,Processor,"Hong Kong"
"[Processor added]",,All-in-One,,"Core 2",,,,,35,,,"HP Inc Tradein - APJ",active,Processor,Australia
"[Processor added]",,All-in-One,,"AMD A Series",,,,,55,,,"HP Inc Tradein - APJ",active,Processor,Australia
"[Processor added]",,All-in-One,,i3,,,,,85,,,"HP Inc Tradein - APJ",active,Processor,Australia
"[Processor added]",,All-in-One,,i5,,,,,95,,,"HP Inc Tradein - APJ",active,Processor,Australia
"[Processor added]",,All-in-One,,i7,,,,,115,,,"HP Inc Tradein - APJ",active,Processor,Australia
"[Processor added]",,All-in-One,,"Core 2",,,,,35,,,"HP Inc Tradein - APJ",active,Processor,Japan
"[Processor added]",,All-in-One,,"AMD A Series",,,,,55,,,"HP Inc Tradein - APJ",active,Processor,Japan
"[Processor added]",,All-in-One,,i3,,,,,85,,,"HP Inc Tradein - APJ",active,Processor,Japan
"[Processor added]",,All-in-One,,i5,,,,,95,,,"HP Inc Tradein - APJ",active,Processor,Japan
"[Processor added]",,All-in-One,,i7,,,,,115,,,"HP Inc Tradein - APJ",active,Processor,Japan
"[Processor added]",,All-in-One,,"Core 2",,,,,52,,,"HP Inc Tradein - APJ",active,Processor,India
"[Processor added]",,All-in-One,,"AMD A Series",,,,,77,,,"HP Inc Tradein - APJ",active,Processor,India
"[Processor added]",,All-in-One,,i3,,,,,112,,,"HP Inc Tradein - APJ",active,Processor,India
"[Processor added]",,All-in-One,,i5,,,,,122,,,"HP Inc Tradein - APJ",active,Processor,India
"[Processor added]",,All-in-One,,i7,,,,,147,,,"HP Inc Tradein - APJ",active,Processor,India
