model,"product type",brand,processor,screen,hdd,ram,dvd,price,"margin $","margin %",client,status,confgitype,country
,Notebook,,"i3 - Gen 5",,,,,159.00,,,,active,Processor,
,Notebook,,"i5 - Gen 2",,,,,81.00,,,,active,Processor,
,Notebook,,"i5 - Gen 1",,,,,72.00,,,,active,Processor,
,Notebook,,"i5 - Gen 3",,,,,97.00,,,,active,Processor,
,Notebook,,"i7 - Gen 1",,,,,75.00,,,,active,Processor,
,Notebook,,"i3 - Gen 4",,,,,130.00,,,,active,Processor,
,Notebook,,"i3 - Gen 3",,,,,81.00,,,,active,Processor,
,Notebook,,"i3 - Gen 2",,,,,72.00,,,,active,Processor,
,Notebook,,"i3 - Gen 1",,,,,65.00,,,,active,Processor,
,Notebook,,Core2Duo,,,,,24.00,,,,active,Processor,
,Notebook,,CoreDuo,,,,,20.00,,,,active,Processor,
,Notebook,,A10,,,,,103.00,,,,active,Processor,
,Notebook,,A8,,,,,80.00,,,,active,Processor,
,Notebook,,A6,,,,,60.00,,,,active,Processor,
,Notebook,,A4,,,,,42.00,,,,active,Processor,
,Notebook,,"AMD Phenom II",,,,,23.00,,,,active,Processor,
,Notebook,,"AMD Athlon II",,,,,18.00,,,,active,Processor,
,All-in-One,,Core2Duo,,,,,17.00,,,,active,Processor,
,Notebook,,"Pentium 3 / 4",,,,,10.00,,,,active,Processor,
,Notebook,,"i7 - Gen 3",,,,,122.00,,,,active,Processor,
,Notebook,,"i7 - Gen 2",,,,,103.00,,,,active,Processor,
,Desktop,,"i7 - Gen 4",,,,,143.00,,,,active,Processor,
,Desktop,,"i7 - Gen 3",,,,,103.00,,,,active,Processor,
,Desktop,,"i7 - Gen 2",,,,,89.00,,,,active,Processor,
,Desktop,,"i7 - Gen 1",,,,,75.00,,,,active,Processor,
,Desktop,,"i5 - Gen 4",,,,,112.00,,,,active,Processor,
,Desktop,,"i5 - Gen 3",,,,,81.00,,,,active,Processor,
,Desktop,,"i5 - Gen 2",,,,,72.00,,,,active,Processor,
,Desktop,,"i5 - Gen 1",,,,,61.00,,,,active,Processor,
,All-in-One,,CoreDuo,,,,,13.00,,,,active,Processor,
,Desktop,,"i3 - Gen 3",,,,,72.00,,,,active,Processor,
,Desktop,,"i3 - Gen 2",,,,,58.00,,,,active,Processor,
,Desktop,,"i3 - Gen 1",,,,,50.00,,,,active,Processor,
"Latitude E7240",Notebook,Dell,"i7 - Gen 4","14""",500GB,8GB,Yes,,,,,active,Model,
,Desktop,,Core2Duo,,,,,17.00,,,,active,Processor,
,Desktop,,CoreDuo,,,,,13.00,,,,active,Processor,
,Desktop,,A10,,,,,61.00,,,,active,Processor,
,Desktop,,A8,,,,,56.00,,,,active,Processor,
,Desktop,,A6,,,,,40.00,,,,active,Processor,
,Desktop,,A4,,,,,18.00,,,,active,Processor,
,Desktop,,"AMD Phenom II",,,,,14.00,,,,active,Processor,
,Desktop,,"AMD Athlon II",,,,,14.00,,,,active,Processor,
,All-in-One,,Core2Quad,,,,,34.00,,,,active,Processor,
,Desktop,,"Pentium 3 / 4",,,,,10.00,,,,active,Processor,
,Notebook,,"i7 - Gen 4",,,,,183.00,,,,active,Processor,
,LCD,,,"24""",,,,40.00,,,,active,Lcd,
,LCD,,,"23""",,,,40.00,,,,active,Lcd,
,LCD,,,"22""",,,,34.00,,,,active,Lcd,
,LCD,,,"21""",,,,26.00,,,,active,Lcd,
,LCD,,,"20""",,,,21.00,,,,active,Lcd,
,LCD,,,"19""",,,,16.00,,,,active,Lcd,
,LCD,,,"18""",,,,14.00,,,,active,Lcd,
,LCD,,,"17""",,,,11.00,,,,active,Lcd,
,Notebook,,"i3 - Gen 4",,,,,117.00,,,"HP Inc",active,Processor,
,Notebook,,"i5 - Gen 2",,,,,81.00,,,,active,Processor,
,Notebook,,"i5 - Gen 3",,,,,87.00,,,"HP Inc",active,Processor,
,All-in-One,,"i7 - Gen 4",,,,,143.00,,,,active,Processor,
,All-in-One,,"i7 - Gen 3",,,,,103.00,,,,active,Processor,
,All-in-One,,"i7 - Gen 2",,,,,89.00,,,,active,Processor,
,All-in-One,,"i7 - Gen 1",,,,,75.00,,,,active,Processor,
,All-in-One,,"i5 - Gen 4",,,,,112.00,,,,active,Processor,
,All-in-One,,"i5 - Gen 3",,,,,81.00,,,,active,Processor,
,All-in-One,,"i5 - Gen 2",,,,,72.00,,,,active,Processor,
,All-in-One,,"i5 - Gen 1",,,,,61.00,,,,active,Processor,
,All-in-One,,"i3 - Gen 4",,,,,87.00,,,,active,Processor,
,All-in-One,,"i3 - Gen 3",,,,,72.00,,,,active,Processor,
,All-in-One,,"i3 - Gen 2",,,,,58.00,,,,active,Processor,
,All-in-One,,"i3 - Gen 1",,,,,50.00,,,,active,Processor,
,Notebook,,Centrino,,,,,20.00,,,,active,Processor,
,Notebook,,"i3 - Gen 5",,,,,159.00,,,,active,Processor,
,Notebook,,"i5 - Gen 5",,,,,172.00,,,,active,Processor,
,Notebook,,"i5 - Gen 4",,,,,143.00,,,,active,Processor,
,Notebook,,"i5 - Gen 2",,,,,81.00,,,,active,Processor,
,All-in-One,,A10,,,,,61.00,,,,active,Processor,
,All-in-One,,A8,,,,,56.00,,,,active,Processor,
,All-in-One,,A6,,,,,40.00,,,,active,Processor,
,All-in-One,,A4,,,,,18.00,,,,active,Processor,
,All-in-One,,"AMD Phenom II",,,,,14.00,,,,active,Processor,
,All-in-One,,"AMD Athlon II",,,,,14.00,,,,active,Processor,
,Notebook,,"i5 - Gen 1",,,,,72.00,,,,active,Processor,
,All-in-One,,"Pentium 3 / 4",,,,,10.00,,,,active,Processor,
,Notebook,,"i7 - Gen 5",,,,,212.00,,,,active,Processor,
"Elitedesk 800 ",Desktop,HP,"i5 - Gen 4",,750GB,8GB,Yes,,,,,active,Model,
,All-in-One,,A12,,,,,73.00,,,,active,Processor,
,Notebook,,"i7 - Gen 5",,,,,191.00,,,"HP Inc",active,Processor,
,Notebook,,"i7 - Gen 4",,,,,165.00,,,"HP Inc",active,Processor,
,Notebook,,"i7 - Gen 3",,,,,110.00,,,"HP Inc",active,Processor,
,Notebook,,"i7 - Gen 2",,,,,93.00,,,"HP Inc",active,Processor,
,Notebook,,"i7 - Gen 1",,,,,68.00,,,"HP Inc",active,Processor,
,Notebook,,"i5 - Gen 5",,,,,155.00,,,"HP Inc",active,Processor,
,Notebook,,"i5 - Gen 4",,,,,129.00,,,"HP Inc",active,Processor,
,Notebook,,A12,,,,,122.00,,,,active,Processor,
,Desktop,,"i7 - Gen 5",,,,,179.00,,,,active,Processor,
,Desktop,,"i5 - Gen 5",,,,,121.00,,,,active,Processor,
,Desktop,,"i3 - Gen 5",,,,,95.00,,,,active,Processor,
,Desktop,,"i3 - Gen 4",,,,,87.00,,,,active,Processor,
,Desktop,,Core2Quad,,,,,34.00,,,,active,Processor,
,Desktop,,A12,,,,,73.00,,,,active,Processor,
,All-in-One,,"i7 - Gen 5",,,,,179.00,,,,active,Processor,
,All-in-One,,"i5 - Gen 5",,,,,121.00,,,,active,Processor,
,All-in-One,,"i3 - Gen 5",,,,,95.00,,,,active,Processor,
,Notebook,,"i3 - Gen 3",,,,,73.00,,,"HP Inc",active,Processor,
,Notebook,,"i3 - Gen 2",,,,,65.00,,,"HP Inc",active,Processor,
,Notebook,,"i3 - Gen 1",,,,,59.00,,,"HP Inc",active,Processor,
,Notebook,,Core2Duo,,,,,22.00,,,"HP Inc",active,Processor,
,Notebook,,CoreDuo,,,,,18.00,,,"HP Inc",active,Processor,
,Notebook,,Centrino,,,,,18.00,,,"HP Inc",active,Processor,
,Notebook,,A12,,,,,110.00,,,"HP Inc",active,Processor,
,Notebook,,A10,,,,,93.00,,,"HP Inc",active,Processor,
,Notebook,,A8,,,,,72.00,,,"HP Inc",active,Processor,
,Notebook,,A6,,,,,54.00,,,"HP Inc",active,Processor,
,Notebook,,A4,,,,,38.00,,,"HP Inc",active,Processor,
,Notebook,,"AMD Phenom II",,,,,21.00,,,"HP Inc",active,Processor,
,Notebook,,"AMD Athlon II",,,,,16.00,,,"HP Inc",active,Processor,
,Notebook,,"Pentium 3 / 4",,,,,9.00,,,"HP Inc",active,Processor,
,Desktop,,"i7 - Gen 5",,,,,161.00,,,"HP Inc",active,Processor,
,Desktop,,"i7 - Gen 4",,,,,129.00,,,"HP Inc",active,Processor,
,Desktop,,"i7 - Gen 3",,,,,93.00,,,"HP Inc",active,Processor,
,Desktop,,"i7 - Gen 2",,,,,80.00,,,"HP Inc",active,Processor,
,Desktop,,"i7 - Gen 1",,,,,68.00,,,"HP Inc",active,Processor,
,Desktop,,"i5 - Gen 5",,,,,109.00,,,"HP Inc",active,Processor,
,Desktop,,"i5 - Gen 4",,,,,101.00,,,"HP Inc",active,Processor,
,Desktop,,"i5 - Gen 3",,,,,73.00,,,"HP Inc",active,Processor,
,Desktop,,"i5 - Gen 2",,,,,65.00,,,"HP Inc",active,Processor,
,Desktop,,"i5 - Gen 1",,,,,55.00,,,"HP Inc",active,Processor,
,Desktop,,"i3 - Gen 5",,,,,86.00,,,"HP Inc",active,Processor,
,Desktop,,"i3 - Gen 4",,,,,78.00,,,"HP Inc",active,Processor,
,Desktop,,"i3 - Gen 3",,,,,65.00,,,"HP Inc",active,Processor,
,Desktop,,"i3 - Gen 2",,,,,52.00,,,"HP Inc",active,Processor,
,Desktop,,"i3 - Gen 1",,,,,45.00,,,"HP Inc",active,Processor,
,Desktop,,Core2Quad,,,,,31.00,,,"HP Inc",active,Processor,
,Desktop,,Core2Duo,,,,,15.00,,,"HP Inc",active,Processor,
,Desktop,,CoreDuo,,,,,12.00,,,"HP Inc",active,Processor,
,Desktop,,A12,,,,,66.00,,,"HP Inc",active,Processor,
,Desktop,,A10,,,,,55.00,,,"HP Inc",active,Processor,
,Desktop,,A8,,,,,50.00,,,"HP Inc",active,Processor,
,Desktop,,A6,,,,,36.00,,,"HP Inc",active,Processor,
,Desktop,,A4,,,,,16.00,,,"HP Inc",active,Processor,
,Desktop,,"AMD Phenom II",,,,,13.00,,,"HP Inc",active,Processor,
,Desktop,,"AMD Athlon II",,,,,13.00,,,"HP Inc",active,Processor,
,Desktop,,"Pentium 3 / 4",,,,,9.00,,,"HP Inc",active,Processor,
,LCD,,,"24""",,,,36.00,,,"HP Inc",active,Lcd,
,LCD,,,"23""",,,,36.00,,,"HP Inc",active,Lcd,
,LCD,,,"22""",,,,31.00,,,"HP Inc",active,Lcd,
,LCD,,,"21""",,,,23.00,,,"HP Inc",active,Lcd,
,LCD,,,"20""",,,,19.00,,,"HP Inc",active,Lcd,
,LCD,,,"19""",,,,14.00,,,"HP Inc",active,Lcd,
,LCD,,,"18""",,,,13.00,,,"HP Inc",active,Lcd,
,LCD,,,"17""",,,,10.00,,,"HP Inc",active,Lcd,
,All-in-One,,"i7 - Gen 5",,,,,161.00,,,"HP Inc",active,Processor,
,All-in-One,,"i7 - Gen 4",,,,,129.00,,,"HP Inc",active,Processor,
,All-in-One,,"i7 - Gen 3",,,,,93.00,,,"HP Inc",active,Processor,
,All-in-One,,"i7 - Gen 2",,,,,80.00,,,"HP Inc",active,Processor,
,All-in-One,,"i7 - Gen 1",,,,,68.00,,,"HP Inc",active,Processor,
,All-in-One,,"i5 - Gen 5",,,,,109.00,,,"HP Inc",active,Processor,
,All-in-One,,"i5 - Gen 4",,,,,101.00,,,"HP Inc",active,Processor,
,All-in-One,,"i5 - Gen 3",,,,,73.00,,,"HP Inc",active,Processor,
,All-in-One,,"i5 - Gen 2",,,,,65.00,,,"HP Inc",active,Processor,
,All-in-One,,"i5 - Gen 1",,,,,55.00,,,"HP Inc",active,Processor,
,All-in-One,,"i3 - Gen 5",,,,,86.00,,,"HP Inc",active,Processor,
,All-in-One,,"i3 - Gen 4",,,,,78.00,,,"HP Inc",active,Processor,
,All-in-One,,"i3 - Gen 3",,,,,65.00,,,"HP Inc",active,Processor,
,All-in-One,,"i3 - Gen 2",,,,,52.00,,,"HP Inc",active,Processor,
,All-in-One,,"i3 - Gen 1",,,,,45.00,,,"HP Inc",active,Processor,
,All-in-One,,Core2Quad,,,,,31.00,,,"HP Inc",active,Processor,
,All-in-One,,Core2Duo,,,,,15.00,,,"HP Inc",active,Processor,
,All-in-One,,CoreDuo,,,,,12.00,,,"HP Inc",active,Processor,
,All-in-One,,A12,,,,,66.00,,,"HP Inc",active,Processor,
,All-in-One,,A10,,,,,55.00,,,"HP Inc",active,Processor,
,All-in-One,,A8,,,,,50.00,,,"HP Inc",active,Processor,
,All-in-One,,A6,,,,,36.00,,,"HP Inc",active,Processor,
,All-in-One,,A4,,,,,16.00,,,"HP Inc",active,Processor,
,All-in-One,,"AMD Phenom II",,,,,13.00,,,"HP Inc",active,Processor,
,All-in-One,,"AMD Athlon II",,,,,13.00,,,"HP Inc",active,Processor,
,All-in-One,,"Pentium 3 / 4",,,,,9.00,,,"HP Inc",active,Processor,
,Notebook,,"i5 - Gen 1",,,,,65.00,,,"HP Inc",active,Processor,
,Notebook,,"i3 - Gen 5",,,,,143.00,,,"HP Inc",active,Processor,
,Notebook,,"i5 - Gen 2",,,,,73.00,,,"HP Inc",active,Processor,
,Tablet,,"Pro 256GB - Wifi + Cellular - 10.5""",,,,,165.00,,,,active,Processor,
,Tablet,,"Pro 256GB - Wifi + Cellular - 12.9""",,,,,170.00,,,,active,Processor,
