model,"product type",brand,processor,screen,hdd,ram,dvd,price,"margin $","margin %",client,status,confgitype,country
,All-in-One,Acer,"Macbook Pro17 - Intel Core i7  1st gen",,,,,121.00,,,"HP Inc - Worldwide",active,Processor,
,Notebook,HP,"i7 - Gen 4",,,,,72.00,,,"HP Inc - Worldwide",active,Processor,
,All-in-One,HP,"AMD Athlon II",,,,,137.70,,,"HP Inc - Worldwide",active,Processor,
,Notebook,,"i5 - Gen 3",,,,,93.60,,,,active,Processor,
,Notebook,,"i5 - Gen 2",,320GB,,No,78.30,,,,active,Processor,
,Notebook,,"i5 - Gen 1",,,,,,,20.00,,active,Processor,
,Notebook,,"i3 - Gen 4",,,,,126.00,,,,active,Processor,
,Notebook,,"i3 - Gen 3",,,,,78.30,,,,active,Processor,
,Notebook,,"i3 - Gen 2",,,,,69.30,,,,active,Processor,
,Notebook,,"i3 - Gen 1",,,,,63.00,,,,active,Processor,
,Notebook,,Core2Duo,,,,,22.00,,,,active,Processor,
,Notebook,,CoreDuo,,,,,19.00,,,,active,Processor,
,Notebook,,A10,,,,,99.00,,,,active,Processor,
,Notebook,,A8,,,,,76.50,,,,active,Processor,
,Notebook,,A6,,,,,58.50,,,,active,Processor,
,Notebook,,A4,,,,,40.50,,,,active,Processor,
,Notebook,,"AMD Phenom II",,,,,21.00,,,,active,Processor,
,Notebook,,"AMD Athlon II",,,,,16.00,,,,active,Processor,
,Notebook,,,,,,,19.80,,,,active,Processor,
,Notebook,,"Pentium 3 / 4",,,,,11.70,,,,active,Processor,
,Notebook,,Other,,,,,8.00,,,,active,Processor,
,Notebook,,"i5 - Gen 2",,,,,,50.00,,"Store B",active,Processor,
,Desktop,,"i7 - Gen 4",,,,,137.70,,,,active,Processor,
,Desktop,,"i7 - Gen 3",,,,,99.00,,,,active,Processor,
,Desktop,,"i7 - Gen 2",,,,,86.40,,,,active,Processor,
,Desktop,,"i7 - Gen 1",,,,,72.00,,,,active,Processor,
,Desktop,,"i5 - Gen 4",,,,,108.00,,,,active,Processor,
,Desktop,,"i5 - Gen 3",,,,,78.30,,,,active,Processor,
,Desktop,,"i5 - Gen 2",,,,,69.30,,,,active,Processor,
,Desktop,,"i5 - Gen 1",,,,,59.40,,,,active,Processor,
,Desktop,,,,,,,84.60,,,,active,Processor,
,Desktop,,"i3 - Gen 3",,,,,69.30,,,,active,Processor,
,Desktop,,"i3 - Gen 2",,,,,55.80,,,,active,Processor,
,Desktop,,"i3 - Gen 1",,,,,48.60,,,,active,Processor,
"Latitude E7240",Notebook,Dell,"i7 - Gen 4","14""",500GB,8GB,Yes,,,,,active,Model,
,Desktop,,Core2Duo,,,,,13.50,,,,active,Processor,
,Desktop,,CoreDuo,,,,,10.80,,,,active,Processor,
,Desktop,,A10,,,,,59.40,,,,active,Processor,
,Desktop,,A8,,,,,54.00,,,,active,Processor,
,Desktop,,A6,,,,,38.70,,,,active,Processor,
,Desktop,,A4,,,,,18.00,,,,active,Processor,
,Desktop,,"AMD Phenom II",,,,,18.00,,,,active,Processor,
,Desktop,,"AMD Athlon II",,,,,9.90,,,,active,Processor,
,Desktop,,,,,,,9.90,,,,active,Processor,
,Desktop,,"Pentium 3 / 4",,,,,7.20,,,,active,Processor,
,Desktop,,Other,,,,,0.00,,,,active,Processor,
,LCD,,,"24""",,,,41.40,,,,active,Lcd,
,LCD,,,"23""",,,,36.90,,,,active,Lcd,
,LCD,,,"22""",,,,31.50,,,,active,Lcd,
,LCD,,,"21""",,,,24.30,,,,active,Lcd,
,LCD,,,"20""",,,,19.80,,,,active,Lcd,
,LCD,,,"19""",,,,15.30,,,,active,Lcd,
,LCD,,,"18""",,,,12.60,,,,active,Lcd,
,LCD,,,"17""",,,,9.90,,,,active,Lcd,
"Elitebook 840 G1",Notebook,HP,"i7 - Gen 4","14""",750GB,8GB,No,,,,,active,Model,
2570,Notebook,HP,"i5 - Gen 2",,320GB,4GB,No,,,,,active,Model,
6460,Notebook,HP,"i5 - Gen 2","14""",500GB,4GB,Yes,,,,,active,Model,
6570,Notebook,HP,"i5 - Gen 3","14""",500GB,4GB,Yes,,,,,active,Model,
,All-in-One,,"i7 - Gen 4",,,,,137.70,,,,active,Processor,
,All-in-One,,"i7 - Gen 3",,,,,99.00,,,,active,Processor,
,All-in-One,,"i7 - Gen 2",,,,,86.40,,,,active,Processor,
,All-in-One,,"i7 - Gen 1",,,,,72.00,,,,active,Processor,
,All-in-One,,"i5 - Gen 4",,,,,108.00,,,,active,Processor,
,All-in-One,,"i5 - Gen 3",,,,,78.30,,,,active,Processor,
,All-in-One,,"i5 - Gen 2",,,,,69.30,,,,active,Processor,
,All-in-One,,"i5 - Gen 1",,,,,59.40,,,,active,Processor,
,All-in-One,,"i3 - Gen 4",,,,,84.60,,,,active,Processor,
,All-in-One,,"i3 - Gen 3",,,,,69.30,,,,active,Processor,
,All-in-One,,"i3 - Gen 2",,,,,55.80,,,,active,Processor,
,All-in-One,,"i3 - Gen 1",,,,,48.60,,,,active,Processor,
,All-in-One,,"Intel Core2Duo / DualCore  3.10 GHz. above",,,,,43.20,,,,active,Processor,
,All-in-One,,"Intel Core2Duo / DualCore  3.00 - 2.10 GHz",,,,,37.80,,,,active,Processor,
,All-in-One,,"Intel Core2Duo / DualCore  2.00 GHz. below",,,,,27.00,,,,active,Processor,
,All-in-One,,"Intel CoreDuo / CentrinoDuo  3.10 GHz. above",,,,,21.60,,,,active,Processor,
,All-in-One,,"Intel CoreDuo / CentrinoDuo  3.00 - 2.10 GHz.",,,,,21.60,,,,active,Processor,
,All-in-One,,"Intel CoreDuo / CentrinoDuo  2.00 GHz. below",,,,,16.20,,,,active,Processor,
,All-in-One,,A10,,,,,16.20,,,,active,Processor,
,All-in-One,,A8,,,,,16.20,,,,active,Processor,
,All-in-One,,A6,,,,,12.96,,,,active,Processor,
,All-in-One,,A4,,,,,71.28,,,,active,Processor,
,All-in-One,,"AMD Phenom II",,,,,64.80,,,,active,Processor,
,All-in-One,,"AMD Athlon II",,,,,21.60,,,,active,Processor,
,All-in-One,,,,,,,16.20,,,,active,Processor,
,All-in-One,,"Pentium 3 / 4",,,,,15.12,,,,active,Processor,
,All-in-One,,Other,,,,,11.88,,,,active,Processor,
"Elitedesk 800 ",Desktop,HP,"i5 - Gen 4",,750GB,8GB,Yes,,,,,active,Model,
,Notebook,,"i5 - Gen 2",,,,,1000.00,,,,active,Processor,
,Notebook,,"i5 - Gen 3",,,,,,,100.00,"HP Inc - Worldwide",active,Processor,
7000,Notebook,HP,"i3 - Gen 3",,,,,100.00,,,,active,Model,
"model ABC",Notebook,HP,"i3 - Gen 1","15""",500GB,8GB,No,95.00,,,,active,Model,
"model efg",Notebook,HP,"i7 - Gen 2","14""",500GB,4GB,Yes,,15.00,,,active,Model,
,Notebook,HP,"i3 - Gen 3",,,,,92.00,,,"HP Inc - Worldwide",active,Processor,
"model hij",Desktop,HP,,,1TB,8GB,No,,,10.00,,active,,
,Notebook,Dell,"i3 - Gen 2",,,,,69.30,,,,active,Processor,
,Desktop,,,,,,,45.00,,,,active,Processor,
9000,Notebook,HP,"i5 - Gen 4","14""",,,,200.00,,,,active,Model,
0,Desktop,HP,,,,,,92.00,,,,active,,
,Desktop,,,,,,,23.00,,,,active,Processor,
,Notebook,Apple,"i7 - Gen 3",,,,,,129.00,,,active,Processor,
,Notebook,Apple,A10,,,,,120.00,,,,active,Processor,
,Notebook,Apple,"i7 - Gen 3",,,,,121.00,,,,active,Processor,
,Notebook,,"Core i5  3rd gen",,,,,93.60,,,,active,Processor,
,Notebook,,"Core i5  3rd gen",,,,,,,100.00,"HP Inc - Worldwide",active,Processor,
,Notebook,,"Core i5  2nd gen",,,,,1000.00,,,,active,Processor,
,Notebook,,"Core i5  2nd gen",,,,,,50.00,,"Store B",active,Processor,
,Notebook,,"Core i5  1st gen",,,,,,,20.00,,active,Processor,
