model,product type,brand,processor,screen,hdd,ram,dvd,price,margin $,margin %,client,status,confgitype
,Notebook,,i5 - Gen 1,,,,,72,,,,active,Processor
,Notebook,,i5 - Gen 3,,,,,97,,,,active,Processor
,Notebook,,i7 - Gen 1,,,,,75,,,,active,Processor
,Notebook,,i3 - Gen 4,,,,,130,,,,active,Processor
,Notebook,,i3 - Gen 3,,,,,81,,,,active,Processor
,Notebook,,i3 - Gen 2,,,,,72,,,,active,Processor
,Notebook,,i3 - Gen 1,,,,,65,,,,active,Processor
,Notebook,,Core2Duo,,,,,24,,,,active,Processor
,Notebook,,CoreDuo,,,,,20,,,,active,Processor
,Notebook,,A10,,,,,103,,,,active,Processor
,Notebook,,A8,,,,,80,,,,active,Processor
,Notebook,,A6,,,,,60,,,,active,Processor
,Notebook,,A4,,,,,42,,,,active,Processor
,Notebook,,AMD Phenom II,,,,,23,,,,active,Processor
,Notebook,,AMD Athlon II,,,,,18,,,,active,Processor
,All-in-One,,Core2Duo,,,,,17,,,,active,Processor
,Notebook,,Pentium 3 / 4,,,,,10,,,,active,Processor
,Notebook,,i7 - Gen 3,,,,,122,,,,active,Processor
,Notebook,,i7 - Gen 2,,,,,103,,,,active,Processor
,Desktop,,i7 - Gen 4,,,,,143,,,,active,Processor
,Desktop,,i7 - Gen 3,,,,,103,,,,active,Processor
,Desktop,,i7 - Gen 2,,,,,89,,,,active,Processor
,Desktop,,i7 - Gen 1,,,,,75,,,,active,Processor
,Desktop,,i5 - Gen 4,,,,,112,,,,active,Processor
,Desktop,,i5 - Gen 3,,,,,81,,,,active,Processor
,Desktop,,i5 - Gen 2,,,,,72,,,,active,Processor
,Desktop,,i5 - Gen 1,,,,,61,,,,active,Processor
,All-in-One,,CoreDuo,,,,,13,,,,active,Processor
,Desktop,,i3 - Gen 3,,,,,72,,,,active,Processor
,Desktop,,i3 - Gen 2,,,,,58,,,,active,Processor
,Desktop,,i3 - Gen 1,,,,,50,,,,active,Processor
Latitude E7240,Notebook,Dell,i7 - Gen 4,"14""",500GB,8GB,Yes,,,,,active,Model
,Desktop,,Core2Duo,,,,,17,,,,active,Processor
,Desktop,,CoreDuo,,,,,13,,,,active,Processor
,Desktop,,A10,,,,,61,,,,active,Processor
,Desktop,,A8,,,,,56,,,,active,Processor
,Desktop,,A6,,,,,40,,,,active,Processor
,Desktop,,A4,,,,,18,,,,active,Processor
,Desktop,,AMD Phenom II,,,,,14,,,,active,Processor
,Desktop,,AMD Athlon II,,,,,14,,,,active,Processor
,All-in-One,,Core2Quad,,,,,34,,,,active,Processor
,Desktop,,Pentium 3 / 4,,,,,10,,,,active,Processor
,Notebook,,i7 - Gen 4,,,,,183,,,,active,Processor
,LCD,,,"24""",,,,40,,,,active,Lcd
,LCD,,,"23""",,,,40,,,,active,Lcd
,LCD,,,"22""",,,,34,,,,active,Lcd
,LCD,,,"21""",,,,26,,,,active,Lcd
,LCD,,,"20""",,,,21,,,,active,Lcd
,LCD,,,"19""",,,,16,,,,active,Lcd
,LCD,,,"18""",,,,14,,,,active,Lcd
,LCD,,,"17""",,,,11,,,,active,Lcd
,Notebook,,i3 - Gen 4,,,,,117,,,HPI - All Countries,active,Processor
,Notebook,,i5 - Gen 3,,,,,87,,,HPI - All Countries,active,Processor
,All-in-One,,i7 - Gen 4,,,,,143,,,,active,Processor
,All-in-One,,i7 - Gen 3,,,,,103,,,,active,Processor
,All-in-One,,i7 - Gen 2,,,,,89,,,,active,Processor
,All-in-One,,i7 - Gen 1,,,,,75,,,,active,Processor
,All-in-One,,i5 - Gen 4,,,,,112,,,,active,Processor
,All-in-One,,i5 - Gen 3,,,,,81,,,,active,Processor
,All-in-One,,i5 - Gen 2,,,,,72,,,,active,Processor
,All-in-One,,i5 - Gen 1,,,,,61,,,,active,Processor
,All-in-One,,i3 - Gen 4,,,,,87,,,,active,Processor
,All-in-One,,i3 - Gen 3,,,,,72,,,,active,Processor
,All-in-One,,i3 - Gen 2,,,,,58,,,,active,Processor
,All-in-One,,i3 - Gen 1,,,,,50,,,,active,Processor
,Notebook,,Centrino,,,,,20,,,,active,Processor
,Notebook,,i3 - Gen 5,,,,,159,,,,active,Processor
,Notebook,,i5 - Gen 5,,,,,172,,,,active,Processor
,Notebook,,i5 - Gen 4,,,,,143,,,,active,Processor
,Notebook,,i5 - Gen 2,,,,,81,,,,active,Processor
,All-in-One,,A10,,,,,61,,,,active,Processor
,All-in-One,,A8,,,,,56,,,,active,Processor
,All-in-One,,A6,,,,,40,,,,active,Processor
,All-in-One,,A4,,,,,18,,,,active,Processor
,All-in-One,,AMD Phenom II,,,,,14,,,,active,Processor
,All-in-One,,AMD Athlon II,,,,,14,,,,active,Processor
,All-in-One,,Pentium 3 / 4,,,,,10,,,,active,Processor
,Notebook,,i7 - Gen 5,,,,,212,,,,active,Processor
Elitedesk 800 ,Desktop,HP,i5 - Gen 4,,750GB,8GB,Yes,,,,,active,Model
,All-in-One,,A12,,,,,73,,,,active,Processor
,Notebook,,i7 - Gen 5,,,,,191,,,HPI - All Countries,active,Processor
,Notebook,,i7 - Gen 4,,,,,165,,,HPI - All Countries,active,Processor
,Notebook,,i7 - Gen 3,,,,,110,,,HPI - All Countries,active,Processor
,Notebook,,i7 - Gen 2,,,,,93,,,HPI - All Countries,active,Processor
,Notebook,,i7 - Gen 1,,,,,68,,,HPI - All Countries,active,Processor
,Notebook,,i5 - Gen 5,,,,,155,,,HPI - All Countries,active,Processor
,Notebook,,i5 - Gen 4,,,,,129,,,HPI - All Countries,active,Processor
,Notebook,,A12,,,,,122,,,,active,Processor
,Desktop,,i7 - Gen 5,,,,,179,,,,active,Processor
,Desktop,,i5 - Gen 5,,,,,121,,,,active,Processor
,Desktop,,i3 - Gen 5,,,,,95,,,,active,Processor
,Desktop,,i3 - Gen 4,,,,,87,,,,active,Processor
,Desktop,,Core2Quad,,,,,34,,,,active,Processor
,Desktop,,A12,,,,,73,,,,active,Processor
,All-in-One,,i7 - Gen 5,,,,,179,,,,active,Processor
,All-in-One,,i5 - Gen 5,,,,,121,,,,active,Processor
,All-in-One,,i3 - Gen 5,,,,,95,,,,active,Processor
,Notebook,,i3 - Gen 3,,,,,73,,,HPI - All Countries,active,Processor
,Notebook,,i3 - Gen 2,,,,,65,,,HPI - All Countries,active,Processor
,Notebook,,i3 - Gen 1,,,,,59,,,HPI - All Countries,active,Processor
,Notebook,,Core2Duo,,,,,22,,,HPI - All Countries,active,Processor
,Notebook,,CoreDuo,,,,,18,,,HPI - All Countries,active,Processor
,Notebook,,Centrino,,,,,18,,,HPI - All Countries,active,Processor
,Notebook,,A12,,,,,110,,,HPI - All Countries,active,Processor
,Notebook,,A10,,,,,93,,,HPI - All Countries,active,Processor
,Notebook,,A8,,,,,72,,,HPI - All Countries,active,Processor
,Notebook,,A6,,,,,54,,,HPI - All Countries,active,Processor
,Notebook,,A4,,,,,38,,,HPI - All Countries,active,Processor
,Notebook,,AMD Phenom II,,,,,21,,,HPI - All Countries,active,Processor
,Notebook,,AMD Athlon II,,,,,16,,,HPI - All Countries,active,Processor
,Notebook,,Pentium 3 / 4,,,,,9,,,HPI - All Countries,active,Processor
,Desktop,,i7 - Gen 5,,,,,161,,,HPI - All Countries,active,Processor
,Desktop,,i7 - Gen 4,,,,,129,,,HPI - All Countries,active,Processor
,Desktop,,i7 - Gen 3,,,,,93,,,HPI - All Countries,active,Processor
,Desktop,,i7 - Gen 2,,,,,80,,,HPI - All Countries,active,Processor
,Desktop,,i7 - Gen 1,,,,,68,,,HPI - All Countries,active,Processor
,Desktop,,i5 - Gen 5,,,,,109,,,HPI - All Countries,active,Processor
,Desktop,,i5 - Gen 4,,,,,101,,,HPI - All Countries,active,Processor
,Desktop,,i5 - Gen 3,,,,,73,,,HPI - All Countries,active,Processor
,Desktop,,i5 - Gen 2,,,,,65,,,HPI - All Countries,active,Processor
,Desktop,,i5 - Gen 1,,,,,55,,,HPI - All Countries,active,Processor
,Desktop,,i3 - Gen 5,,,,,86,,,HPI - All Countries,active,Processor
,Desktop,,i3 - Gen 4,,,,,78,,,HPI - All Countries,active,Processor
,Desktop,,i3 - Gen 3,,,,,65,,,HPI - All Countries,active,Processor
,Desktop,,i3 - Gen 2,,,,,52,,,HPI - All Countries,active,Processor
,Desktop,,i3 - Gen 1,,,,,45,,,HPI - All Countries,active,Processor
,Desktop,,Core2Quad,,,,,31,,,HPI - All Countries,active,Processor
,Desktop,,Core2Duo,,,,,15,,,HPI - All Countries,active,Processor
,Desktop,,CoreDuo,,,,,12,,,HPI - All Countries,active,Processor
,Desktop,,A12,,,,,66,,,HPI - All Countries,active,Processor
,Desktop,,A10,,,,,55,,,HPI - All Countries,active,Processor
,Desktop,,A8,,,,,50,,,HPI - All Countries,active,Processor
,Desktop,,A6,,,,,36,,,HPI - All Countries,active,Processor
,Desktop,,A4,,,,,16,,,HPI - All Countries,active,Processor
,Desktop,,AMD Phenom II,,,,,13,,,HPI - All Countries,active,Processor
,Desktop,,AMD Athlon II,,,,,13,,,HPI - All Countries,active,Processor
,Desktop,,Pentium 3 / 4,,,,,9,,,HPI - All Countries,active,Processor
,LCD,,,"24""",,,,36,,,HPI - All Countries,active,Lcd
,LCD,,,"23""",,,,36,,,HPI - All Countries,active,Lcd
,LCD,,,"22""",,,,31,,,HPI - All Countries,active,Lcd
,LCD,,,"21""",,,,23,,,HPI - All Countries,active,Lcd
,LCD,,,"20""",,,,19,,,HPI - All Countries,active,Lcd
,LCD,,,"19""",,,,14,,,HPI - All Countries,active,Lcd
,LCD,,,"18""",,,,13,,,HPI - All Countries,active,Lcd
,LCD,,,"17""",,,,10,,,HPI - All Countries,active,Lcd
,All-in-One,,i7 - Gen 5,,,,,161,,,HPI - All Countries,active,Processor
,All-in-One,,i7 - Gen 4,,,,,129,,,HPI - All Countries,active,Processor
,All-in-One,,i7 - Gen 3,,,,,93,,,HPI - All Countries,active,Processor
,All-in-One,,i7 - Gen 2,,,,,80,,,HPI - All Countries,active,Processor
,All-in-One,,i7 - Gen 1,,,,,68,,,HPI - All Countries,active,Processor
,All-in-One,,i5 - Gen 5,,,,,109,,,HPI - All Countries,active,Processor
,All-in-One,,i5 - Gen 4,,,,,101,,,HPI - All Countries,active,Processor
,All-in-One,,i5 - Gen 3,,,,,73,,,HPI - All Countries,active,Processor
,All-in-One,,i5 - Gen 2,,,,,65,,,HPI - All Countries,active,Processor
,All-in-One,,i5 - Gen 1,,,,,55,,,HPI - All Countries,active,Processor
,All-in-One,,i3 - Gen 5,,,,,86,,,HPI - All Countries,active,Processor
,All-in-One,,i3 - Gen 4,,,,,78,,,HPI - All Countries,active,Processor
,All-in-One,,i3 - Gen 3,,,,,65,,,HPI - All Countries,active,Processor
,All-in-One,,i3 - Gen 2,,,,,52,,,HPI - All Countries,active,Processor
,All-in-One,,i3 - Gen 1,,,,,45,,,HPI - All Countries,active,Processor
,All-in-One,,Core2Quad,,,,,31,,,HPI - All Countries,active,Processor
,All-in-One,,Core2Duo,,,,,15,,,HPI - All Countries,active,Processor
,All-in-One,,CoreDuo,,,,,12,,,HPI - All Countries,active,Processor
,All-in-One,,A12,,,,,66,,,HPI - All Countries,active,Processor
,All-in-One,,A10,,,,,55,,,HPI - All Countries,active,Processor
,All-in-One,,A8,,,,,50,,,HPI - All Countries,active,Processor
,All-in-One,,A6,,,,,36,,,HPI - All Countries,active,Processor
,All-in-One,,A4,,,,,16,,,HPI - All Countries,active,Processor
,All-in-One,,AMD Phenom II,,,,,13,,,HPI - All Countries,active,Processor
,All-in-One,,AMD Athlon II,,,,,13,,,HPI - All Countries,active,Processor
,All-in-One,,Pentium 3 / 4,,,,,9,,,HPI - All Countries,active,Processor
,Notebook,,i5 - Gen 1,,,,,65,,,HPI - All Countries,active,Processor
,Notebook,,i3 - Gen 5,,,,,143,,,HPI - All Countries,active,Processor
,Notebook,,i5 - Gen 2,,,,,73,,,HPI - All Countries,active,Processor
,Notebook,,AMD A Series,,,,,58,,,HPI Trade-in - APJ,active,Processor
,Notebook,,Core 2,,,,,16,,,HPI Trade-in - APJ,active,Processor
,Notebook,,i3,,,,,76,,,HPI Trade-in - APJ,active,Processor
,Notebook,,i5,,,,,94,,,HPI Trade-in - APJ,active,Processor
,Notebook,,i7,,,,,118,,,HPI Trade-in - APJ,active,Processor
,Notebook,,Core 2,,,,,10,,,HPI Trade-in - APJ,active,Processor
,Notebook,,AMD A Series,,,,,45,,,HPI Trade-in - APJ,active,Processor
,Notebook,,i3,,,,,60,,,HPI Trade-in - APJ,active,Processor
,Notebook,,i5,,,,,75,,,HPI Trade-in - APJ,active,Processor
,Notebook,,i7,,,,,95,,,HPI Trade-in - APJ,active,Processor
,Notebook,,Core 2,,,,,10,,,HPI Trade-in - APJ,active,Processor
,Notebook,,AMD A Series,,,,,45,,,HPI Trade-in - APJ,active,Processor
,Notebook,,i3,,,,,60,,,HPI Trade-in - APJ,active,Processor
,Notebook,,i5,,,,,75,,,HPI Trade-in - APJ,active,Processor
,Notebook,,i7,,,,,95,,,HPI Trade-in - APJ,active,Processor
,Notebook,,Core 2,,,,,10,,,HPI Trade-in - APJ,active,Processor
,Notebook,,AMD A Series,,,,,45,,,HPI Trade-in - APJ,active,Processor
,Notebook,,i3,,,,,60,,,HPI Trade-in - APJ,active,Processor
,Notebook,,i5,,,,,75,,,HPI Trade-in - APJ,active,Processor
,Notebook,,i7,,,,,95,,,HPI Trade-in - APJ,active,Processor
,Notebook,,Core 2,,,,,5,,,HPI Trade-in - APJ,active,Processor
,Notebook,,AMD A Series,,,,,40,,,HPI Trade-in - APJ,active,Processor
,Notebook,,i3,,,,,55,,,HPI Trade-in - APJ,active,Processor
,Notebook,,i5,,,,,70,,,HPI Trade-in - APJ,active,Processor
,Notebook,,i7,,,,,90,,,HPI Trade-in - APJ,active,Processor
,Notebook,,Core 2,,,,,5,,,HPI Trade-in - APJ,active,Processor
,Notebook,,AMD A Series,,,,,40,,,HPI Trade-in - APJ,active,Processor
,Notebook,,i3,,,,,55,,,HPI Trade-in - APJ,active,Processor
,Notebook,,i5,,,,,70,,,HPI Trade-in - APJ,active,Processor
,Notebook,,i7,,,,,90,,,HPI Trade-in - APJ,active,Processor
,Notebook,,Core 2,,,,,16,,,HPI Trade-in - APJ,active,Processor
,Notebook,,AMD A Series,,,,,58,,,HPI Trade-in - APJ,active,Processor
,Notebook,,i3,,,,,76,,,HPI Trade-in - APJ,active,Processor
,Notebook,,i5,,,,,94,,,HPI Trade-in - APJ,active,Processor
,Notebook,,i7,,,,,118,,,HPI Trade-in - APJ,active,Processor
,Desktop,,Core 2,,,,,16,,,HPI Trade-in - APJ,active,Processor
,Desktop,,AMD A Series,,,,,34,,,HPI Trade-in - APJ,active,Processor
,Desktop,,i3,,,,,64,,,HPI Trade-in - APJ,active,Processor
,Desktop,,i5,,,,,76,,,HPI Trade-in - APJ,active,Processor
,Desktop,,i7,,,,,100,,,HPI Trade-in - APJ,active,Processor
,Desktop,,Core 2,,,,,10,,,HPI Trade-in - APJ,active,Processor
,Desktop,,AMD A Series,,,,,25,,,HPI Trade-in - APJ,active,Processor
,Desktop,,i3,,,,,50,,,HPI Trade-in - APJ,active,Processor
,Desktop,,i5,,,,,60,,,HPI Trade-in - APJ,active,Processor
,Desktop,,i7,,,,,80,,,HPI Trade-in - APJ,active,Processor
,Desktop,,Core 2,,,,,10,,,HPI Trade-in - APJ,active,Processor
,Desktop,,AMD A Series,,,,,25,,,HPI Trade-in - APJ,active,Processor
,Desktop,,i3,,,,,50,,,HPI Trade-in - APJ,active,Processor
,Desktop,,i5,,,,,60,,,HPI Trade-in - APJ,active,Processor
,Desktop,,i7,,,,,80,,,HPI Trade-in - APJ,active,Processor
,Desktop,,Core 2,,,,,10,,,HPI Trade-in - APJ,active,Processor
,Desktop,,AMD A Series,,,,,25,,,HPI Trade-in - APJ,active,Processor
,Desktop,,i3,,,,,50,,,HPI Trade-in - APJ,active,Processor
,Desktop,,i5,,,,,60,,,HPI Trade-in - APJ,active,Processor
,Desktop,,i7,,,,,80,,,HPI Trade-in - APJ,active,Processor
,Desktop,,Core 2,,,,,5,,,HPI Trade-in - APJ,active,Processor
,Desktop,,AMD A Series,,,,,20,,,HPI Trade-in - APJ,active,Processor
,Desktop,,i3,,,,,45,,,HPI Trade-in - APJ,active,Processor
,Desktop,,i5,,,,,55,,,HPI Trade-in - APJ,active,Processor
,Desktop,,i7,,,,,75,,,HPI Trade-in - APJ,active,Processor
,Desktop,,Core 2,,,,,5,,,HPI Trade-in - APJ,active,Processor
,Desktop,,AMD A Series,,,,,20,,,HPI Trade-in - APJ,active,Processor
,Desktop,,i3,,,,,45,,,HPI Trade-in - APJ,active,Processor
,Desktop,,i5,,,,,55,,,HPI Trade-in - APJ,active,Processor
,Desktop,,i7,,,,,75,,,HPI Trade-in - APJ,active,Processor
,Desktop,,Core 2,,,,,16,,,HPI Trade-in - APJ,active,Processor
,Desktop,,AMD A Series,,,,,34,,,HPI Trade-in - APJ,active,Processor
,Desktop,,i3,,,,,64,,,HPI Trade-in - APJ,active,Processor
,Desktop,,i5,,,,,76,,,HPI Trade-in - APJ,active,Processor
,Desktop,,i7,,,,,100,,,HPI Trade-in - APJ,active,Processor
,LCD,,,15 - 18,,,,12.8,,,HPI Trade-in - APJ,active,Lcd
,LCD,,,19 - 21,,,,17.6,,,HPI Trade-in - APJ,active,Lcd
,LCD,,,22 - 24,,,,29.6,,,HPI Trade-in - APJ,active,Lcd
,LCD,,,25 - 27,,,,38,,,HPI Trade-in - APJ,active,Lcd
,LCD,,,28 - 30,,,,44,,,HPI Trade-in - APJ,active,Lcd
,LCD,,,15 - 18,,,,7,,,HPI Trade-in - APJ,active,Lcd
,LCD,,,19 - 21,,,,11,,,HPI Trade-in - APJ,active,Lcd
,LCD,,,22 - 24,,,,21,,,HPI Trade-in - APJ,active,Lcd
,LCD,,,25 - 27,,,,28,,,HPI Trade-in - APJ,active,Lcd
,LCD,,,28 - 30,,,,33,,,HPI Trade-in - APJ,active,Lcd
,LCD,,,15 - 18,,,,7,,,HPI Trade-in - APJ,active,Lcd
,LCD,,,19 - 21,,,,11,,,HPI Trade-in - APJ,active,Lcd
,LCD,,,22 - 24,,,,21,,,HPI Trade-in - APJ,active,Lcd
,LCD,,,25 - 27,,,,28,,,HPI Trade-in - APJ,active,Lcd
,LCD,,,28 - 30,,,,33,,,HPI Trade-in - APJ,active,Lcd
,LCD,,,15 - 18,,,,7,,,HPI Trade-in - APJ,active,Lcd
,LCD,,,19 - 21,,,,11,,,HPI Trade-in - APJ,active,Lcd
,LCD,,,22 - 24,,,,21,,,HPI Trade-in - APJ,active,Lcd
,LCD,,,25 - 27,,,,28,,,HPI Trade-in - APJ,active,Lcd
,LCD,,,28 - 30,,,,33,,,HPI Trade-in - APJ,active,Lcd
,LCD,,,15 - 18,,,,2,,,HPI Trade-in - APJ,active,Lcd
,LCD,,,19 - 21,,,,6,,,HPI Trade-in - APJ,active,Lcd
,LCD,,,22 - 24,,,,16,,,HPI Trade-in - APJ,active,Lcd
,LCD,,,25 - 27,,,,23,,,HPI Trade-in - APJ,active,Lcd
,LCD,,,28 - 30,,,,28,,,HPI Trade-in - APJ,active,Lcd
,LCD,,,15 - 18,,,,2,,,HPI Trade-in - APJ,active,Lcd
,LCD,,,19 - 21,,,,6,,,HPI Trade-in - APJ,active,Lcd
,LCD,,,22 - 24,,,,16,,,HPI Trade-in - APJ,active,Lcd
,LCD,,,25 - 27,,,,23,,,HPI Trade-in - APJ,active,Lcd
,LCD,,,28 - 30,,,,28,,,HPI Trade-in - APJ,active,Lcd
,LCD,,,15 - 18,,,,12.8,,,HPI Trade-in - APJ,active,Lcd
,LCD,,,19 - 21,,,,17.6,,,HPI Trade-in - APJ,active,Lcd
,LCD,,,22 - 24,,,,29.6,,,HPI Trade-in - APJ,active,Lcd
,LCD,,,25 - 27,,,,38,,,HPI Trade-in - APJ,active,Lcd
,LCD,,,28 - 30,,,,44,,,HPI Trade-in - APJ,active,Lcd
,LCD,,,All Sizes,,,,0,,,HPI Trade-in - APJ,active,Lcd
,All-in-One,,Core 2,,,,,52,,,HPI Trade-in - APJ,active,Processor
,All-in-One,,AMD A Series,,,,,77,,,HPI Trade-in - APJ,active,Processor
,All-in-One,,i3,,,,,112,,,HPI Trade-in - APJ,active,Processor
,All-in-One,,i5,,,,,122,,,HPI Trade-in - APJ,active,Processor
,All-in-One,,i7,,,,,147,,,HPI Trade-in - APJ,active,Processor
,All-in-One,,Core 2,,,,,40,,,HPI Trade-in - APJ,active,Processor
,All-in-One,,AMD A Series,,,,,60,,,HPI Trade-in - APJ,active,Processor
,All-in-One,,i3,,,,,90,,,HPI Trade-in - APJ,active,Processor
,All-in-One,,i5,,,,,100,,,HPI Trade-in - APJ,active,Processor
,All-in-One,,i7,,,,,120,,,HPI Trade-in - APJ,active,Processor
,All-in-One,,Core 2,,,,,40,,,HPI Trade-in - APJ,active,Processor
,All-in-One,,AMD A Series,,,,,60,,,HPI Trade-in - APJ,active,Processor
,All-in-One,,i3,,,,,90,,,HPI Trade-in - APJ,active,Processor
,All-in-One,,i5,,,,,100,,,HPI Trade-in - APJ,active,Processor
,All-in-One,,i7,,,,,120,,,HPI Trade-in - APJ,active,Processor
,All-in-One,,Core 2,,,,,40,,,HPI Trade-in - APJ,active,Processor
,All-in-One,,AMD A Series,,,,,60,,,HPI Trade-in - APJ,active,Processor
,All-in-One,,i3,,,,,90,,,HPI Trade-in - APJ,active,Processor
,All-in-One,,i5,,,,,100,,,HPI Trade-in - APJ,active,Processor
,All-in-One,,i7,,,,,120,,,HPI Trade-in - APJ,active,Processor
,All-in-One,,Core 2,,,,,35,,,HPI Trade-in - APJ,active,Processor
,All-in-One,,AMD A Series,,,,,55,,,HPI Trade-in - APJ,active,Processor
,All-in-One,,i3,,,,,85,,,HPI Trade-in - APJ,active,Processor
,All-in-One,,i5,,,,,95,,,HPI Trade-in - APJ,active,Processor
,All-in-One,,i7,,,,,115,,,HPI Trade-in - APJ,active,Processor
,All-in-One,,Core 2,,,,,35,,,HPI Trade-in - APJ,active,Processor
,All-in-One,,AMD A Series,,,,,55,,,HPI Trade-in - APJ,active,Processor
,All-in-One,,i3,,,,,85,,,HPI Trade-in - APJ,active,Processor
,All-in-One,,i5,,,,,95,,,HPI Trade-in - APJ,active,Processor
,All-in-One,,i7,,,,,115,,,HPI Trade-in - APJ,active,Processor
,All-in-One,,Core 2,,,,,52,,,HPI Trade-in - APJ,active,Processor
,All-in-One,,AMD A Series,,,,,77,,,HPI Trade-in - APJ,active,Processor
,All-in-One,,i3,,,,,112,,,HPI Trade-in - APJ,active,Processor
,All-in-One,,i5,,,,,122,,,HPI Trade-in - APJ,active,Processor
,All-in-One,,i7,,,,,147,,,HPI Trade-in - APJ,active,Processor
,Notebook,,AMD A Series,,,,,45,,,HPI Trade-in - APJ,active,Processor
,Notebook,,Core 2,,,,,10,,,HPI Trade-in - APJ,active,Processor
,Notebook,,i3,,,,,60,,,HPI Trade-in - APJ,active,Processor
,Notebook,,i5,,,,,75,,,HPI Trade-in - APJ,active,Processor
,Notebook,,i7,,,,,95,,,HPI Trade-in - APJ,active,Processor
,Desktop,,Core 2,,,,,10,,,HPI Trade-in - APJ,active,Processor
,Desktop,,AMD A Series,,,,,25,,,HPI Trade-in - APJ,active,Processor
,Desktop,,i3,,,,,50,,,HPI Trade-in - APJ,active,Processor
,Desktop,,i5,,,,,60,,,HPI Trade-in - APJ,active,Processor
,Desktop,,i7,,,,,80,,,HPI Trade-in - APJ,active,Processor
,LCD,,,15 - 18,,,,7,,,HPI Trade-in - APJ,active,Lcd
,LCD,,,19 - 21,,,,11,,,HPI Trade-in - APJ,active,Lcd
,LCD,,,22 - 24,,,,21,,,HPI Trade-in - APJ,active,Lcd
,LCD,,,25 - 27,,,,28,,,HPI Trade-in - APJ,active,Lcd
,LCD,,,28 - 30,,,,33,,,HPI Trade-in - APJ,active,Lcd
,All-in-One,,Core 2,,,,,40,,,HPI Trade-in - APJ,active,Processor
,All-in-One,,AMD A Series,,,,,60,,,HPI Trade-in - APJ,active,Processor
,All-in-One,,i3,,,,,90,,,HPI Trade-in - APJ,active,Processor
,All-in-One,,i5,,,,,100,,,HPI Trade-in - APJ,active,Processor
,All-in-One,,i7,,,,,120,,,HPI Trade-in - APJ,active,Processor
,Workstation,,i7 - Gen 5,,,,,179,,,,active,Processor
,Workstation,,i7 - Gen 4,,,,,143,,,,active,Processor
,Workstation,,i7 - Gen 3,,,,,103,,,,active,Processor
,Workstation,,i7 - Gen 2,,,,,89,,,,active,Processor
,Workstation,,i7 - Gen 1,,,,,75,,,,active,Processor
,Workstation,,i7 - Gen 5,,,,,161.1,,,HPI - All Countries,active,Processor
,Workstation,,i7 - Gen 4,,,,,128.7,,,HPI - All Countries,active,Processor
,Workstation,,i7 - Gen 3,,,,,92.7,,,HPI - All Countries,active,Processor
,Workstation,,i7 - Gen 2,,,,,80.1,,,HPI - All Countries,active,Processor
,Workstation,,i7 - Gen 1,,,,,67.5,,,HPI - All Countries,active,Processor
,Tablet,,"Pro 9.7"" - Wifi + Celluar - 32GB",,,,,123,,,,active,Processor
,Tablet,,"Pro 9.7"" - Wifi only - 32GB",,,,,109,,,,active,Processor
,Tablet,,"Pro 9.7"" - Wifi + Celluar - 128GB",,,,,150,,,,active,Processor
,Tablet,,"Pro 9.7"" - Wifi only - 128GB",,,,,125,,,,active,Processor
,Tablet,,"Pro 9.7"" - Wifi only - 256GB",,,,,137,,,,active,Processor
,Tablet,,"Pro 10.5"" - Wifi + Cellular - 512GB",,,,,200,,,,active,Processor
,Tablet,,"Pro 10.5"" - Wifi only - 64GB",,,,,135,,,,active,Processor
,Tablet,,"Pro 10.5"" - Wifi + Cellular - 256GB",,,,,165,,,,active,Processor
,Tablet,,"Pro 10.5"" - Wifi only - 512GB",,,,,165,,,,active,Processor
,Tablet,,"Pro 10.5"" - Wifi + Cellular - 64GB",,,,,145,,,,active,Processor
,Tablet,,"Pro 10.5"" - Wifi only - 256GB",,,,,140,,,,active,Processor
,Tablet,,"Pro 12.9"" - Wifi Only - 32GB",,,,,141,,,,active,Processor
,Tablet,,"Pro 12.9"" - Wifi + Cellular - 128GB",,,,,165,,,,active,Processor
,Tablet,,"Pro 12.9"" - Wifi Only - 128GB",,,,,150,,,,active,Processor
,Tablet,,"Pro 12.9"" - Wifi + Cellular - 256GB",,,,,170,,,,active,Processor
,Tablet,,"Pro 12.9"" - Wifi Only - 256GB",,,,,165,,,,active,Processor
