message,model,"product type",brand,processor,screen,hdd,ram,dvd,price,"margin $","margin %",client,status,confgitype,country
"[Processor updated]",,Notebook,,"i7 - Gen 5",,,,,212,,,,active,Processor,
"[Processor updated]",,Notebook,,"i7 - Gen 4",,,,,183,,,,active,Processor,
"[Processor updated]",,Notebook,,"i7 - Gen 3",,,,,122,,,,active,Processor,
"[Processor updated]",,Notebook,,"i7 - Gen 2",,,,,103,,,,active,Processor,
"[Processor updated]",,Notebook,,"i7 - Gen 1",,,,,75,,,,active,Processor,
"[Processor updated]",,Notebook,,"i5 - Gen 5",,,,,172,,,,active,Processor,
"[Processor updated]",,Notebook,,"i5 - Gen 4",,,,,143,,,,active,Processor,
"[Processor updated]",,Notebook,,"i5 - Gen 3",,,,,97,,,,active,Processor,
"[Processor updated]",,Notebook,,"i5 - Gen 2",,,,,81,,,,active,Processor,
"[Processor updated]",,Notebook,,"i5 - Gen 1",,,,,72,,,,active,Processor,
"[Processor updated]",,Notebook,,"i3 - Gen 5",,,,,159,,,,active,Processor,
"[Processor updated]",,Notebook,,"i3 - Gen 4",,,,,130,,,,active,Processor,
"[Processor updated]",,Notebook,,"i3 - Gen 3",,,,,81,,,,active,Processor,
"[Processor updated]",,Notebook,,"i3 - Gen 2",,,,,72,,,,active,Processor,
"[Processor updated]",,Notebook,,"i3 - Gen 1",,,,,65,,,,active,Processor,
"[Processor updated]",,Notebook,,Core2Duo,,,,,24,,,,active,Processor,
"[Processor updated]",,Notebook,,CoreDuo,,,,,20,,,,active,Processor,
"[Processor updated]",,Notebook,,Centrino,,,,,20,,,,active,Processor,
"[Processor updated]",,Notebook,,A12,,,,,122,,,,active,Processor,
"[Processor updated]",,Notebook,,A10,,,,,103,,,,active,Processor,
"[Processor updated]",,Notebook,,A8,,,,,80,,,,active,Processor,
"[Processor updated]",,Notebook,,A6,,,,,60,,,,active,Processor,
"[Processor updated]",,Notebook,,A4,,,,,42,,,,active,Processor,
"[Processor updated]",,Notebook,,"AMD Phenom II",,,,,23,,,,active,Processor,
"[Processor updated]",,Notebook,,"AMD Athlon II",,,,,18,,,,active,Processor,
"[Processor updated]",,Notebook,,"Pentium 3 / 4",,,,,10,,,,active,Processor,
"[Processor updated]",,Desktop,,"i7 - Gen 5",,,,,179,,,,active,Processor,
"[Processor updated]",,Desktop,,"i7 - Gen 4",,,,,143,,,,active,Processor,
"[Processor updated]",,Desktop,,"i7 - Gen 3",,,,,103,,,,active,Processor,
"[Processor updated]",,Desktop,,"i7 - Gen 2",,,,,89,,,,active,Processor,
"[Processor updated]",,Desktop,,"i7 - Gen 1",,,,,75,,,,active,Processor,
"[Processor updated]",,Desktop,,"i5 - Gen 5",,,,,121,,,,active,Processor,
"[Processor updated]",,Desktop,,"i5 - Gen 4",,,,,112,,,,active,Processor,
"[Processor updated]",,Desktop,,"i5 - Gen 3",,,,,81,,,,active,Processor,
"[Processor updated]",,Desktop,,"i5 - Gen 2",,,,,72,,,,active,Processor,
"[Processor updated]",,Desktop,,"i5 - Gen 1",,,,,61,,,,active,Processor,
"[Processor updated]",,Desktop,,"i3 - Gen 5",,,,,95,,,,active,Processor,
"[Processor updated]",,Desktop,,"i3 - Gen 4",,,,,87,,,,active,Processor,
"[Processor updated]",,Desktop,,"i3 - Gen 3",,,,,72,,,,active,Processor,
"[Processor updated]",,Desktop,,"i3 - Gen 2",,,,,58,,,,active,Processor,
"[Processor updated]",,Desktop,,"i3 - Gen 1",,,,,50,,,,active,Processor,
"[Processor updated]",,Desktop,,Core2Quad,,,,,34,,,,active,Processor,
"[Processor updated]",,Desktop,,Core2Duo,,,,,17,,,,active,Processor,
"[Processor updated]",,Desktop,,CoreDuo,,,,,13,,,,active,Processor,
"[Processor updated]",,Desktop,,A12,,,,,73,,,,active,Processor,
"[Processor updated]",,Desktop,,A10,,,,,61,,,,active,Processor,
"[Processor updated]",,Desktop,,A8,,,,,56,,,,active,Processor,
"[Processor updated]",,Desktop,,A6,,,,,40,,,,active,Processor,
"[Processor updated]",,Desktop,,A4,,,,,18,,,,active,Processor,
"[Processor updated]",,Desktop,,"AMD Phenom II",,,,,14,,,,active,Processor,
"[Processor updated]",,Desktop,,"AMD Athlon II",,,,,14,,,,active,Processor,
"[Processor updated]",,Desktop,,"Pentium 3 / 4",,,,,10,,,,active,Processor,
"[Lcd updated]",,LCD,,,"24""",,,,40,,,,active,Lcd,
"[Lcd updated]",,LCD,,,"23""",,,,40,,,,active,Lcd,
"[Lcd updated]",,LCD,,,"22""",,,,34,,,,active,Lcd,
"[Lcd updated]",,LCD,,,"21""",,,,26,,,,active,Lcd,
"[Lcd updated]",,LCD,,,"20""",,,,21,,,,active,Lcd,
"[Lcd updated]",,LCD,,,"19""",,,,16,,,,active,Lcd,
"[Lcd updated]",,LCD,,,"18""",,,,14,,,,active,Lcd,
"[Lcd updated]",,LCD,,,"17""",,,,11,,,,active,Lcd,
"[Processor updated]",,All-in-One,,"i7 - Gen 5",,,,,179,,,,active,Processor,
"[Processor updated]",,All-in-One,,"i7 - Gen 4",,,,,143,,,,active,Processor,
"[Processor updated]",,All-in-One,,"i7 - Gen 3",,,,,103,,,,active,Processor,
"[Processor updated]",,All-in-One,,"i7 - Gen 2",,,,,89,,,,active,Processor,
"[Processor updated]",,All-in-One,,"i7 - Gen 1",,,,,75,,,,active,Processor,
"[Processor updated]",,All-in-One,,"i5 - Gen 5",,,,,121,,,,active,Processor,
"[Processor updated]",,All-in-One,,"i5 - Gen 4",,,,,112,,,,active,Processor,
"[Processor updated]",,All-in-One,,"i5 - Gen 3",,,,,81,,,,active,Processor,
"[Processor updated]",,All-in-One,,"i5 - Gen 2",,,,,72,,,,active,Processor,
"[Processor updated]",,All-in-One,,"i5 - Gen 1",,,,,61,,,,active,Processor,
"[Processor updated]",,All-in-One,,"i3 - Gen 5",,,,,95,,,,active,Processor,
"[Processor updated]",,All-in-One,,"i3 - Gen 4",,,,,87,,,,active,Processor,
"[Processor updated]",,All-in-One,,"i3 - Gen 3",,,,,72,,,,active,Processor,
"[Processor updated]",,All-in-One,,"i3 - Gen 2",,,,,58,,,,active,Processor,
"[Processor updated]",,All-in-One,,"i3 - Gen 1",,,,,50,,,,active,Processor,
"[Processor updated]",,All-in-One,,Core2Quad,,,,,34,,,,active,Processor,
"[Processor updated]",,All-in-One,,Core2Duo,,,,,17,,,,active,Processor,
"[Processor updated]",,All-in-One,,CoreDuo,,,,,13,,,,active,Processor,
"[Processor updated]",,All-in-One,,A12,,,,,73,,,,active,Processor,
"[Processor updated]",,All-in-One,,A10,,,,,61,,,,active,Processor,
"[Processor updated]",,All-in-One,,A8,,,,,56,,,,active,Processor,
"[Processor updated]",,All-in-One,,A6,,,,,40,,,,active,Processor,
"[Processor updated]",,All-in-One,,A4,,,,,18,,,,active,Processor,
"[Processor updated]",,All-in-One,,"AMD Phenom II",,,,,14,,,,active,Processor,
"[Processor updated]",,All-in-One,,"AMD Athlon II",,,,,14,,,,active,Processor,
"[Processor updated]",,All-in-One,,"Pentium 3 / 4",,,,,10,,,,active,Processor,
"[Model updated]","Elitedesk 800 ",Desktop,HP,"i5 - Gen 4",,750GB,8GB,Yes,,,,,active,Model,
"[Model updated]","Latitude E7240",Notebook,Dell,"i7 - Gen 4","14""",500GB,8GB,Yes,,,,,active,Model,
"[Processor updated]",,Notebook,,"i7 - Gen 5",,,,,191,,,"HP Inc",active,Processor,
"[Processor updated]",,Notebook,,"i7 - Gen 4",,,,,165,,,"HP Inc",active,Processor,
"[Processor updated]",,Notebook,,"i7 - Gen 3",,,,,110,,,"HP Inc",active,Processor,
"[Processor updated]",,Notebook,,"i7 - Gen 2",,,,,93,,,"HP Inc",active,Processor,
"[Processor updated]",,Notebook,,"i7 - Gen 1",,,,,68,,,"HP Inc",active,Processor,
"[Processor updated]",,Notebook,,"i5 - Gen 5",,,,,155,,,"HP Inc",active,Processor,
"[Processor updated]",,Notebook,,"i5 - Gen 4",,,,,129,,,"HP Inc",active,Processor,
"[Processor updated]",,Notebook,,"i5 - Gen 3",,,,,87,,,"HP Inc",active,Processor,
"[Processor updated]",,Notebook,,"i5 - Gen 2",,,,,73,,,"HP Inc",active,Processor,
"[Processor updated]",,Notebook,,"i5 - Gen 1",,,,,65,,,"HP Inc",active,Processor,
"[Processor updated]",,Notebook,,"i3 - Gen 5",,,,,143,,,"HP Inc",active,Processor,
"[Processor updated]",,Notebook,,"i3 - Gen 4",,,,,117,,,"HP Inc",active,Processor,
"[Processor updated]",,Notebook,,"i3 - Gen 3",,,,,73,,,"HP Inc",active,Processor,
"[Processor updated]",,Notebook,,"i3 - Gen 2",,,,,65,,,"HP Inc",active,Processor,
"[Processor updated]",,Notebook,,"i3 - Gen 1",,,,,59,,,"HP Inc",active,Processor,
"[Processor updated]",,Notebook,,Core2Duo,,,,,22,,,"HP Inc",active,Processor,
"[Processor updated]",,Notebook,,CoreDuo,,,,,18,,,"HP Inc",active,Processor,
"[Processor updated]",,Notebook,,Centrino,,,,,18,,,"HP Inc",active,Processor,
"[Processor updated]",,Notebook,,A12,,,,,110,,,"HP Inc",active,Processor,
"[Processor updated]",,Notebook,,A10,,,,,93,,,"HP Inc",active,Processor,
"[Processor updated]",,Notebook,,A8,,,,,72,,,"HP Inc",active,Processor,
"[Processor updated]",,Notebook,,A6,,,,,54,,,"HP Inc",active,Processor,
"[Processor updated]",,Notebook,,A4,,,,,38,,,"HP Inc",active,Processor,
"[Processor updated]",,Notebook,,"AMD Phenom II",,,,,21,,,"HP Inc",active,Processor,
"[Processor updated]",,Notebook,,"AMD Athlon II",,,,,16,,,"HP Inc",active,Processor,
"[Processor updated]",,Notebook,,"Pentium 3 / 4",,,,,9,,,"HP Inc",active,Processor,
"[Processor updated]",,Desktop,,"i7 - Gen 5",,,,,161,,,"HP Inc",active,Processor,
"[Processor updated]",,Desktop,,"i7 - Gen 4",,,,,129,,,"HP Inc",active,Processor,
"[Processor updated]",,Desktop,,"i7 - Gen 3",,,,,93,,,"HP Inc",active,Processor,
"[Processor updated]",,Desktop,,"i7 - Gen 2",,,,,80,,,"HP Inc",active,Processor,
"[Processor updated]",,Desktop,,"i7 - Gen 1",,,,,68,,,"HP Inc",active,Processor,
"[Processor updated]",,Desktop,,"i5 - Gen 5",,,,,109,,,"HP Inc",active,Processor,
"[Processor updated]",,Desktop,,"i5 - Gen 4",,,,,101,,,"HP Inc",active,Processor,
"[Processor updated]",,Desktop,,"i5 - Gen 3",,,,,73,,,"HP Inc",active,Processor,
"[Processor updated]",,Desktop,,"i5 - Gen 2",,,,,65,,,"HP Inc",active,Processor,
"[Processor updated]",,Desktop,,"i5 - Gen 1",,,,,55,,,"HP Inc",active,Processor,
"[Processor updated]",,Desktop,,"i3 - Gen 5",,,,,86,,,"HP Inc",active,Processor,
"[Processor updated]",,Desktop,,"i3 - Gen 4",,,,,78,,,"HP Inc",active,Processor,
"[Processor updated]",,Desktop,,"i3 - Gen 3",,,,,65,,,"HP Inc",active,Processor,
"[Processor updated]",,Desktop,,"i3 - Gen 2",,,,,52,,,"HP Inc",active,Processor,
"[Processor updated]",,Desktop,,"i3 - Gen 1",,,,,45,,,"HP Inc",active,Processor,
"[Processor updated]",,Desktop,,Core2Quad,,,,,31,,,"HP Inc",active,Processor,
"[Processor updated]",,Desktop,,Core2Duo,,,,,15,,,"HP Inc",active,Processor,
"[Processor updated]",,Desktop,,CoreDuo,,,,,12,,,"HP Inc",active,Processor,
"[Processor updated]",,Desktop,,A12,,,,,66,,,"HP Inc",active,Processor,
"[Processor updated]",,Desktop,,A10,,,,,55,,,"HP Inc",active,Processor,
"[Processor updated]",,Desktop,,A8,,,,,50,,,"HP Inc",active,Processor,
"[Processor updated]",,Desktop,,A6,,,,,36,,,"HP Inc",active,Processor,
"[Processor updated]",,Desktop,,A4,,,,,16,,,"HP Inc",active,Processor,
"[Processor updated]",,Desktop,,"AMD Phenom II",,,,,13,,,"HP Inc",active,Processor,
"[Processor updated]",,Desktop,,"AMD Athlon II",,,,,13,,,"HP Inc",active,Processor,
"[Processor updated]",,Desktop,,"Pentium 3 / 4",,,,,9,,,"HP Inc",active,Processor,
"[Lcd updated]",,LCD,,,"24""",,,,36,,,"HP Inc",active,Lcd,
"[Lcd updated]",,LCD,,,"23""",,,,36,,,"HP Inc",active,Lcd,
"[Lcd updated]",,LCD,,,"22""",,,,31,,,"HP Inc",active,Lcd,
"[Lcd updated]",,LCD,,,"21""",,,,23,,,"HP Inc",active,Lcd,
"[Lcd updated]",,LCD,,,"20""",,,,19,,,"HP Inc",active,Lcd,
"[Lcd updated]",,LCD,,,"19""",,,,14,,,"HP Inc",active,Lcd,
"[Lcd updated]",,LCD,,,"18""",,,,13,,,"HP Inc",active,Lcd,
"[Lcd updated]",,LCD,,,"17""",,,,10,,,"HP Inc",active,Lcd,
"[Processor updated]",,All-in-One,,"i7 - Gen 5",,,,,161,,,"HP Inc",active,Processor,
"[Processor updated]",,All-in-One,,"i7 - Gen 4",,,,,129,,,"HP Inc",active,Processor,
"[Processor updated]",,All-in-One,,"i7 - Gen 3",,,,,93,,,"HP Inc",active,Processor,
"[Processor updated]",,All-in-One,,"i7 - Gen 2",,,,,80,,,"HP Inc",active,Processor,
"[Processor updated]",,All-in-One,,"i7 - Gen 1",,,,,68,,,"HP Inc",active,Processor,
"[Processor updated]",,All-in-One,,"i5 - Gen 5",,,,,109,,,"HP Inc",active,Processor,
"[Processor updated]",,All-in-One,,"i5 - Gen 4",,,,,101,,,"HP Inc",active,Processor,
"[Processor updated]",,All-in-One,,"i5 - Gen 3",,,,,73,,,"HP Inc",active,Processor,
"[Processor updated]",,All-in-One,,"i5 - Gen 2",,,,,65,,,"HP Inc",active,Processor,
"[Processor updated]",,All-in-One,,"i5 - Gen 1",,,,,55,,,"HP Inc",active,Processor,
"[Processor updated]",,All-in-One,,"i3 - Gen 5",,,,,86,,,"HP Inc",active,Processor,
"[Processor updated]",,All-in-One,,"i3 - Gen 4",,,,,78,,,"HP Inc",active,Processor,
"[Processor updated]",,All-in-One,,"i3 - Gen 3",,,,,65,,,"HP Inc",active,Processor,
"[Processor updated]",,All-in-One,,"i3 - Gen 2",,,,,52,,,"HP Inc",active,Processor,
"[Processor updated]",,All-in-One,,"i3 - Gen 1",,,,,45,,,"HP Inc",active,Processor,
"[Processor updated]",,All-in-One,,Core2Quad,,,,,31,,,"HP Inc",active,Processor,
"[Processor updated]",,All-in-One,,Core2Duo,,,,,15,,,"HP Inc",active,Processor,
"[Processor updated]",,All-in-One,,CoreDuo,,,,,12,,,"HP Inc",active,Processor,
"[Processor updated]",,All-in-One,,A12,,,,,66,,,"HP Inc",active,Processor,
"[Processor updated]",,All-in-One,,A10,,,,,55,,,"HP Inc",active,Processor,
"[Processor updated]",,All-in-One,,A8,,,,,50,,,"HP Inc",active,Processor,
"[Processor updated]",,All-in-One,,A6,,,,,36,,,"HP Inc",active,Processor,
"[Processor updated]",,All-in-One,,A4,,,,,16,,,"HP Inc",active,Processor,
"[Processor updated]",,All-in-One,,"AMD Phenom II",,,,,13,,,"HP Inc",active,Processor,
"[Processor updated]",,All-in-One,,"AMD Athlon II",,,,,13,,,"HP Inc",active,Processor,
"[Processor updated]",,All-in-One,,"Pentium 3 / 4",,,,,9,,,"HP Inc",active,Processor,
"[Processor added]",,Tablet,,"Pro 256GB - Wifi + Cellular - 10.5""",,,,,165,,,,Active,Processor,
"[Processor added]",,Tablet,,"Pro 256GB - Wifi + Cellular - 12.9""",,,,,170,,,,Active,Processor,
"[invalid pricing details][product type is required][product configuration is required][error occurred validating product type]",,,,,,,,,,,,,,,
"[invalid pricing details][product type is required][product configuration is required][error occurred validating product type]",,,,,,,,,,,,,,,
