message,country,,India,,,default,20,active
[updated],country,,China,,,default,0,active
[updated],brand,Notebook,,Lenovo,,default,-10,active
[updated],brand,Notebook,,Acer,,default,-10,active
[updated],brand,Notebook,,Fujitsu,,default,-10,active
[updated],brand,Notebook,,Samsung,,default,-10,active
[updated],brand,Notebook,,Other,,default,-10,active
[updated],brand,Desktop,,Lenovo,,default,-20,active
[updated],brand,Desktop,,Acer,,default,-20,active
[updated],brand,Desktop,,Fujitsu,,default,-20,active
[updated],brand,Desktop,,Samsung,,default,-20,active
[updated],brand,All-in-One,,Other,,default,-20,active
[updated],brand,All-in-One,,Lenovo,,default,-20,active
[updated],brand,All-in-One,,Acer,,default,-20,active
[updated],brand,All-in-One,,Fujitsu,,default,-20,active
[updated],brand,All-in-One,,Samsung,,default,-20,active
[updated],brand,All-in-One,,Other,,default,-20,active
[updated],brand,LCD,,Lenovo,,default,-25,active
[updated],brand,LCD,,Acer,,default,-25,active
[updated],brand,LCD,,Fujitsu,,default,-25,active
[updated],brand,LCD,,Samsung,,default,-25,active
[updated],brand,LCD,,Other,,default,-25,active
[updated],brand,Tablet,,Lenovo,,default,-20,active
[updated],brand,Tablet,,Acer,,default,-30,active
[updated],brand,Tablet,,Fujitsu,,default,-30,active
[updated],brand,Tablet,,Apple,,default,20,active
[updated],brand,Tablet,,Samsung,,default,0,active
[updated],brand,Tablet,,Other,,default,-30,active
[updated],brand,"Thin Client",,Lenovo,,default,-10,active
[updated],brand,"Thin Client",,Acer,,default,-10,active
[updated],brand,"Thin Client",,Fujitsu,,default,-10,active
[updated],brand,"Thin Client",,Apple,,default,-10,active
[updated],brand,"Thin Client",,Samsung,,default,-10,active
[updated],brand,"Thin Client",,Other,,default,-10,active
[updated],screen,Notebook,,,"17""",default,0,active
[updated],screen,Notebook,,,"16""",default,0,active
[updated],screen,Notebook,,,"13.3""",default,0,active
[updated],screen,Notebook,,,"12.1""",default,-30,active
[updated],screen,Notebook,,,"10.6""",default,-30,active
[updated],screen,All-in-One,,,"27""",default,40,active
[updated],screen,All-in-One,,,"24""",default,30,active
[updated],screen,All-in-One,,,"23""",default,30,active
[updated],screen,All-in-One,,,"22""",default,20,active
[updated],screen,All-in-One,,,"21""",default,20,active
[updated],screen,All-in-One,,,"20""",default,10,active
[updated],screen,All-in-One,,,"19""",default,10,active
[updated],defectcap,Notebook,,,,default,70,active
[updated],defectcap,Desktop,,,,default,70,active
[updated],defectcap,All-in-One,,,,default,70,active
[updated],defectcap,Workstation,,,,default,70,active
[updated],defectcap,LCD,,,,default,90,active
[updated],defectcap,Tablet,,,,default,90,active
[updated],defectcap,"Smart Phone",,,,default,90,active
[updated],defectcap,"Thin Client",,,,default,70,active
[updated],defectcap,Other,,,,default,70,active
"[the adjustment type is not valid]",services,Notebook,,,,default,0,active
"[the adjustment type is not valid]",services,Desktop,,,,default,0,active
"[the adjustment type is not valid]",services,All-in-One,,,,default,0,active
"[the adjustment type is not valid]",services,Workstation,,,,default,0,active
"[the adjustment type is not valid]",services,LCD,,,,default,0,active
"[the adjustment type is not valid]",services,Tablet,,,,default,0,active
"[the adjustment type is not valid]",services,"Smart Phone",,,,default,0,active
"[the adjustment type is not valid]",services,"Thin Client",,,,default,0,active
"[the adjustment type is not valid]",services,Other,,,,default,0,active
[updated],logistics,,,,,default,0,active
[updated],logistics,,,,,"HP - North America",-100,
"[the adjustment type is not valid]","logistics product",Notebook,,,,default,0,active
"[the adjustment type is not valid]","logistics product",Desktop,,,,default,20,active
"[the adjustment type is not valid]","logistics product",All-in-One,,,,default,100,active
"[the adjustment type is not valid]","logistics product",Workstation,,,,default,60,active
"[the adjustment type is not valid]","logistics product",LCD,,,,default,50,active
"[the adjustment type is not valid]","logistics product",Tablet,,,,default,-50,active
"[the adjustment type is not valid]","logistics product","Smart Phone",,,,default,-80,active
"[the adjustment type is not valid]","logistics product","Thin Client",,,,default,0,active
[deleted],service,Notebook,,,,default,0.00,
[deleted],service,Desktop,,,,default,0.00,
[deleted],service,All-in-One,,,,default,0.00,
[deleted],service,Workstation,,,,default,0.00,
[deleted],service,LCD,,,,default,0.00,
[deleted],service,Tablet,,,,default,0.00,
[deleted],service,"Smart Phone",,,,default,0.00,
[deleted],service,"Thin Client",,,,default,0.00,
[deleted],service,Other,,,,default,0.00,
[deleted],"logistic product",Notebook,,,,default,0.00,
[deleted],"logistic product",Desktop,,,,default,20.00,
[deleted],"logistic product",All-in-One,,,,default,100.00,
[deleted],"logistic product",Workstation,,,,default,60.00,
[deleted],"logistic product",LCD,,,,default,50.00,
[deleted],"logistic product",Tablet,,,,default,-50.00,
[deleted],"logistic product","Smart Phone",,,,default,-80.00,
[deleted],"logistic product","Thin Client",,,,default,0.00,
