Adjustment,Product Type,Country,Brand,Screen,Client,Value,Status,,,,
country,,India,,,HP Inc,20,active,,,,
brand,Notebook,,Lenovo,,default,-10,active,,,,
brand,Notebook,,Acer,,default,-10,active,,,,
brand,Notebook,,Fujitsu,,default,-10,active,,,,
brand,Notebook,,Samsung,,default,-10,active,,,,
brand,Notebook,,Other,,default,-10,active,,,,
brand,Desktop,,Lenovo,,default,-20,active,,,,
brand,Desktop,,Acer,,default,-20,active,,,,
brand,Desktop,,Fujitsu,,default,-20,active,,,,
brand,Desktop,,Samsung,,default,-20,active,,,,
brand,All-in-One,,Other,,default,-20,active,,,,
brand,All-in-One,,Lenovo,,default,-20,active,,,,
brand,All-in-One,,Acer,,default,-20,active,,,,
brand,All-in-One,,Fujitsu,,default,-20,active,,,,
brand,All-in-One,,Samsung,,default,-20,active,,,,
brand,All-in-One,,Other,,default,-20,active,,,,
brand,LCD,,Lenovo,,default,-25,active,,,,
brand,LCD,,Acer,,default,-25,active,,,,
brand,LCD,,Fujitsu,,default,-25,active,,,,
brand,LCD,,Samsung,,default,-25,active,,,,
brand,LCD,,Other,,default,-25,active,,,,
brand,Tablet,,Lenovo,,default,-20,active,,,,
brand,Tablet,,Acer,,default,-30,active,,,,
brand,Tablet,,Fujitsu,,default,-30,active,,,,
brand,Tablet,,Apple,,default,20,active,,,,
brand,Tablet,,Samsung,,default,0,active,,,,
brand,Tablet,,Other,,default,-30,active,,,,
brand,Thin Client,,Lenovo,,default,-10,active,,,,
brand,Thin Client,,Acer,,default,-10,active,,,,
brand,Thin Client,,Fujitsu,,default,-10,active,,,,
brand,Thin Client,,Apple,,default,-10,active,,,,
brand,Thin Client,,Samsung,,default,-10,active,,,,
brand,Thin Client,,Other,,default,-10,active,,,,
screen,Notebook,,,"17""",default,0,active,,,,
screen,Notebook,,,"16""",default,0,active,,,,
screen,Notebook,,,"13.3""",default,0,active,,,,
screen,Notebook,,,"12.1""",default,-30,active,,,,
screen,Notebook,,,"10.6""",default,-30,active,,,,
screen,All-in-One,,,"27""",default,40,active,,,,
screen,All-in-One,,,"24""",default,30,active,,,,
screen,All-in-One,,,"23""",default,30,active,,,,
screen,All-in-One,,,"22""",default,20,active,,,,
screen,All-in-One,,,"21""",default,20,active,,,,
screen,All-in-One,,,"20""",default,10,active,,,,
screen,All-in-One,,,"19""",default,10,active,,,,
defectcap,Notebook,,,,default,70,active,,,,
defectcap,Desktop,,,,default,70,active,,,,
defectcap,All-in-One,,,,default,70,active,,,,
defectcap,Workstation,,,,default,70,active,,,,
defectcap,LCD,,,,default,90,active,,,,
defectcap,Tablet,,,,default,90,active,,,,
defectcap,Smart Phone,,,,default,90,active,,,,
defectcap,Thin Client,,,,default,70,active,,,,
defectcap,Other,,,,default,70,active,,,,
service,Notebook,,,,default,0,active,,,,
service,Desktop,,,,default,0,active,,,,
service,All-in-One,,,,default,0,active,,,,
service,Workstation,,,,default,0,active,,,,
service,LCD,,,,default,0,active,,,,
service,Tablet,,,,default,0,active,,,,
service,Smart Phone,,,,default,0,active,,,,
service,Thin Client,,,,default,0,active,,,,
service,Other,,,,default,0,active,,,,
logistics,,,,,default,0,active,,,,
logistic product,Notebook,,,,default,0,active,,,,
logistic product,Desktop,,,,default,20,active,,,,
logistic product,All-in-One,,,,default,100,active,,,,
logistic product,Workstation,,,,default,60,active,,,,
logistic product,LCD,,,,default,50,active,,,,
logistic product,Tablet,,,,default,-50,active,,,,
logistic product,Smart Phone,,,,default,-80,active,,,,
logistic product,Thin Client,,,,default,0,active,,,,
