message,Adjustment,"Product Type",Country,Brand,Screen,Client,Value,Status
[updated],country,,India,,,"HPI - All Countries",20,active
[updated],brand,Notebook,,Lenovo,,default,-10,active
[updated],brand,Notebook,,Acer,,default,-10,active
[updated],brand,Notebook,,Fujitsu,,default,-10,active
[updated],brand,Notebook,,Samsung,,default,-10,active
[updated],brand,Notebook,,Other,,default,-10,active
[updated],brand,Desktop,,Lenovo,,default,-20,active
[updated],brand,Desktop,,Acer,,default,-20,active
[updated],brand,Desktop,,Fujitsu,,default,-20,active
[updated],brand,Desktop,,Samsung,,default,-20,active
[added],brand,All-in-One,,Other,,default,-20,active
[added],brand,All-in-One,,Lenovo,,default,-20,active
[added],brand,All-in-One,,Acer,,default,-20,active
[added],brand,All-in-One,,Fujitsu,,default,-20,active
[added],brand,All-in-One,,Samsung,,default,-20,active
[updated],brand,All-in-One,,Other,,default,-20,active
[updated],brand,LCD,,Lenovo,,default,-25,active
[updated],brand,LCD,,Acer,,default,-25,active
[updated],brand,LCD,,Fujitsu,,default,-25,active
[updated],brand,LCD,,Samsung,,default,-25,active
[updated],brand,LCD,,Other,,default,-25,active
[updated],brand,Tablet,,Lenovo,,default,-20,active
[updated],brand,Tablet,,Acer,,default,-30,active
[updated],brand,Tablet,,Fujitsu,,default,-30,active
[updated],brand,Tablet,,Apple,,default,20,active
[updated],brand,Tablet,,Samsung,,default,0,active
[updated],brand,Tablet,,Other,,default,-30,active
[updated],brand,"Thin Client",,Lenovo,,default,-10,active
[updated],brand,"Thin Client",,Acer,,default,-10,active
[updated],brand,"Thin Client",,Fujitsu,,default,-10,active
[updated],brand,"Thin Client",,Apple,,default,-10,active
[updated],brand,"Thin Client",,Samsung,,default,-10,active
[updated],brand,"Thin Client",,Other,,default,-10,active
[updated],screen,Notebook,,,"17""",default,0,active
[updated],screen,Notebook,,,"13.3""",default,0,active
[updated],screen,Notebook,,,"12.5""",default,-30,active
[updated],screen,Notebook,,,"10""",default,-30,active
[added],screen,All-in-One,,,"27""",default,40,active
[added],screen,All-in-One,,,"24""",default,30,active
[added],screen,All-in-One,,,"23""",default,30,active
[added],screen,All-in-One,,,"22""",default,20,active
[added],screen,All-in-One,,,"21""",default,20,active
[added],screen,All-in-One,,,"20""",default,10,active
[added],screen,All-in-One,,,"19""",default,10,active
[updated],defectcap,Notebook,,,,default,70,active
[updated],defectcap,Desktop,,,,default,70,active
[added],defectcap,All-in-One,,,,default,70,active
[updated],defectcap,Workstation,,,,default,70,active
[updated],defectcap,LCD,,,,default,90,active
[updated],defectcap,Tablet,,,,default,90,active
[updated],defectcap,"Smart Phone",,,,default,90,active
[updated],defectcap,"Thin Client",,,,default,70,active
[updated],defectcap,Other,,,,default,70,active
[updated],service,Notebook,,,,default,0,active
[updated],service,Desktop,,,,default,0,active
[added],service,All-in-One,,,,default,0,active
[updated],service,Workstation,,,,default,0,active
[updated],service,LCD,,,,default,0,active
[updated],service,Tablet,,,,default,0,active
[updated],service,"Smart Phone",,,,default,0,active
[updated],service,"Thin Client",,,,default,0,active
[updated],service,Other,,,,default,0,active
[updated],logistics,,,,,default,0,active
[updated],"logistic product",Notebook,,,,default,0,active
[updated],"logistic product",Desktop,,,,default,20,active
[added],"logistic product",All-in-One,,,,default,100,active
[updated],"logistic product",Workstation,,,,default,60,active
[updated],"logistic product",LCD,,,,default,50,active
[updated],"logistic product",Tablet,,,,default,-50,active
[updated],"logistic product","Smart Phone",,,,default,-80,active
[updated],"logistic product","Thin Client",,,,default,0,active
[updated],service,,,,,"HPI Trade-in - APJ",-100,active
[updated],logistics,,,,,"HPI Trade-in - APJ",-100,active
[updated],country,,India,,,"HPI Trade-in - APJ",0,active
[updated],brand,Notebook,,Lenovo,,"HPI Trade-in - APJ",0,active
[updated],brand,Notebook,,Acer,,"HPI Trade-in - APJ",0,active
[updated],brand,Notebook,,Fujitsu,,"HPI Trade-in - APJ",0,active
[updated],brand,Notebook,,Samsung,,"HPI Trade-in - APJ",0,active
[updated],brand,Notebook,,Other,,"HPI Trade-in - APJ",0,active
[updated],brand,Desktop,,Lenovo,,"HPI Trade-in - APJ",0,active
[updated],brand,Desktop,,Acer,,"HPI Trade-in - APJ",0,active
[updated],brand,Desktop,,Fujitsu,,"HPI Trade-in - APJ",0,active
[updated],brand,Desktop,,Samsung,,"HPI Trade-in - APJ",0,active
[updated],brand,All-in-One,,Other,,"HPI Trade-in - APJ",0,active
[updated],brand,All-in-One,,Lenovo,,"HPI Trade-in - APJ",0,active
[updated],brand,All-in-One,,Acer,,"HPI Trade-in - APJ",0,active
[updated],brand,All-in-One,,Fujitsu,,"HPI Trade-in - APJ",0,active
[updated],brand,All-in-One,,Samsung,,"HPI Trade-in - APJ",0,active
[updated],brand,All-in-One,,Other,,"HPI Trade-in - APJ",0,active
[updated],brand,LCD,,Lenovo,,"HPI Trade-in - APJ",0,active
[updated],brand,LCD,,Acer,,"HPI Trade-in - APJ",0,active
[updated],brand,LCD,,Fujitsu,,"HPI Trade-in - APJ",0,active
[updated],brand,LCD,,Samsung,,"HPI Trade-in - APJ",0,active
[updated],brand,LCD,,Other,,"HPI Trade-in - APJ",0,active
[updated],brand,Tablet,,Lenovo,,"HPI Trade-in - APJ",0,active
[updated],brand,Tablet,,Acer,,"HPI Trade-in - APJ",0,active
[updated],brand,Tablet,,Fujitsu,,"HPI Trade-in - APJ",0,active
[updated],brand,Tablet,,Apple,,"HPI Trade-in - APJ",0,active
[updated],brand,Tablet,,Samsung,,"HPI Trade-in - APJ",0,active
[updated],brand,Tablet,,Other,,"HPI Trade-in - APJ",0,active
[updated],brand,"Thin Client",,Lenovo,,"HPI Trade-in - APJ",0,active
[updated],brand,"Thin Client",,Acer,,"HPI Trade-in - APJ",0,active
[updated],brand,"Thin Client",,Fujitsu,,"HPI Trade-in - APJ",0,active
[updated],brand,"Thin Client",,Apple,,"HPI Trade-in - APJ",0,active
[updated],brand,"Thin Client",,Samsung,,"HPI Trade-in - APJ",0,active
[updated],brand,"Thin Client",,Other,,"HPI Trade-in - APJ",0,active
[updated],screen,Notebook,,,"17""","HPI Trade-in - APJ",0,active
[updated],screen,Notebook,,,"13.3""","HPI Trade-in - APJ",0,active
[updated],screen,Notebook,,,"12.5""","HPI Trade-in - APJ",0,active
[updated],screen,Notebook,,,"10""","HPI Trade-in - APJ",0,active
[updated],screen,All-in-One,,,"27""","HPI Trade-in - APJ",0,active
[updated],screen,All-in-One,,,"24""","HPI Trade-in - APJ",0,active
[updated],screen,All-in-One,,,"23""","HPI Trade-in - APJ",0,active
[updated],screen,All-in-One,,,"22""","HPI Trade-in - APJ",0,active
[updated],screen,All-in-One,,,"21""","HPI Trade-in - APJ",0,active
[updated],screen,All-in-One,,,"20""","HPI Trade-in - APJ",0,active
[updated],screen,All-in-One,,,"19""","HPI Trade-in - APJ",0,active
[updated],screen,Notebook,,,"12.1""",default,-30,active
[updated],screen,Notebook,,,"16""",default,0,active
[updated],screen,Notebook,,,"16""","HPI Trade-in - APJ",0,active
[updated],screen,Notebook,,,"12.1""","HPI Trade-in - APJ",0,active
[deleted],brand,"AIO - No Touch",,Other,,default,-20.00,active
[deleted],screen,"AIO - Touch",,,"19""",default,10.00,active
[deleted],screen,"AIO - Touch",,,"20""",default,10.00,active
[deleted],screen,"AIO - Touch",,,"21""",default,20.00,active
[deleted],screen,"AIO - Touch",,,"22""",default,20.00,active
[deleted],screen,"AIO - Touch",,,"23""",default,30.00,active
[deleted],screen,"AIO - Touch",,,"24""",default,30.00,active
[deleted],brand,"AIO - Touch",,Samsung,,default,-20.00,active
[deleted],brand,"AIO - Touch",,Fujitsu,,default,-20.00,active
[deleted],service,"AIO - Touch",,,,default,0.00,active
[deleted],"logistic product","AIO - Touch",,,,default,100.00,active
[deleted],brand,"AIO - Touch",,Other,,default,-20.00,active
[deleted],screen,"AIO - Touch",,,"27""",default,40.00,active
[deleted],defectcap,"AIO - Touch",,,,default,70.00,active
[deleted],brand,"AIO - No Touch",,Lenovo,,default,-20.00,active
[deleted],brand,"AIO - Touch",,Lenovo,,default,-20.00,active
[deleted],brand,"AIO - Touch",,Acer,,default,-20.00,active
[deleted],brand,"AIO - No Touch",,Samsung,,default,-20.00,active
[deleted],brand,"AIO - No Touch",,Fujitsu,,default,-20.00,active
[deleted],brand,"AIO - No Touch",,Acer,,default,-20.00,active
[deleted],defectcap,"AIO - No Touch",,,,default,70.00,active
[deleted],service,"AIO - No Touch",,,,default,0.00,active
[deleted],"logistic product","AIO - No Touch",,,,default,100.00,active
