serial_number,date,status,model,type,processor,screen,hdd,ram,dev,price,margin,"""months 1 - 12""","""months 13 - 13""","""months 14 - 14""","""months 15 - 15""","""months 16 - 16""","""months 17 - 17""","""months 18 - 18""","""months 19 - 19""","""months 20 - 20""","""months 21 - 21""","""months 22 - 22""","""months 23 - 23""","""months 24 - 24""","""months 25 - 25""","""months 26 - 26""","""months 27 - 27""","""months 28 - 28""","""months 29 - 29""","""months 30 - 30""","""months 31 - 31""","""months 32 - 32""","""months 33 -33""","""months 34 - 34""","""months 35 - 35""","""months 36 - 36"""
"""1230""",1/1/2017,"""Valid""","""Omen 17-AN009TX""","""Notebook""","""i7 - Gen 7""","""17.3""""","""1TB""","""16GB""","""No""",2260,0,30,28,26,24,24,22,22,21,20,19,19,18,18,18,17,17,17,16,16,16,15,15,15,14,14
"""1231""",30/6/2016,"""Valid""","""Omen 15-CEO73TX""","""Notebook""","""i5 - Gen 7""","""15.6""""","""1TB""","""8GB""","""No""",1630,0,30,28,26,24,24,22,22,21,20,19,19,18,18,18,17,17,17,16,16,16,15,15,15,14,14
