serial_number,date,status,model,type,processor,screen,hdd,ram,dev,price,margin,months 12 - 12,months 13 - 13,months 14 - 14,months 15 - 15,months 16 - 16,months 17 - 17,months 18 - 18,months 19 - 19,months 20 - 20,months 21 - 21,months 22 - 22,months 23 - 23,months 24 - 24,months 25 - 25,months 26 - 26,months 27 - 27,months 28 - 28,months 29 - 29,months 30 - 30,months 31 - 31,months 32 - 32,months 33 -33,months 34 - 34,months 35 - 35,months 36 - 36
1230,1/1/2017,Valid,Omen 17-AN009TX,Notebook,i7 - Gen 7,17.3,1TB,16GB,No,2260,0,30,28,26,24,24,22,22,21,20,19,19,18,18,18,17,17,17,16,16,16,15,15,15,14,14
1231,30/6/2016,Valid,Omen 15-CEO73TX,Notebook,i5 - Gen 7,"15.6""",1TB,8GB,No,1630,0,30,28,26,24,24,22,22,21,20,19,19,18,18,18,17,17,17,16,16,16,15,15,15,14,14
1232,1/7/2016,Valid,Omen 15-CEO70TX,Notebook,i5 - Gen 7,"15.6""",1TB,8GB,No,1102,0,30,28,26,24,24,22,22,21,20,19,19,18,18,18,17,17,17,16,16,16,15,15,15,14,14
1233,1/2/2018,Valid,Omen 15-AX248TX,Notebook,i5 - Gen 7,"15.6""",1TB,8GB,No,940,0,30,28,26,24,24,22,22,21,20,19,19,18,18,18,17,17,17,16,16,16,15,15,15,14,14
1234,30/5/2015,Valid,Pav x360 15-BK001TX,Notebook,i5 - Gen 6,"15.6""",1TB,8GB,No,868,0,34,32,30,28,28,26,26,25,24,23,23,22,22,22,21,21,21,20,20,19,18,17,17,16,16
1235,30/6/2015,Valid,Pav x360 13-U131TU,Notebook,i3 - Gen 7,"13.3""",1TB,4GB,No,626,0,34,32,30,28,28,26,26,25,24,23,23,22,22,22,21,21,21,20,20,19,18,17,17,16,16
1236,30/6/2016,Valid,Pav 15-AU003TX,Notebook,i5 - Gen 6,"15.6""",1TB,8GB,No,692,0,34,32,30,28,28,26,26,25,24,23,23,22,22,22,21,21,21,20,20,19,18,17,17,16,16
1237,1/1/2014,Valid,HP15-BS544TU,Notebook,i3 - Gen 6,"15.6""",1TB,8GB,No,420,0,40,38,36,34,32,30,30,29,28,27,27,26,26,25,24,24,24,23,23,23,22,21,21,20,20
