Product,Service,Country,Client,US$ Price,Status
Notebook,HDD Missing - Assess & Report only,,default,4,Active
Desktop,HDD Missing - Assess & Report only,,default,4,Active
All-in-One,HDD Missing - Assess & Report only,,default,4,Active
Workstation,HDD Missing - Assess & Report only,,default,4,Active
Notebook,Three-pass disk wipe,,default,8,Active
Desktop,Three-pass disk wipe,,default,8,Active
All-in-One,Three-pass disk wipe,,default,8,Active
Workstation,Three-pass disk wipe,,default,8,Active
Notebook,Crush & recycle HDD,,default,10,Active
Desktop,Crush & recycle HDD,,default,10,Active
All-in-One,Crush & recycle HDD,,default,10,Active
Workstation,Crush & recycle HDD,,default,10,Active
Notebook,Three-pass wipe + crush & recycle,,default,14,Active
Desktop,Three-pass wipe + crush & recycle,,default,14,Active
All-in-One,Three-pass wipe + crush & recycle,,default,14,Active
Workstation,Three-pass wipe + crush & recycle,,default,14,Active
Notebook,Seven-pass disk wipe,,default,16,Active
Desktop,Seven-pass disk wipe,,default,16,Active
All-in-One,Seven-pass disk wipe,,default,16,Active
Workstation,Seven-pass disk wipe,,default,16,Active
Tablet,HDD Missing - Assess & Report only,,default,3,Active
Notebook,HDD Missing - Assess & Report only,,HPE Asset recovery - All Countries,9,Active
Desktop,HDD Missing - Assess & Report only,,HPE Asset recovery - All Countries,9,Active
All-in-One,HDD Missing - Assess & Report only,,HPE Asset recovery - All Countries,9,Active
Workstation,HDD Missing - Assess & Report only,,HPE Asset recovery - All Countries,9,Active
Notebook,Three-pass disk wipe,,HPE Asset recovery - All Countries,18,Active
Desktop,Three-pass disk wipe,,HPE Asset recovery - All Countries,18,Active
All-in-One,Three-pass disk wipe,,HPE Asset recovery - All Countries,18,Active
Workstation,Three-pass disk wipe,,HPE Asset recovery - All Countries,18,Active
Notebook,Crush & recycle HDD,,HPE Asset recovery - All Countries,18,Active
Desktop,Crush & recycle HDD,,HPE Asset recovery - All Countries,18,Active
All-in-One,Crush & recycle HDD,,HPE Asset recovery - All Countries,18,Active
Workstation,Crush & recycle HDD,,HPE Asset recovery - All Countries,18,Active
Notebook,Three-pass wipe + crush & recycle,,HPE Asset recovery - All Countries,24,Active
Desktop,Three-pass wipe + crush & recycle,,HPE Asset recovery - All Countries,24,Active
All-in-One,Three-pass wipe + crush & recycle,,HPE Asset recovery - All Countries,24,Active
Workstation,Three-pass wipe + crush & recycle,,HPE Asset recovery - All Countries,24,Active
Notebook,Seven-pass disk wipe,,HPE Asset recovery - All Countries,24,Active
Desktop,Seven-pass disk wipe,,HPE Asset recovery - All Countries,24,Active
All-in-One,Seven-pass disk wipe,,HPE Asset recovery - All Countries,24,Active
Workstation,Seven-pass disk wipe,,HPE Asset recovery - All Countries,24,Active
Tablet,HDD Missing - Assess & Report only,Turkey,HPI - All Countries,3.260869565,Active
Desktop,HDD Missing - Assess & Report only,Turkey,HPI - All Countries,3.260869565,Active
All-in-One,HDD Missing - Assess & Report only,Turkey,HPI - All Countries,3.260869565,Active
Workstation,HDD Missing - Assess & Report only,Turkey,HPI - All Countries,3.260869565,Active
Desktop,Three-pass disk wipe,Turkey,HPI - All Countries,6.52173913,Active
Notebook,Three-pass disk wipe,Turkey,HPI - All Countries,6.52173913,Active
All-in-One,Three-pass disk wipe,Turkey,HPI - All Countries,6.52173913,Active
Workstation,Three-pass disk wipe,Turkey,HPI - All Countries,6.52173913,Active
All-in-One,Crush & recycle HDD,Turkey,HPI - All Countries,8.695652174,Active
Desktop,Crush & recycle HDD,Turkey,HPI - All Countries,8.695652174,Active
Notebook,Crush & recycle HDD,Turkey,HPI - All Countries,8.695652174,Active
Workstation,Crush & recycle HDD,Turkey,HPI - All Countries,8.695652174,Active
All-in-One,Three-pass wipe + crush & recycle,Turkey,HPI - All Countries,11.95652174,Active
Desktop,Three-pass wipe + crush & recycle,Turkey,HPI - All Countries,11.95652174,Active
Notebook,Three-pass wipe + crush & recycle,Turkey,HPI - All Countries,11.95652174,Active
Workstation,Three-pass wipe + crush & recycle,Turkey,HPI - All Countries,11.95652174,Active
Workstation,Seven-pass disk wipe,Turkey,HPI - All Countries,14.13043478,Active
All-in-One,Seven-pass disk wipe,Turkey,HPI - All Countries,14.13043478,Active
Desktop,Seven-pass disk wipe,Turkey,HPI - All Countries,14.13043478,Active
Notebook,Seven-pass disk wipe,Turkey,HPI - All Countries,14.13043478,Active
Notebook,HDD Missing - Assess & Report only,New Zealand,HPI - All Countries,3.448275862,Active
Desktop,HDD Missing - Assess & Report only,New Zealand,HPI - All Countries,3.448275862,Active
All-in-One,HDD Missing - Assess & Report only,New Zealand,HPI - All Countries,3.448275862,Active
Workstation,HDD Missing - Assess & Report only,New Zealand,HPI - All Countries,3.448275862,Active
Desktop,Three-pass disk wipe,New Zealand,HPI - All Countries,6.896551724,Active
Notebook,Three-pass disk wipe,New Zealand,HPI - All Countries,6.896551724,Active
All-in-One,Three-pass disk wipe,New Zealand,HPI - All Countries,6.896551724,Active
Workstation,Three-pass disk wipe,New Zealand,HPI - All Countries,6.896551724,Active
All-in-One,Crush & recycle HDD,New Zealand,HPI - All Countries,9.655172414,Active
Desktop,Crush & recycle HDD,New Zealand,HPI - All Countries,9.655172414,Active
Notebook,Crush & recycle HDD,New Zealand,HPI - All Countries,9.655172414,Active
Workstation,Crush & recycle HDD,New Zealand,HPI - All Countries,9.655172414,Active
All-in-One,Three-pass wipe + crush & recycle,New Zealand,HPI - All Countries,13.79310345,Active
Desktop,Three-pass wipe + crush & recycle,New Zealand,HPI - All Countries,13.79310345,Active
Notebook,Three-pass wipe + crush & recycle,New Zealand,HPI - All Countries,13.79310345,Active
Workstation,Three-pass wipe + crush & recycle,New Zealand,HPI - All Countries,13.79310345,Active
Workstation,Seven-pass disk wipe,New Zealand,HPI - All Countries,15.17241379,Active
All-in-One,Seven-pass disk wipe,New Zealand,HPI - All Countries,15.17241379,Active
Desktop,Seven-pass disk wipe,New Zealand,HPI - All Countries,15.17241379,Active
Notebook,Seven-pass disk wipe,New Zealand,HPI - All Countries,15.17241379,Active
Notebook,HDD Missing - Assess & Report only,Australia,HPI - All Countries,3.759398496,Active
Desktop,HDD Missing - Assess & Report only,Australia,HPI - All Countries,3.759398496,Active
All-in-One,HDD Missing - Assess & Report only,Australia,HPI - All Countries,3.759398496,Active
Workstation,HDD Missing - Assess & Report only,Australia,HPI - All Countries,3.759398496,Active
Desktop,Three-pass disk wipe,Australia,HPI - All Countries,7.518796992,Active
Notebook,Three-pass disk wipe,Australia,HPI - All Countries,7.518796992,Active
All-in-One,Three-pass disk wipe,Australia,HPI - All Countries,7.518796992,Active
Workstation,Three-pass disk wipe,Australia,HPI - All Countries,7.518796992,Active
All-in-One,Crush & recycle HDD,Australia,HPI - All Countries,10.52631579,Active
Desktop,Crush & recycle HDD,Australia,HPI - All Countries,10.52631579,Active
Notebook,Crush & recycle HDD,Australia,HPI - All Countries,10.52631579,Active
Workstation,Crush & recycle HDD,Australia,HPI - All Countries,10.52631579,Active
All-in-One,Three-pass wipe + crush & recycle,Australia,HPI - All Countries,15.03759398,Active
Desktop,Three-pass wipe + crush & recycle,Australia,HPI - All Countries,15.03759398,Active
Notebook,Three-pass wipe + crush & recycle,Australia,HPI - All Countries,15.03759398,Active
Workstation,Three-pass wipe + crush & recycle,Australia,HPI - All Countries,15.03759398,Active
Workstation,Seven-pass disk wipe,Australia,HPI - All Countries,16.54135338,Active
All-in-One,Seven-pass disk wipe,Australia,HPI - All Countries,16.54135338,Active
Desktop,Seven-pass disk wipe,Australia,HPI - All Countries,16.54135338,Active
Notebook,Seven-pass disk wipe,Australia,HPI - All Countries,16.54135338,Active
Notebook,HDD Missing - Assess & Report only,Singapore,HPI - All Countries,3.571428571,Active
Desktop,HDD Missing - Assess & Report only,Singapore,HPI - All Countries,3.571428571,Active
All-in-One,HDD Missing - Assess & Report only,Singapore,HPI - All Countries,3.571428571,Active
Workstation,HDD Missing - Assess & Report only,Singapore,HPI - All Countries,3.571428571,Active
Desktop,Three-pass disk wipe,Singapore,HPI - All Countries,7.142857143,Active
Notebook,Three-pass disk wipe,Singapore,HPI - All Countries,7.142857143,Active
All-in-One,Three-pass disk wipe,Singapore,HPI - All Countries,7.142857143,Active
Workstation,Three-pass disk wipe,Singapore,HPI - All Countries,7.142857143,Active
All-in-One,Crush & recycle HDD,Singapore,HPI - All Countries,10,Active
Desktop,Crush & recycle HDD,Singapore,HPI - All Countries,10,Active
Notebook,Crush & recycle HDD,Singapore,HPI - All Countries,10,Active
Workstation,Crush & recycle HDD,Singapore,HPI - All Countries,10,Active
All-in-One,Three-pass wipe + crush & recycle,Singapore,HPI - All Countries,12.85714286,Active
Desktop,Three-pass wipe + crush & recycle,Singapore,HPI - All Countries,12.85714286,Active
Notebook,Three-pass wipe + crush & recycle,Singapore,HPI - All Countries,12.85714286,Active
Workstation,Three-pass wipe + crush & recycle,Singapore,HPI - All Countries,12.85714286,Active
Workstation,Seven-pass disk wipe,Singapore,HPI - All Countries,14.28571429,Active
All-in-One,Seven-pass disk wipe,Singapore,HPI - All Countries,14.28571429,Active
Desktop,Seven-pass disk wipe,Singapore,HPI - All Countries,14.28571429,Active
Notebook,Seven-pass disk wipe,Singapore,HPI - All Countries,14.28571429,Active
Notebook,HDD Missing - Assess & Report only,India,HPI - All Countries,3.703703704,Active
Desktop,HDD Missing - Assess & Report only,India,HPI - All Countries,3.703703704,Active
All-in-One,HDD Missing - Assess & Report only,India,HPI - All Countries,3.703703704,Active
Workstation,HDD Missing - Assess & Report only,India,HPI - All Countries,3.703703704,Active
Desktop,Three-pass disk wipe,India,HPI - All Countries,7.407407407,Active
Notebook,Three-pass disk wipe,India,HPI - All Countries,7.407407407,Active
All-in-One,Three-pass disk wipe,India,HPI - All Countries,7.407407407,Active
Workstation,Three-pass disk wipe,India,HPI - All Countries,7.407407407,Active
All-in-One,Crush & recycle HDD,India,HPI - All Countries,10.37037037,Active
Desktop,Crush & recycle HDD,India,HPI - All Countries,10.37037037,Active
Notebook,Crush & recycle HDD,India,HPI - All Countries,10.37037037,Active
Workstation,Crush & recycle HDD,India,HPI - All Countries,10.37037037,Active
All-in-One,Three-pass wipe + crush & recycle,India,HPI - All Countries,13.33333333,Active
Desktop,Three-pass wipe + crush & recycle,India,HPI - All Countries,13.33333333,Active
Notebook,Three-pass wipe + crush & recycle,India,HPI - All Countries,13.33333333,Active
Workstation,Three-pass wipe + crush & recycle,India,HPI - All Countries,13.33333333,Active
Workstation,Seven-pass disk wipe,India,HPI - All Countries,14.81481481,Active
All-in-One,Seven-pass disk wipe,India,HPI - All Countries,14.81481481,Active
Desktop,Seven-pass disk wipe,India,HPI - All Countries,14.81481481,Active
Notebook,Seven-pass disk wipe,India,HPI - All Countries,14.81481481,Active
Notebook,HDD Missing - Assess & Report only,Japan,HPI - All Countries,4.424778761,Active
Desktop,HDD Missing - Assess & Report only,Japan,HPI - All Countries,4.424778761,Active
All-in-One,HDD Missing - Assess & Report only,Japan,HPI - All Countries,4.424778761,Active
Workstation,HDD Missing - Assess & Report only,Japan,HPI - All Countries,4.424778761,Active
Desktop,Three-pass disk wipe,Japan,HPI - All Countries,8.849557522,Active
Notebook,Three-pass disk wipe,Japan,HPI - All Countries,8.849557522,Active
All-in-One,Three-pass disk wipe,Japan,HPI - All Countries,8.849557522,Active
Workstation,Three-pass disk wipe,Japan,HPI - All Countries,8.849557522,Active
All-in-One,Crush & recycle HDD,Japan,HPI - All Countries,10.61946903,Active
Desktop,Crush & recycle HDD,Japan,HPI - All Countries,10.61946903,Active
Notebook,Crush & recycle HDD,Japan,HPI - All Countries,10.61946903,Active
Workstation,Crush & recycle HDD,Japan,HPI - All Countries,10.61946903,Active
All-in-One,Three-pass wipe + crush & recycle,Japan,HPI - All Countries,14.15929204,Active
Desktop,Three-pass wipe + crush & recycle,Japan,HPI - All Countries,14.15929204,Active
Notebook,Three-pass wipe + crush & recycle,Japan,HPI - All Countries,14.15929204,Active
Workstation,Three-pass wipe + crush & recycle,Japan,HPI - All Countries,14.15929204,Active
Workstation,Seven-pass disk wipe,Japan,HPI - All Countries,15.92920354,Active
All-in-One,Seven-pass disk wipe,Japan,HPI - All Countries,15.92920354,Active
Desktop,Seven-pass disk wipe,Japan,HPI - All Countries,15.92920354,Active
Notebook,Seven-pass disk wipe,Japan,HPI - All Countries,15.92920354,Active
Notebook,HDD Missing - Assess & Report only,UAE,HPI - All Countries,4.08719346,Active
Desktop,HDD Missing - Assess & Report only,UAE,HPI - All Countries,4.08719346,Active
All-in-One,HDD Missing - Assess & Report only,UAE,HPI - All Countries,4.08719346,Active
Workstation,HDD Missing - Assess & Report only,UAE,HPI - All Countries,4.08719346,Active
Desktop,Three-pass disk wipe,UAE,HPI - All Countries,8.174386921,Active
Notebook,Three-pass disk wipe,UAE,HPI - All Countries,8.174386921,Active
All-in-One,Three-pass disk wipe,UAE,HPI - All Countries,8.174386921,Active
Workstation,Three-pass disk wipe,UAE,HPI - All Countries,8.174386921,Active
All-in-One,Crush & recycle HDD,UAE,HPI - All Countries,9.809264305,Active
Desktop,Crush & recycle HDD,UAE,HPI - All Countries,9.809264305,Active
Notebook,Crush & recycle HDD,UAE,HPI - All Countries,9.809264305,Active
Workstation,Crush & recycle HDD,UAE,HPI - All Countries,9.809264305,Active
All-in-One,Three-pass wipe + crush & recycle,UAE,HPI - All Countries,13.6239782,Active
Desktop,Three-pass wipe + crush & recycle,UAE,HPI - All Countries,13.6239782,Active
Notebook,Three-pass wipe + crush & recycle,UAE,HPI - All Countries,13.6239782,Active
Workstation,Three-pass wipe + crush & recycle,UAE,HPI - All Countries,13.6239782,Active
Workstation,Seven-pass disk wipe,UAE,HPI - All Countries,16.34877384,Active
All-in-One,Seven-pass disk wipe,UAE,HPI - All Countries,16.34877384,Active
Desktop,Seven-pass disk wipe,UAE,HPI - All Countries,16.34877384,Active
Notebook,Seven-pass disk wipe,UAE,HPI - All Countries,16.34877384,Active
Notebook,HDD Missing - Assess & Report only,Hong Kong,HPI - All Countries,4.166666667,Active
Desktop,HDD Missing - Assess & Report only,Hong Kong,HPI - All Countries,4.166666667,Active
All-in-One,HDD Missing - Assess & Report only,Hong Kong,HPI - All Countries,4.166666667,Active
Workstation,HDD Missing - Assess & Report only,Hong Kong,HPI - All Countries,4.166666667,Active
Desktop,Three-pass disk wipe,Hong Kong,HPI - All Countries,8.333333333,Active
Notebook,Three-pass disk wipe,Hong Kong,HPI - All Countries,8.333333333,Active
All-in-One,Three-pass disk wipe,Hong Kong,HPI - All Countries,8.333333333,Active
Workstation,Three-pass disk wipe,Hong Kong,HPI - All Countries,8.333333333,Active
All-in-One,Crush & recycle HDD,Hong Kong,HPI - All Countries,10.25641026,Active
Desktop,Crush & recycle HDD,Hong Kong,HPI - All Countries,10.25641026,Active
Notebook,Crush & recycle HDD,Hong Kong,HPI - All Countries,10.25641026,Active
Workstation,Crush & recycle HDD,Hong Kong,HPI - All Countries,10.25641026,Active
All-in-One,Three-pass wipe + crush & recycle,Hong Kong,HPI - All Countries,14.1025641,Active
Desktop,Three-pass wipe + crush & recycle,Hong Kong,HPI - All Countries,14.1025641,Active
Notebook,Three-pass wipe + crush & recycle,Hong Kong,HPI - All Countries,14.1025641,Active
Workstation,Three-pass wipe + crush & recycle,Hong Kong,HPI - All Countries,14.1025641,Active
Workstation,Seven-pass disk wipe,Hong Kong,HPI - All Countries,16.02564103,Active
All-in-One,Seven-pass disk wipe,Hong Kong,HPI - All Countries,16.02564103,Active
Desktop,Seven-pass disk wipe,Hong Kong,HPI - All Countries,16.02564103,Active
Notebook,Seven-pass disk wipe,Hong Kong,HPI - All Countries,16.02564103,Active
Notebook,HDD Missing - Assess & Report only,Germany,HPI - All Countries,5.747126437,Active
Desktop,HDD Missing - Assess & Report only,Germany,HPI - All Countries,5.747126437,Active
All-in-One,HDD Missing - Assess & Report only,Germany,HPI - All Countries,5.747126437,Active
Workstation,HDD Missing - Assess & Report only,Germany,HPI - All Countries,5.747126437,Active
Notebook,Three-pass disk wipe,Germany,HPI - All Countries,11.49425287,Active
Desktop,Three-pass disk wipe,Germany,HPI - All Countries,11.49425287,Active
All-in-One,Three-pass disk wipe,Germany,HPI - All Countries,11.49425287,Active
Workstation,Three-pass disk wipe,Germany,HPI - All Countries,11.49425287,Active
Notebook,Crush & recycle HDD,Germany,HPI - All Countries,13.79310345,Active
Desktop,Crush & recycle HDD,Germany,HPI - All Countries,13.79310345,Active
All-in-One,Crush & recycle HDD,Germany,HPI - All Countries,13.79310345,Active
Workstation,Crush & recycle HDD,Germany,HPI - All Countries,13.79310345,Active
Notebook,Three-pass wipe + crush & recycle,Germany,HPI - All Countries,16.09195402,Active
Desktop,Three-pass wipe + crush & recycle,Germany,HPI - All Countries,16.09195402,Active
All-in-One,Three-pass wipe + crush & recycle,Germany,HPI - All Countries,16.09195402,Active
Workstation,Three-pass wipe + crush & recycle,Germany,HPI - All Countries,16.09195402,Active
Notebook,Seven-pass disk wipe,Germany,HPI - All Countries,18.3908046,Active
Desktop,Seven-pass disk wipe,Germany,HPI - All Countries,18.3908046,Active
All-in-One,Seven-pass disk wipe,Germany,HPI - All Countries,18.3908046,Active
Workstation,Seven-pass disk wipe,Germany,HPI - All Countries,18.3908046,Active
Notebook,HDD Missing - Assess & Report only,France,HPI - All Countries,5.747126437,Active
Desktop,HDD Missing - Assess & Report only,France,HPI - All Countries,5.747126437,Active
All-in-One,HDD Missing - Assess & Report only,France,HPI - All Countries,5.747126437,Active
Workstation,HDD Missing - Assess & Report only,France,HPI - All Countries,5.747126437,Active
Notebook,Three-pass disk wipe,France,HPI - All Countries,11.49425287,Active
Desktop,Three-pass disk wipe,France,HPI - All Countries,11.49425287,Active
All-in-One,Three-pass disk wipe,France,HPI - All Countries,11.49425287,Active
Workstation,Three-pass disk wipe,France,HPI - All Countries,11.49425287,Active
Notebook,Crush & recycle HDD,France,HPI - All Countries,13.79310345,Active
Desktop,Crush & recycle HDD,France,HPI - All Countries,13.79310345,Active
All-in-One,Crush & recycle HDD,France,HPI - All Countries,13.79310345,Active
Workstation,Crush & recycle HDD,France,HPI - All Countries,13.79310345,Active
Notebook,Three-pass wipe + crush & recycle,France,HPI - All Countries,16.09195402,Active
Desktop,Three-pass wipe + crush & recycle,France,HPI - All Countries,16.09195402,Active
All-in-One,Three-pass wipe + crush & recycle,France,HPI - All Countries,16.09195402,Active
Workstation,Three-pass wipe + crush & recycle,France,HPI - All Countries,16.09195402,Active
Notebook,Seven-pass disk wipe,France,HPI - All Countries,18.3908046,Active
Desktop,Seven-pass disk wipe,France,HPI - All Countries,18.3908046,Active
All-in-One,Seven-pass disk wipe,France,HPI - All Countries,18.3908046,Active
Workstation,Seven-pass disk wipe,France,HPI - All Countries,18.3908046,Active
Notebook,HDD Missing - Assess & Report only,Belgium,HPI - All Countries,5.747126437,Active
Desktop,HDD Missing - Assess & Report only,Belgium,HPI - All Countries,5.747126437,Active
All-in-One,HDD Missing - Assess & Report only,Belgium,HPI - All Countries,5.747126437,Active
Workstation,HDD Missing - Assess & Report only,Belgium,HPI - All Countries,5.747126437,Active
Notebook,Three-pass disk wipe,Belgium,HPI - All Countries,11.49425287,Active
Desktop,Three-pass disk wipe,Belgium,HPI - All Countries,11.49425287,Active
All-in-One,Three-pass disk wipe,Belgium,HPI - All Countries,11.49425287,Active
Workstation,Three-pass disk wipe,Belgium,HPI - All Countries,11.49425287,Active
Notebook,Crush & recycle HDD,Belgium,HPI - All Countries,13.79310345,Active
Desktop,Crush & recycle HDD,Belgium,HPI - All Countries,13.79310345,Active
All-in-One,Crush & recycle HDD,Belgium,HPI - All Countries,13.79310345,Active
Workstation,Crush & recycle HDD,Belgium,HPI - All Countries,13.79310345,Active
Notebook,Three-pass wipe + crush & recycle,Belgium,HPI - All Countries,16.09195402,Active
Desktop,Three-pass wipe + crush & recycle,Belgium,HPI - All Countries,16.09195402,Active
All-in-One,Three-pass wipe + crush & recycle,Belgium,HPI - All Countries,16.09195402,Active
Workstation,Three-pass wipe + crush & recycle,Belgium,HPI - All Countries,16.09195402,Active
Notebook,Seven-pass disk wipe,Belgium,HPI - All Countries,18.3908046,Active
Desktop,Seven-pass disk wipe,Belgium,HPI - All Countries,18.3908046,Active
All-in-One,Seven-pass disk wipe,Belgium,HPI - All Countries,18.3908046,Active
Workstation,Seven-pass disk wipe,Belgium,HPI - All Countries,18.3908046,Active
Notebook,HDD Missing - Assess & Report only,Netherlands,HPI - All Countries,5.747126437,Active
Desktop,HDD Missing - Assess & Report only,Netherlands,HPI - All Countries,5.747126437,Active
All-in-One,HDD Missing - Assess & Report only,Netherlands,HPI - All Countries,5.747126437,Active
Workstation,HDD Missing - Assess & Report only,Netherlands,HPI - All Countries,5.747126437,Active
Notebook,Three-pass disk wipe,Netherlands,HPI - All Countries,11.49425287,Active
Desktop,Three-pass disk wipe,Netherlands,HPI - All Countries,11.49425287,Active
All-in-One,Three-pass disk wipe,Netherlands,HPI - All Countries,11.49425287,Active
Workstation,Three-pass disk wipe,Netherlands,HPI - All Countries,11.49425287,Active
Notebook,Crush & recycle HDD,Netherlands,HPI - All Countries,13.79310345,Active
Desktop,Crush & recycle HDD,Netherlands,HPI - All Countries,13.79310345,Active
All-in-One,Crush & recycle HDD,Netherlands,HPI - All Countries,13.79310345,Active
Workstation,Crush & recycle HDD,Netherlands,HPI - All Countries,13.79310345,Active
Notebook,Three-pass wipe + crush & recycle,Netherlands,HPI - All Countries,16.09195402,Active
Desktop,Three-pass wipe + crush & recycle,Netherlands,HPI - All Countries,16.09195402,Active
All-in-One,Three-pass wipe + crush & recycle,Netherlands,HPI - All Countries,16.09195402,Active
Workstation,Three-pass wipe + crush & recycle,Netherlands,HPI - All Countries,16.09195402,Active
Notebook,Seven-pass disk wipe,Netherlands,HPI - All Countries,18.3908046,Active
Desktop,Seven-pass disk wipe,Netherlands,HPI - All Countries,18.3908046,Active
All-in-One,Seven-pass disk wipe,Netherlands,HPI - All Countries,18.3908046,Active
Workstation,Seven-pass disk wipe,Netherlands,HPI - All Countries,18.3908046,Active
Notebook,HDD Missing - Assess & Report only,Luxembourg,HPI - All Countries,5.747126437,Active
Desktop,HDD Missing - Assess & Report only,Luxembourg,HPI - All Countries,5.747126437,Active
All-in-One,HDD Missing - Assess & Report only,Luxembourg,HPI - All Countries,5.747126437,Active
Workstation,HDD Missing - Assess & Report only,Luxembourg,HPI - All Countries,5.747126437,Active
Notebook,Three-pass disk wipe,Luxembourg,HPI - All Countries,11.49425287,Active
Desktop,Three-pass disk wipe,Luxembourg,HPI - All Countries,11.49425287,Active
All-in-One,Three-pass disk wipe,Luxembourg,HPI - All Countries,11.49425287,Active
Workstation,Three-pass disk wipe,Luxembourg,HPI - All Countries,11.49425287,Active
Notebook,Crush & recycle HDD,Luxembourg,HPI - All Countries,13.79310345,Active
Desktop,Crush & recycle HDD,Luxembourg,HPI - All Countries,13.79310345,Active
All-in-One,Crush & recycle HDD,Luxembourg,HPI - All Countries,13.79310345,Active
Workstation,Crush & recycle HDD,Luxembourg,HPI - All Countries,13.79310345,Active
Notebook,Three-pass wipe + crush & recycle,Luxembourg,HPI - All Countries,16.09195402,Active
Desktop,Three-pass wipe + crush & recycle,Luxembourg,HPI - All Countries,16.09195402,Active
All-in-One,Three-pass wipe + crush & recycle,Luxembourg,HPI - All Countries,16.09195402,Active
Workstation,Three-pass wipe + crush & recycle,Luxembourg,HPI - All Countries,16.09195402,Active
Notebook,Seven-pass disk wipe,Luxembourg,HPI - All Countries,18.3908046,Active
Desktop,Seven-pass disk wipe,Luxembourg,HPI - All Countries,18.3908046,Active
All-in-One,Seven-pass disk wipe,Luxembourg,HPI - All Countries,18.3908046,Active
Workstation,Seven-pass disk wipe,Luxembourg,HPI - All Countries,18.3908046,Active
Notebook,HDD Missing - Assess & Report only,United Kingdom,HPI - All Countries,3.947368421,Active
Desktop,HDD Missing - Assess & Report only,United Kingdom,HPI - All Countries,3.947368421,Active
All-in-One,HDD Missing - Assess & Report only,United Kingdom,HPI - All Countries,3.947368421,Active
Workstation,HDD Missing - Assess & Report only,United Kingdom,HPI - All Countries,3.947368421,Active
Notebook,Three-pass disk wipe,United Kingdom,HPI - All Countries,7.894736842,Active
Desktop,Three-pass disk wipe,United Kingdom,HPI - All Countries,7.894736842,Active
All-in-One,Three-pass disk wipe,United Kingdom,HPI - All Countries,7.894736842,Active
Workstation,Three-pass disk wipe,United Kingdom,HPI - All Countries,7.894736842,Active
Notebook,Crush & recycle HDD,United Kingdom,HPI - All Countries,10.52631579,Active
Desktop,Crush & recycle HDD,United Kingdom,HPI - All Countries,10.52631579,Active
All-in-One,Crush & recycle HDD,United Kingdom,HPI - All Countries,10.52631579,Active
Workstation,Crush & recycle HDD,United Kingdom,HPI - All Countries,10.52631579,Active
Notebook,Three-pass wipe + crush & recycle,United Kingdom,HPI - All Countries,14.47368421,Active
Desktop,Three-pass wipe + crush & recycle,United Kingdom,HPI - All Countries,14.47368421,Active
All-in-One,Three-pass wipe + crush & recycle,United Kingdom,HPI - All Countries,14.47368421,Active
Workstation,Three-pass wipe + crush & recycle,United Kingdom,HPI - All Countries,14.47368421,Active
Notebook,Seven-pass disk wipe,United Kingdom,HPI - All Countries,18.42105263,Active
Desktop,Seven-pass disk wipe,United Kingdom,HPI - All Countries,18.42105263,Active
All-in-One,Seven-pass disk wipe,United Kingdom,HPI - All Countries,18.42105263,Active
Workstation,Seven-pass disk wipe,United Kingdom,HPI - All Countries,18.42105263,Active
