message,Product,Service,Country,Client,"US$ Price",Status
[updated],Notebook,"HDD Missing - Assess & Report only",,default,4,Active
[updated],Desktop,"HDD Missing - Assess & Report only",,default,4,Active
[updated],All-in-One,"HDD Missing - Assess & Report only",,default,4,Active
[updated],Workstation,"HDD Missing - Assess & Report only",,default,4,Active
[updated],Notebook,"Three-pass disk wipe",,default,8,Active
[updated],Desktop,"Three-pass disk wipe",,default,8,Active
[updated],All-in-One,"Three-pass disk wipe",,default,8,Active
[updated],Workstation,"Three-pass disk wipe",,default,8,Active
[updated],Notebook,"Crush & recycle HDD",,default,10,Active
[updated],Desktop,"Crush & recycle HDD",,default,10,Active
[updated],All-in-One,"Crush & recycle HDD",,default,10,Active
[updated],Workstation,"Crush & recycle HDD",,default,10,Active
[updated],Notebook,"Three-pass wipe + crush & recycle",,default,14,Active
[updated],Desktop,"Three-pass wipe + crush & recycle",,default,14,Active
[updated],All-in-One,"Three-pass wipe + crush & recycle",,default,14,Active
[updated],Workstation,"Three-pass wipe + crush & recycle",,default,14,Active
[updated],Notebook,"Seven-pass disk wipe",,default,16,Active
[updated],Desktop,"Seven-pass disk wipe",,default,16,Active
[updated],All-in-One,"Seven-pass disk wipe",,default,16,Active
[updated],Workstation,"Seven-pass disk wipe",,default,16,Active
[updated],Tablet,"HDD Missing - Assess & Report only",,default,3,Active
[updated],Notebook,"HDD Missing - Assess & Report only",,"HPE Asset recovery - All Countries",9,Active
[updated],Desktop,"HDD Missing - Assess & Report only",,"HPE Asset recovery - All Countries",9,Active
[updated],All-in-One,"HDD Missing - Assess & Report only",,"HPE Asset recovery - All Countries",9,Active
[updated],Workstation,"HDD Missing - Assess & Report only",,"HPE Asset recovery - All Countries",9,Active
[updated],Notebook,"Three-pass disk wipe",,"HPE Asset recovery - All Countries",18,Active
[updated],Desktop,"Three-pass disk wipe",,"HPE Asset recovery - All Countries",18,Active
[updated],All-in-One,"Three-pass disk wipe",,"HPE Asset recovery - All Countries",18,Active
[updated],Workstation,"Three-pass disk wipe",,"HPE Asset recovery - All Countries",18,Active
[updated],Notebook,"Crush & recycle HDD",,"HPE Asset recovery - All Countries",18,Active
[updated],Desktop,"Crush & recycle HDD",,"HPE Asset recovery - All Countries",18,Active
[updated],All-in-One,"Crush & recycle HDD",,"HPE Asset recovery - All Countries",18,Active
[updated],Workstation,"Crush & recycle HDD",,"HPE Asset recovery - All Countries",18,Active
[updated],Notebook,"Three-pass wipe + crush & recycle",,"HPE Asset recovery - All Countries",24,Active
[updated],Desktop,"Three-pass wipe + crush & recycle",,"HPE Asset recovery - All Countries",24,Active
[updated],All-in-One,"Three-pass wipe + crush & recycle",,"HPE Asset recovery - All Countries",24,Active
[updated],Workstation,"Three-pass wipe + crush & recycle",,"HPE Asset recovery - All Countries",24,Active
[updated],Notebook,"Seven-pass disk wipe",,"HPE Asset recovery - All Countries",24,Active
[updated],Desktop,"Seven-pass disk wipe",,"HPE Asset recovery - All Countries",24,Active
[updated],All-in-One,"Seven-pass disk wipe",,"HPE Asset recovery - All Countries",24,Active
[updated],Workstation,"Seven-pass disk wipe",,"HPE Asset recovery - All Countries",24,Active
[updated],Tablet,"HDD Missing - Assess & Report only",Turkey,"HPI - All Countries",3.260869565,Active
[updated],Desktop,"HDD Missing - Assess & Report only",Turkey,"HPI - All Countries",3.260869565,Active
[updated],All-in-One,"HDD Missing - Assess & Report only",Turkey,"HPI - All Countries",3.260869565,Active
[updated],Workstation,"HDD Missing - Assess & Report only",Turkey,"HPI - All Countries",3.260869565,Active
[updated],Desktop,"Three-pass disk wipe",Turkey,"HPI - All Countries",6.52173913,Active
[updated],Notebook,"Three-pass disk wipe",Turkey,"HPI - All Countries",6.52173913,Active
[updated],All-in-One,"Three-pass disk wipe",Turkey,"HPI - All Countries",6.52173913,Active
[updated],Workstation,"Three-pass disk wipe",Turkey,"HPI - All Countries",6.52173913,Active
[updated],All-in-One,"Crush & recycle HDD",Turkey,"HPI - All Countries",8.695652174,Active
[updated],Desktop,"Crush & recycle HDD",Turkey,"HPI - All Countries",8.695652174,Active
[updated],Notebook,"Crush & recycle HDD",Turkey,"HPI - All Countries",8.695652174,Active
[updated],Workstation,"Crush & recycle HDD",Turkey,"HPI - All Countries",8.695652174,Active
[updated],All-in-One,"Three-pass wipe + crush & recycle",Turkey,"HPI - All Countries",11.95652174,Active
[updated],Desktop,"Three-pass wipe + crush & recycle",Turkey,"HPI - All Countries",11.95652174,Active
[updated],Notebook,"Three-pass wipe + crush & recycle",Turkey,"HPI - All Countries",11.95652174,Active
[updated],Workstation,"Three-pass wipe + crush & recycle",Turkey,"HPI - All Countries",11.95652174,Active
[updated],Workstation,"Seven-pass disk wipe",Turkey,"HPI - All Countries",14.13043478,Active
[updated],All-in-One,"Seven-pass disk wipe",Turkey,"HPI - All Countries",14.13043478,Active
[updated],Desktop,"Seven-pass disk wipe",Turkey,"HPI - All Countries",14.13043478,Active
[updated],Notebook,"Seven-pass disk wipe",Turkey,"HPI - All Countries",14.13043478,Active
[updated],Notebook,"HDD Missing - Assess & Report only","New Zealand","HPI - All Countries",3.448275862,Active
[updated],Desktop,"HDD Missing - Assess & Report only","New Zealand","HPI - All Countries",3.448275862,Active
[updated],All-in-One,"HDD Missing - Assess & Report only","New Zealand","HPI - All Countries",3.448275862,Active
[updated],Workstation,"HDD Missing - Assess & Report only","New Zealand","HPI - All Countries",3.448275862,Active
[updated],Desktop,"Three-pass disk wipe","New Zealand","HPI - All Countries",6.896551724,Active
[updated],Notebook,"Three-pass disk wipe","New Zealand","HPI - All Countries",6.896551724,Active
[updated],All-in-One,"Three-pass disk wipe","New Zealand","HPI - All Countries",6.896551724,Active
[updated],Workstation,"Three-pass disk wipe","New Zealand","HPI - All Countries",6.896551724,Active
[updated],All-in-One,"Crush & recycle HDD","New Zealand","HPI - All Countries",9.655172414,Active
[updated],Desktop,"Crush & recycle HDD","New Zealand","HPI - All Countries",9.655172414,Active
[updated],Notebook,"Crush & recycle HDD","New Zealand","HPI - All Countries",9.655172414,Active
[updated],Workstation,"Crush & recycle HDD","New Zealand","HPI - All Countries",9.655172414,Active
[updated],All-in-One,"Three-pass wipe + crush & recycle","New Zealand","HPI - All Countries",13.79310345,Active
[updated],Desktop,"Three-pass wipe + crush & recycle","New Zealand","HPI - All Countries",13.79310345,Active
[updated],Notebook,"Three-pass wipe + crush & recycle","New Zealand","HPI - All Countries",13.79310345,Active
[updated],Workstation,"Three-pass wipe + crush & recycle","New Zealand","HPI - All Countries",13.79310345,Active
[updated],Workstation,"Seven-pass disk wipe","New Zealand","HPI - All Countries",15.17241379,Active
[updated],All-in-One,"Seven-pass disk wipe","New Zealand","HPI - All Countries",15.17241379,Active
[updated],Desktop,"Seven-pass disk wipe","New Zealand","HPI - All Countries",15.17241379,Active
[updated],Notebook,"Seven-pass disk wipe","New Zealand","HPI - All Countries",15.17241379,Active
[updated],Notebook,"HDD Missing - Assess & Report only",Australia,"HPI - All Countries",3.759398496,Active
[updated],Desktop,"HDD Missing - Assess & Report only",Australia,"HPI - All Countries",3.759398496,Active
[updated],All-in-One,"HDD Missing - Assess & Report only",Australia,"HPI - All Countries",3.759398496,Active
[updated],Workstation,"HDD Missing - Assess & Report only",Australia,"HPI - All Countries",3.759398496,Active
[updated],Desktop,"Three-pass disk wipe",Australia,"HPI - All Countries",7.518796992,Active
[updated],Notebook,"Three-pass disk wipe",Australia,"HPI - All Countries",7.518796992,Active
[updated],All-in-One,"Three-pass disk wipe",Australia,"HPI - All Countries",7.518796992,Active
[updated],Workstation,"Three-pass disk wipe",Australia,"HPI - All Countries",7.518796992,Active
[updated],All-in-One,"Crush & recycle HDD",Australia,"HPI - All Countries",10.52631579,Active
[updated],Desktop,"Crush & recycle HDD",Australia,"HPI - All Countries",10.52631579,Active
[updated],Notebook,"Crush & recycle HDD",Australia,"HPI - All Countries",10.52631579,Active
[updated],Workstation,"Crush & recycle HDD",Australia,"HPI - All Countries",10.52631579,Active
[updated],All-in-One,"Three-pass wipe + crush & recycle",Australia,"HPI - All Countries",15.03759398,Active
[updated],Desktop,"Three-pass wipe + crush & recycle",Australia,"HPI - All Countries",15.03759398,Active
[updated],Notebook,"Three-pass wipe + crush & recycle",Australia,"HPI - All Countries",15.03759398,Active
[updated],Workstation,"Three-pass wipe + crush & recycle",Australia,"HPI - All Countries",15.03759398,Active
[updated],Workstation,"Seven-pass disk wipe",Australia,"HPI - All Countries",16.54135338,Active
[updated],All-in-One,"Seven-pass disk wipe",Australia,"HPI - All Countries",16.54135338,Active
[updated],Desktop,"Seven-pass disk wipe",Australia,"HPI - All Countries",16.54135338,Active
[updated],Notebook,"Seven-pass disk wipe",Australia,"HPI - All Countries",16.54135338,Active
[updated],Notebook,"HDD Missing - Assess & Report only",Singapore,"HPI - All Countries",3.571428571,Active
[updated],Desktop,"HDD Missing - Assess & Report only",Singapore,"HPI - All Countries",3.571428571,Active
[updated],All-in-One,"HDD Missing - Assess & Report only",Singapore,"HPI - All Countries",3.571428571,Active
[updated],Workstation,"HDD Missing - Assess & Report only",Singapore,"HPI - All Countries",3.571428571,Active
[updated],Desktop,"Three-pass disk wipe",Singapore,"HPI - All Countries",7.142857143,Active
[updated],Notebook,"Three-pass disk wipe",Singapore,"HPI - All Countries",7.142857143,Active
[updated],All-in-One,"Three-pass disk wipe",Singapore,"HPI - All Countries",7.142857143,Active
[updated],Workstation,"Three-pass disk wipe",Singapore,"HPI - All Countries",7.142857143,Active
[updated],All-in-One,"Crush & recycle HDD",Singapore,"HPI - All Countries",10,Active
[updated],Desktop,"Crush & recycle HDD",Singapore,"HPI - All Countries",10,Active
[updated],Notebook,"Crush & recycle HDD",Singapore,"HPI - All Countries",10,Active
[updated],Workstation,"Crush & recycle HDD",Singapore,"HPI - All Countries",10,Active
[updated],All-in-One,"Three-pass wipe + crush & recycle",Singapore,"HPI - All Countries",12.85714286,Active
[updated],Desktop,"Three-pass wipe + crush & recycle",Singapore,"HPI - All Countries",12.85714286,Active
[updated],Notebook,"Three-pass wipe + crush & recycle",Singapore,"HPI - All Countries",12.85714286,Active
[updated],Workstation,"Three-pass wipe + crush & recycle",Singapore,"HPI - All Countries",12.85714286,Active
[updated],Workstation,"Seven-pass disk wipe",Singapore,"HPI - All Countries",14.28571429,Active
[updated],All-in-One,"Seven-pass disk wipe",Singapore,"HPI - All Countries",14.28571429,Active
[updated],Desktop,"Seven-pass disk wipe",Singapore,"HPI - All Countries",14.28571429,Active
[updated],Notebook,"Seven-pass disk wipe",Singapore,"HPI - All Countries",14.28571429,Active
[updated],Notebook,"HDD Missing - Assess & Report only",India,"HPI - All Countries",3.703703704,Active
[updated],Desktop,"HDD Missing - Assess & Report only",India,"HPI - All Countries",3.703703704,Active
[updated],All-in-One,"HDD Missing - Assess & Report only",India,"HPI - All Countries",3.703703704,Active
[updated],Workstation,"HDD Missing - Assess & Report only",India,"HPI - All Countries",3.703703704,Active
[updated],Desktop,"Three-pass disk wipe",India,"HPI - All Countries",7.407407407,Active
[updated],Notebook,"Three-pass disk wipe",India,"HPI - All Countries",7.407407407,Active
[updated],All-in-One,"Three-pass disk wipe",India,"HPI - All Countries",7.407407407,Active
[updated],Workstation,"Three-pass disk wipe",India,"HPI - All Countries",7.407407407,Active
[updated],All-in-One,"Crush & recycle HDD",India,"HPI - All Countries",10.37037037,Active
[updated],Desktop,"Crush & recycle HDD",India,"HPI - All Countries",10.37037037,Active
[updated],Notebook,"Crush & recycle HDD",India,"HPI - All Countries",10.37037037,Active
[updated],Workstation,"Crush & recycle HDD",India,"HPI - All Countries",10.37037037,Active
[updated],All-in-One,"Three-pass wipe + crush & recycle",India,"HPI - All Countries",13.33333333,Active
[updated],Desktop,"Three-pass wipe + crush & recycle",India,"HPI - All Countries",13.33333333,Active
[updated],Notebook,"Three-pass wipe + crush & recycle",India,"HPI - All Countries",13.33333333,Active
[updated],Workstation,"Three-pass wipe + crush & recycle",India,"HPI - All Countries",13.33333333,Active
[updated],Workstation,"Seven-pass disk wipe",India,"HPI - All Countries",14.81481481,Active
[updated],All-in-One,"Seven-pass disk wipe",India,"HPI - All Countries",14.81481481,Active
[updated],Desktop,"Seven-pass disk wipe",India,"HPI - All Countries",14.81481481,Active
[updated],Notebook,"Seven-pass disk wipe",India,"HPI - All Countries",14.81481481,Active
[updated],Notebook,"HDD Missing - Assess & Report only",Japan,"HPI - All Countries",4.424778761,Active
[updated],Desktop,"HDD Missing - Assess & Report only",Japan,"HPI - All Countries",4.424778761,Active
[updated],All-in-One,"HDD Missing - Assess & Report only",Japan,"HPI - All Countries",4.424778761,Active
[updated],Workstation,"HDD Missing - Assess & Report only",Japan,"HPI - All Countries",4.424778761,Active
[updated],Desktop,"Three-pass disk wipe",Japan,"HPI - All Countries",8.849557522,Active
[updated],Notebook,"Three-pass disk wipe",Japan,"HPI - All Countries",8.849557522,Active
[updated],All-in-One,"Three-pass disk wipe",Japan,"HPI - All Countries",8.849557522,Active
[updated],Workstation,"Three-pass disk wipe",Japan,"HPI - All Countries",8.849557522,Active
[updated],All-in-One,"Crush & recycle HDD",Japan,"HPI - All Countries",10.61946903,Active
[updated],Desktop,"Crush & recycle HDD",Japan,"HPI - All Countries",10.61946903,Active
[updated],Notebook,"Crush & recycle HDD",Japan,"HPI - All Countries",10.61946903,Active
[updated],Workstation,"Crush & recycle HDD",Japan,"HPI - All Countries",10.61946903,Active
[updated],All-in-One,"Three-pass wipe + crush & recycle",Japan,"HPI - All Countries",14.15929204,Active
[updated],Desktop,"Three-pass wipe + crush & recycle",Japan,"HPI - All Countries",14.15929204,Active
[updated],Notebook,"Three-pass wipe + crush & recycle",Japan,"HPI - All Countries",14.15929204,Active
[updated],Workstation,"Three-pass wipe + crush & recycle",Japan,"HPI - All Countries",14.15929204,Active
[updated],Workstation,"Seven-pass disk wipe",Japan,"HPI - All Countries",15.92920354,Active
[updated],All-in-One,"Seven-pass disk wipe",Japan,"HPI - All Countries",15.92920354,Active
[updated],Desktop,"Seven-pass disk wipe",Japan,"HPI - All Countries",15.92920354,Active
[updated],Notebook,"Seven-pass disk wipe",Japan,"HPI - All Countries",15.92920354,Active
[updated],Notebook,"HDD Missing - Assess & Report only",UAE,"HPI - All Countries",4.08719346,Active
[updated],Desktop,"HDD Missing - Assess & Report only",UAE,"HPI - All Countries",4.08719346,Active
[updated],All-in-One,"HDD Missing - Assess & Report only",UAE,"HPI - All Countries",4.08719346,Active
[updated],Workstation,"HDD Missing - Assess & Report only",UAE,"HPI - All Countries",4.08719346,Active
[updated],Desktop,"Three-pass disk wipe",UAE,"HPI - All Countries",8.174386921,Active
[updated],Notebook,"Three-pass disk wipe",UAE,"HPI - All Countries",8.174386921,Active
[updated],All-in-One,"Three-pass disk wipe",UAE,"HPI - All Countries",8.174386921,Active
[updated],Workstation,"Three-pass disk wipe",UAE,"HPI - All Countries",8.174386921,Active
[updated],All-in-One,"Crush & recycle HDD",UAE,"HPI - All Countries",9.809264305,Active
[updated],Desktop,"Crush & recycle HDD",UAE,"HPI - All Countries",9.809264305,Active
[updated],Notebook,"Crush & recycle HDD",UAE,"HPI - All Countries",9.809264305,Active
[updated],Workstation,"Crush & recycle HDD",UAE,"HPI - All Countries",9.809264305,Active
[updated],All-in-One,"Three-pass wipe + crush & recycle",UAE,"HPI - All Countries",13.6239782,Active
[updated],Desktop,"Three-pass wipe + crush & recycle",UAE,"HPI - All Countries",13.6239782,Active
[updated],Notebook,"Three-pass wipe + crush & recycle",UAE,"HPI - All Countries",13.6239782,Active
[updated],Workstation,"Three-pass wipe + crush & recycle",UAE,"HPI - All Countries",13.6239782,Active
[updated],Workstation,"Seven-pass disk wipe",UAE,"HPI - All Countries",16.34877384,Active
[updated],All-in-One,"Seven-pass disk wipe",UAE,"HPI - All Countries",16.34877384,Active
[updated],Desktop,"Seven-pass disk wipe",UAE,"HPI - All Countries",16.34877384,Active
[updated],Notebook,"Seven-pass disk wipe",UAE,"HPI - All Countries",16.34877384,Active
[updated],Notebook,"HDD Missing - Assess & Report only","Hong Kong","HPI - All Countries",4.166666667,Active
[updated],Desktop,"HDD Missing - Assess & Report only","Hong Kong","HPI - All Countries",4.166666667,Active
[updated],All-in-One,"HDD Missing - Assess & Report only","Hong Kong","HPI - All Countries",4.166666667,Active
[updated],Workstation,"HDD Missing - Assess & Report only","Hong Kong","HPI - All Countries",4.166666667,Active
[updated],Desktop,"Three-pass disk wipe","Hong Kong","HPI - All Countries",8.333333333,Active
[updated],Notebook,"Three-pass disk wipe","Hong Kong","HPI - All Countries",8.333333333,Active
[updated],All-in-One,"Three-pass disk wipe","Hong Kong","HPI - All Countries",8.333333333,Active
[updated],Workstation,"Three-pass disk wipe","Hong Kong","HPI - All Countries",8.333333333,Active
[updated],All-in-One,"Crush & recycle HDD","Hong Kong","HPI - All Countries",10.25641026,Active
[updated],Desktop,"Crush & recycle HDD","Hong Kong","HPI - All Countries",10.25641026,Active
[updated],Notebook,"Crush & recycle HDD","Hong Kong","HPI - All Countries",10.25641026,Active
[updated],Workstation,"Crush & recycle HDD","Hong Kong","HPI - All Countries",10.25641026,Active
[updated],All-in-One,"Three-pass wipe + crush & recycle","Hong Kong","HPI - All Countries",14.1025641,Active
[updated],Desktop,"Three-pass wipe + crush & recycle","Hong Kong","HPI - All Countries",14.1025641,Active
[updated],Notebook,"Three-pass wipe + crush & recycle","Hong Kong","HPI - All Countries",14.1025641,Active
[updated],Workstation,"Three-pass wipe + crush & recycle","Hong Kong","HPI - All Countries",14.1025641,Active
[updated],Workstation,"Seven-pass disk wipe","Hong Kong","HPI - All Countries",16.02564103,Active
[updated],All-in-One,"Seven-pass disk wipe","Hong Kong","HPI - All Countries",16.02564103,Active
[updated],Desktop,"Seven-pass disk wipe","Hong Kong","HPI - All Countries",16.02564103,Active
[updated],Notebook,"Seven-pass disk wipe","Hong Kong","HPI - All Countries",16.02564103,Active
[updated],Notebook,"HDD Missing - Assess & Report only",Germany,"HPI - All Countries",5.747126437,Active
[updated],Desktop,"HDD Missing - Assess & Report only",Germany,"HPI - All Countries",5.747126437,Active
[updated],All-in-One,"HDD Missing - Assess & Report only",Germany,"HPI - All Countries",5.747126437,Active
[updated],Workstation,"HDD Missing - Assess & Report only",Germany,"HPI - All Countries",5.747126437,Active
[updated],Notebook,"Three-pass disk wipe",Germany,"HPI - All Countries",11.49425287,Active
[updated],Desktop,"Three-pass disk wipe",Germany,"HPI - All Countries",11.49425287,Active
[updated],All-in-One,"Three-pass disk wipe",Germany,"HPI - All Countries",11.49425287,Active
[updated],Workstation,"Three-pass disk wipe",Germany,"HPI - All Countries",11.49425287,Active
[updated],Notebook,"Crush & recycle HDD",Germany,"HPI - All Countries",13.79310345,Active
[updated],Desktop,"Crush & recycle HDD",Germany,"HPI - All Countries",13.79310345,Active
[updated],All-in-One,"Crush & recycle HDD",Germany,"HPI - All Countries",13.79310345,Active
[updated],Workstation,"Crush & recycle HDD",Germany,"HPI - All Countries",13.79310345,Active
[updated],Notebook,"Three-pass wipe + crush & recycle",Germany,"HPI - All Countries",16.09195402,Active
[updated],Desktop,"Three-pass wipe + crush & recycle",Germany,"HPI - All Countries",16.09195402,Active
[updated],All-in-One,"Three-pass wipe + crush & recycle",Germany,"HPI - All Countries",16.09195402,Active
[updated],Workstation,"Three-pass wipe + crush & recycle",Germany,"HPI - All Countries",16.09195402,Active
[updated],Notebook,"Seven-pass disk wipe",Germany,"HPI - All Countries",18.3908046,Active
[updated],Desktop,"Seven-pass disk wipe",Germany,"HPI - All Countries",18.3908046,Active
[updated],All-in-One,"Seven-pass disk wipe",Germany,"HPI - All Countries",18.3908046,Active
[updated],Workstation,"Seven-pass disk wipe",Germany,"HPI - All Countries",18.3908046,Active
[updated],Notebook,"HDD Missing - Assess & Report only",France,"HPI - All Countries",5.747126437,Active
[updated],Desktop,"HDD Missing - Assess & Report only",France,"HPI - All Countries",5.747126437,Active
[updated],All-in-One,"HDD Missing - Assess & Report only",France,"HPI - All Countries",5.747126437,Active
[updated],Workstation,"HDD Missing - Assess & Report only",France,"HPI - All Countries",5.747126437,Active
[updated],Notebook,"Three-pass disk wipe",France,"HPI - All Countries",11.49425287,Active
[updated],Desktop,"Three-pass disk wipe",France,"HPI - All Countries",11.49425287,Active
[updated],All-in-One,"Three-pass disk wipe",France,"HPI - All Countries",11.49425287,Active
[updated],Workstation,"Three-pass disk wipe",France,"HPI - All Countries",11.49425287,Active
[updated],Notebook,"Crush & recycle HDD",France,"HPI - All Countries",13.79310345,Active
[updated],Desktop,"Crush & recycle HDD",France,"HPI - All Countries",13.79310345,Active
[updated],All-in-One,"Crush & recycle HDD",France,"HPI - All Countries",13.79310345,Active
[updated],Workstation,"Crush & recycle HDD",France,"HPI - All Countries",13.79310345,Active
[updated],Notebook,"Three-pass wipe + crush & recycle",France,"HPI - All Countries",16.09195402,Active
[updated],Desktop,"Three-pass wipe + crush & recycle",France,"HPI - All Countries",16.09195402,Active
[updated],All-in-One,"Three-pass wipe + crush & recycle",France,"HPI - All Countries",16.09195402,Active
[updated],Workstation,"Three-pass wipe + crush & recycle",France,"HPI - All Countries",16.09195402,Active
[updated],Notebook,"Seven-pass disk wipe",France,"HPI - All Countries",18.3908046,Active
[updated],Desktop,"Seven-pass disk wipe",France,"HPI - All Countries",18.3908046,Active
[updated],All-in-One,"Seven-pass disk wipe",France,"HPI - All Countries",18.3908046,Active
[updated],Workstation,"Seven-pass disk wipe",France,"HPI - All Countries",18.3908046,Active
[updated],Notebook,"HDD Missing - Assess & Report only",Belgium,"HPI - All Countries",5.747126437,Active
[updated],Desktop,"HDD Missing - Assess & Report only",Belgium,"HPI - All Countries",5.747126437,Active
[updated],All-in-One,"HDD Missing - Assess & Report only",Belgium,"HPI - All Countries",5.747126437,Active
[updated],Workstation,"HDD Missing - Assess & Report only",Belgium,"HPI - All Countries",5.747126437,Active
[updated],Notebook,"Three-pass disk wipe",Belgium,"HPI - All Countries",11.49425287,Active
[updated],Desktop,"Three-pass disk wipe",Belgium,"HPI - All Countries",11.49425287,Active
[updated],All-in-One,"Three-pass disk wipe",Belgium,"HPI - All Countries",11.49425287,Active
[updated],Workstation,"Three-pass disk wipe",Belgium,"HPI - All Countries",11.49425287,Active
[updated],Notebook,"Crush & recycle HDD",Belgium,"HPI - All Countries",13.79310345,Active
[updated],Desktop,"Crush & recycle HDD",Belgium,"HPI - All Countries",13.79310345,Active
[updated],All-in-One,"Crush & recycle HDD",Belgium,"HPI - All Countries",13.79310345,Active
[updated],Workstation,"Crush & recycle HDD",Belgium,"HPI - All Countries",13.79310345,Active
[updated],Notebook,"Three-pass wipe + crush & recycle",Belgium,"HPI - All Countries",16.09195402,Active
[updated],Desktop,"Three-pass wipe + crush & recycle",Belgium,"HPI - All Countries",16.09195402,Active
[updated],All-in-One,"Three-pass wipe + crush & recycle",Belgium,"HPI - All Countries",16.09195402,Active
[updated],Workstation,"Three-pass wipe + crush & recycle",Belgium,"HPI - All Countries",16.09195402,Active
[updated],Notebook,"Seven-pass disk wipe",Belgium,"HPI - All Countries",18.3908046,Active
[updated],Desktop,"Seven-pass disk wipe",Belgium,"HPI - All Countries",18.3908046,Active
[updated],All-in-One,"Seven-pass disk wipe",Belgium,"HPI - All Countries",18.3908046,Active
[updated],Workstation,"Seven-pass disk wipe",Belgium,"HPI - All Countries",18.3908046,Active
[updated],Notebook,"HDD Missing - Assess & Report only",Netherlands,"HPI - All Countries",5.747126437,Active
[updated],Desktop,"HDD Missing - Assess & Report only",Netherlands,"HPI - All Countries",5.747126437,Active
[updated],All-in-One,"HDD Missing - Assess & Report only",Netherlands,"HPI - All Countries",5.747126437,Active
[updated],Workstation,"HDD Missing - Assess & Report only",Netherlands,"HPI - All Countries",5.747126437,Active
[updated],Notebook,"Three-pass disk wipe",Netherlands,"HPI - All Countries",11.49425287,Active
[updated],Desktop,"Three-pass disk wipe",Netherlands,"HPI - All Countries",11.49425287,Active
[updated],All-in-One,"Three-pass disk wipe",Netherlands,"HPI - All Countries",11.49425287,Active
[updated],Workstation,"Three-pass disk wipe",Netherlands,"HPI - All Countries",11.49425287,Active
[updated],Notebook,"Crush & recycle HDD",Netherlands,"HPI - All Countries",13.79310345,Active
[updated],Desktop,"Crush & recycle HDD",Netherlands,"HPI - All Countries",13.79310345,Active
[updated],All-in-One,"Crush & recycle HDD",Netherlands,"HPI - All Countries",13.79310345,Active
[updated],Workstation,"Crush & recycle HDD",Netherlands,"HPI - All Countries",13.79310345,Active
[updated],Notebook,"Three-pass wipe + crush & recycle",Netherlands,"HPI - All Countries",16.09195402,Active
[updated],Desktop,"Three-pass wipe + crush & recycle",Netherlands,"HPI - All Countries",16.09195402,Active
[updated],All-in-One,"Three-pass wipe + crush & recycle",Netherlands,"HPI - All Countries",16.09195402,Active
[updated],Workstation,"Three-pass wipe + crush & recycle",Netherlands,"HPI - All Countries",16.09195402,Active
[updated],Notebook,"Seven-pass disk wipe",Netherlands,"HPI - All Countries",18.3908046,Active
[updated],Desktop,"Seven-pass disk wipe",Netherlands,"HPI - All Countries",18.3908046,Active
[updated],All-in-One,"Seven-pass disk wipe",Netherlands,"HPI - All Countries",18.3908046,Active
[updated],Workstation,"Seven-pass disk wipe",Netherlands,"HPI - All Countries",18.3908046,Active
[updated],Notebook,"HDD Missing - Assess & Report only",Luxembourg,"HPI - All Countries",5.747126437,Active
[updated],Desktop,"HDD Missing - Assess & Report only",Luxembourg,"HPI - All Countries",5.747126437,Active
[updated],All-in-One,"HDD Missing - Assess & Report only",Luxembourg,"HPI - All Countries",5.747126437,Active
[updated],Workstation,"HDD Missing - Assess & Report only",Luxembourg,"HPI - All Countries",5.747126437,Active
[updated],Notebook,"Three-pass disk wipe",Luxembourg,"HPI - All Countries",11.49425287,Active
[updated],Desktop,"Three-pass disk wipe",Luxembourg,"HPI - All Countries",11.49425287,Active
[updated],All-in-One,"Three-pass disk wipe",Luxembourg,"HPI - All Countries",11.49425287,Active
[updated],Workstation,"Three-pass disk wipe",Luxembourg,"HPI - All Countries",11.49425287,Active
[updated],Notebook,"Crush & recycle HDD",Luxembourg,"HPI - All Countries",13.79310345,Active
[updated],Desktop,"Crush & recycle HDD",Luxembourg,"HPI - All Countries",13.79310345,Active
[updated],All-in-One,"Crush & recycle HDD",Luxembourg,"HPI - All Countries",13.79310345,Active
[updated],Workstation,"Crush & recycle HDD",Luxembourg,"HPI - All Countries",13.79310345,Active
[updated],Notebook,"Three-pass wipe + crush & recycle",Luxembourg,"HPI - All Countries",16.09195402,Active
[updated],Desktop,"Three-pass wipe + crush & recycle",Luxembourg,"HPI - All Countries",16.09195402,Active
[updated],All-in-One,"Three-pass wipe + crush & recycle",Luxembourg,"HPI - All Countries",16.09195402,Active
[updated],Workstation,"Three-pass wipe + crush & recycle",Luxembourg,"HPI - All Countries",16.09195402,Active
[updated],Notebook,"Seven-pass disk wipe",Luxembourg,"HPI - All Countries",18.3908046,Active
[updated],Desktop,"Seven-pass disk wipe",Luxembourg,"HPI - All Countries",18.3908046,Active
[updated],All-in-One,"Seven-pass disk wipe",Luxembourg,"HPI - All Countries",18.3908046,Active
[updated],Workstation,"Seven-pass disk wipe",Luxembourg,"HPI - All Countries",18.3908046,Active
[updated],Notebook,"HDD Missing - Assess & Report only","United Kingdom","HPI - All Countries",3.947368421,Active
[updated],Desktop,"HDD Missing - Assess & Report only","United Kingdom","HPI - All Countries",3.947368421,Active
[updated],All-in-One,"HDD Missing - Assess & Report only","United Kingdom","HPI - All Countries",3.947368421,Active
[updated],Workstation,"HDD Missing - Assess & Report only","United Kingdom","HPI - All Countries",3.947368421,Active
[updated],Notebook,"Three-pass disk wipe","United Kingdom","HPI - All Countries",7.894736842,Active
[updated],Desktop,"Three-pass disk wipe","United Kingdom","HPI - All Countries",7.894736842,Active
[updated],All-in-One,"Three-pass disk wipe","United Kingdom","HPI - All Countries",7.894736842,Active
[updated],Workstation,"Three-pass disk wipe","United Kingdom","HPI - All Countries",7.894736842,Active
[updated],Notebook,"Crush & recycle HDD","United Kingdom","HPI - All Countries",10.52631579,Active
[updated],Desktop,"Crush & recycle HDD","United Kingdom","HPI - All Countries",10.52631579,Active
[updated],All-in-One,"Crush & recycle HDD","United Kingdom","HPI - All Countries",10.52631579,Active
[updated],Workstation,"Crush & recycle HDD","United Kingdom","HPI - All Countries",10.52631579,Active
[updated],Notebook,"Three-pass wipe + crush & recycle","United Kingdom","HPI - All Countries",14.47368421,Active
[updated],Desktop,"Three-pass wipe + crush & recycle","United Kingdom","HPI - All Countries",14.47368421,Active
[updated],All-in-One,"Three-pass wipe + crush & recycle","United Kingdom","HPI - All Countries",14.47368421,Active
[updated],Workstation,"Three-pass wipe + crush & recycle","United Kingdom","HPI - All Countries",14.47368421,Active
[updated],Notebook,"Seven-pass disk wipe","United Kingdom","HPI - All Countries",18.42105263,Active
[updated],Desktop,"Seven-pass disk wipe","United Kingdom","HPI - All Countries",18.42105263,Active
[updated],All-in-One,"Seven-pass disk wipe","United Kingdom","HPI - All Countries",18.42105263,Active
[updated],Workstation,"Seven-pass disk wipe","United Kingdom","HPI - All Countries",18.42105263,Active
